**** Best Individual - #gen:100 ****
ChromeSize: 55	Kernels: 31	Fitness: 0.9867454957
Chromosome: [1 1 1 0 1 1 1 1 1 1 1 1 1 1 1 1 1 1 1 1 0 0 1 0 1 0 1 0 0 1 0 0 0 0 0 0 1 0 0 0 0 1 1 0 0 0 1 0 1 1 0 1 1 0 0]
Kernels: [0 1 2 4 5 6 7 8 9 10 11 12 13 14 15 16 17 18 19 22 24 26 29 36 41 42 46 48 49 51 52]
W: [0.3599630815 0.2398115485 0.1267092535 -0.1270362185 0.3443518924 0.2829349985 0.2268947751 0.1625222966 0.0910196836 0.2429603238 0.1899272244 0.1257914907 0.0622534896 0.1405434440 0.0896475719 0.0428776572 0.0474381025 0.0068538535 -0.0243351965 -0.0039062097 0.0024768451 -0.0052782900 -0.0007911845 -0.0019582409 -0.0001875848 -0.0005954803 0.0033542056 0.0039008206 -0.0022374523 -0.0013992350 0.0005716324]
Time: 01m52s