**** Best Individual - #gen:100 ****
ChromeSize: 55	Kernels: 8	Fitness: 0.5639974215
Chromosome: [1 0 0 0 0 0 0 1 0 0 1 1 0 0 0 0 0 0 0 0 0 0 0 0 0 1 0 0 0 0 0 0 0 1 0 0 0 0 0 0 0 0 0 0 0 0 0 0 0 1 1 0 0 0 0]
Kernels: [0 7 10 11 25 33 49 50]
W: [0.6818006127 -0.0980994862 1.1817179246 0.7714728348 -0.0637523992 0.0357465868 0.0851879968 0.0429897179]
Time: 00m16s