**** Best Individual - #gen:100 ****
ChromeSize: 55	Kernels: 9	Fitness: 0.5846950291
Chromosome: [1 0 0 0 0 1 1 0 0 0 1 1 0 0 0 0 0 0 0 0 0 0 0 0 0 0 0 0 0 0 0 0 0 1 0 0 0 1 0 0 0 0 0 0 0 0 0 0 0 0 0 0 0 1 1]
Kernels: [0 5 6 10 11 33 37 53 54]
W: [0.5940391759 0.0102980182 0.0170506091 1.1937743646 0.7908924676 -0.0148200542 -0.0075294466 -0.0011725262 -0.0049196373]
Time: 04m17s