**** Best Individual - #gen:100 ****
ChromeSize: 55	Kernels: 12	Fitness: 0.9490316722
Chromosome: [1 0 0 0 0 0 0 0 0 0 1 1 0 0 1 1 1 0 0 0 0 0 0 0 1 0 0 0 0 0 0 0 0 0 1 0 0 0 1 0 0 0 0 1 1 1 0 0 0 0 0 0 0 0 0]
Kernels: [0 10 11 14 15 16 24 34 38 43 44 45]
W: [0.6022073710 1.1996203974 0.8023547084 -0.0031157242 0.0048800083 0.0035876221 -0.0004347313 -0.0022206916 -0.0013792507 -0.0033980361 -0.0018824734 -0.0008130058]
Time: 04m26s