**** Best Individual - #gen:100 ****
ChromeSize: 55	Kernels: 13	Fitness: 0.5988332557
Chromosome: [1 0 0 0 0 0 0 0 0 0 1 1 0 0 0 0 0 0 0 0 0 0 1 0 0 1 0 0 1 0 0 0 1 1 1 0 0 0 0 0 0 0 0 1 0 0 1 0 0 0 0 0 0 1 1]
Kernels: [0 10 11 22 25 28 32 33 34 43 46 53 54]
W: [0.5864896958 1.1978179496 0.7990183611 -0.0074855700 0.0098963120 -0.0078154812 -0.0088042258 0.0005185202 0.0104226021 0.0117323330 0.0087135558 -0.0069384702 0.0048090121]
Time: 04m32s