**** Best Individual - #gen:100 ****
ChromeSize: 55	Kernels: 8	Fitness: 0.9035078969
Chromosome: [1 0 1 0 0 0 0 0 0 0 0 0 0 0 1 0 0 0 0 0 0 0 0 0 0 1 0 0 0 0 1 0 0 0 0 1 0 0 0 0 1 0 0 0 0 0 0 0 0 1 0 0 0 0 0]
Kernels: [0 2 14 25 30 35 40 49]
W: [-0.0356655173 0.9869666292 0.0897602783 0.0189826221 0.0226418908 -0.0458163780 0.0191756423 0.0094302399]
Time: 00m32s