Generations   Fitness        Kernels <= 8   Time
10            0.8402363746    8              00m00s
20            0.8409609378    8              00m00s
30            0.8415048593    8              00m00s
40            0.8420292576    8              00m00s
50            0.8411958410    8              00m00s
60            0.8421805099    8              00m00s
70            0.8412042118    8              00m00s
80            0.8420485123    8              00m00s
90            0.8413967793    7              00m00s
100           0.8418687565    8              00m00s