**** Best Individual - #gen:10 ****
ChromeSize: 55	Kernels: 13	Fitness: 0.8421099596
Chromosome: [1 0 0 0 0 1 0 0 0 0 1 1 0 0 0 1 0 0 1 0 0 1 0 1 0 0 0 1 0 0 0 0 0 0 1 0 1 1 0 0 0 0 0 0 0 0 0 1 0 0 0 0 0 0 0]
Kernels: [0 5 10 11 15 18 21 23 27 34 36 37 47]
W: [0.6111028666 -0.0081276149 1.2043489117 0.7917731525 -0.0147241546 0.0242331540 0.0056125839 -0.0095761720 -0.0099465759 -0.0231993837 -0.0150220946 -0.0048077335 0.0019368564]
Time: 00m00s


**** Best Individual - #gen:20 ****
ChromeSize: 55	Kernels: 14	Fitness: 0.8427328405
Chromosome: [1 0 1 1 0 0 0 0 1 0 1 1 0 0 1 0 0 0 0 0 1 0 1 0 0 1 0 0 0 1 0 0 0 0 0 1 0 0 0 0 0 0 0 0 0 1 0 1 0 0 0 0 0 0 0]
Kernels: [0 2 3 8 10 11 14 20 22 25 29 35 45 47]
W: [0.6285629323 -0.0591588170 0.0000543265 0.0171828401 1.1857830297 0.8108415740 0.0213139281 -0.0038713359 0.0127621719 -0.0100103342 -0.0179417706 -0.0023563623 0.0119253405 -0.0044063859]
Time: 00m00s


**** Best Individual - #gen:30 ****
ChromeSize: 55	Kernels: 14	Fitness: 0.8431486428
Chromosome: [1 0 1 0 0 0 1 0 0 0 1 1 0 1 0 0 0 0 1 1 0 0 0 0 0 0 0 0 0 1 0 0 1 0 0 0 0 0 0 1 0 0 0 1 0 0 0 1 0 1 0 0 0 0 0]
Kernels: [0 2 6 10 11 13 18 19 29 32 39 43 47 49]
W: [0.5632115175 0.0170156358 0.0043990827 1.2077259715 0.7930469665 -0.0388991554 -0.0230284486 -0.0047271103 0.0070166327 0.0207471238 0.0001902136 0.0075292392 -0.0125669322 -0.0199161582]
Time: 00m00s


**** Best Individual - #gen:40 ****
ChromeSize: 55	Kernels: 14	Fitness: 0.8427941751
Chromosome: [1 0 0 0 0 0 0 0 0 0 1 1 0 0 0 1 1 1 0 0 0 1 0 0 0 0 0 0 0 0 1 1 0 0 1 0 0 1 1 0 0 0 0 0 0 0 0 1 0 0 0 0 1 0 0]
Kernels: [0 10 11 15 16 17 21 30 31 34 37 38 47 52]
W: [0.5735630854 1.1986774801 0.8078406542 -0.0114818395 -0.0170847869 -0.0028411736 -0.0025625217 0.0199706605 -0.0192824347 0.0153236777 0.0027015182 -0.0243027697 0.0113426585 0.0189660752]
Time: 00m00s


**** Best Individual - #gen:50 ****
ChromeSize: 55	Kernels: 14	Fitness: 0.8433756425
Chromosome: [1 0 0 0 0 0 1 1 0 0 1 1 0 0 0 1 1 0 0 0 0 0 0 0 0 0 1 0 0 0 0 0 0 0 1 1 0 0 0 0 0 1 0 0 0 0 0 0 0 1 1 1 0 0 0]
Kernels: [0 6 7 10 11 15 16 26 34 35 41 49 50 51]
W: [0.5573818356 0.0106690010 -0.0057158653 1.2055282893 0.8100159110 0.0033686354 0.0203955073 -0.0188186011 0.0203582906 0.0015020610 0.0334911169 0.0108250483 -0.0143349089 0.0066007247]
Time: 00m00s


**** Best Individual - #gen:60 ****
ChromeSize: 55	Kernels: 14	Fitness: 0.8429896287
Chromosome: [1 0 1 0 0 1 0 0 1 0 1 1 1 0 0 0 1 0 1 0 1 0 0 0 0 0 0 0 0 1 0 0 1 0 0 0 1 0 0 0 0 0 0 0 0 0 0 0 0 0 0 1 0 0 0]
Kernels: [0 2 5 8 10 11 12 16 18 20 29 32 36 51]
W: [0.6546338266 0.0039607786 -0.0114666773 -0.0216298467 1.1995239975 0.8119441758 -0.0172765552 -0.0213333094 -0.0317456182 -0.0077322967 -0.0101062113 -0.0165798709 0.0095787210 -0.0045720119]
Time: 00m00s


**** Best Individual - #gen:70 ****
ChromeSize: 55	Kernels: 13	Fitness: 0.8442705586
Chromosome: [1 0 0 0 0 0 1 0 0 1 1 1 0 1 0 0 0 0 0 0 1 0 0 0 1 1 1 0 0 0 0 0 1 0 0 0 0 1 0 0 0 1 0 0 0 0 0 0 0 0 0 0 0 0 0]
Kernels: [0 6 9 10 11 13 20 24 25 26 32 37 41]
W: [0.6675654893 -0.0234733531 0.0241028258 1.1992169672 0.7937823679 0.0202972654 -0.0145592929 0.0001974394 -0.0239175210 -0.0331656726 -0.0112650444 0.0016701018 0.0333568670]
Time: 00m00s


**** Best Individual - #gen:80 ****
ChromeSize: 55	Kernels: 14	Fitness: 0.8413242345
Chromosome: [1 1 1 0 0 1 0 0 0 0 1 1 0 0 0 0 0 0 0 0 0 0 0 0 0 0 0 1 1 0 1 0 0 0 0 0 1 1 0 0 1 0 0 1 1 0 0 0 0 0 0 0 0 0 0]
Kernels: [0 1 2 5 10 11 27 28 30 36 37 40 43 44]
W: [0.6089189798 -0.0141045172 0.0274694260 -0.0101047380 1.2031684220 0.8067147770 0.0030480803 -0.0199489538 0.0189321955 -0.0212996991 0.0009638828 0.0013291798 0.0176930361 0.0145453692]
Time: 00m00s


**** Best Individual - #gen:90 ****
ChromeSize: 55	Kernels: 14	Fitness: 0.8423052175
Chromosome: [1 1 0 0 0 0 1 0 0 0 1 1 1 0 0 1 0 1 0 0 0 0 0 0 0 1 0 0 1 0 0 0 0 0 0 0 1 0 0 0 0 1 0 0 1 0 0 0 0 0 1 0 0 0 0]
Kernels: [0 1 6 10 11 12 15 17 25 28 36 41 44 50]
W: [0.6056568262 0.0198185955 0.0189300799 1.2070575848 0.7923090858 -0.0182207211 -0.0213520280 -0.0142245906 -0.0062074141 0.0071031845 0.0123172332 0.0286360694 -0.0091785097 -0.0113143241]
Time: 00m00s


**** Best Individual - #gen:100 ****
ChromeSize: 55	Kernels: 14	Fitness: 0.8447284447
Chromosome: [1 0 1 0 0 0 1 0 0 0 1 1 0 1 0 0 0 1 0 0 0 0 0 1 0 0 0 0 1 0 0 0 1 0 0 0 0 0 0 0 0 0 1 0 0 1 0 1 1 0 0 0 0 0 0]
Kernels: [0 2 6 10 11 13 17 23 28 32 42 45 47 48]
W: [0.5570726651 -0.0068575172 0.0179346712 1.1963152963 0.7958570241 -0.0121084522 0.0231929642 0.0225139688 0.0091157054 0.0239636063 0.0097777449 0.0103310454 -0.0108443940 -0.0118871302]
Time: 00m00s