**** Best Individual - #gen:10 ****
ChromeSize: 55	Kernels: 11	Fitness: 0.8417777526
Chromosome: [1 0 0 0 0 0 0 0 0 0 1 1 0 0 1 0 0 0 0 0 0 1 0 0 0 1 0 0 0 1 0 0 0 0 0 1 0 0 0 0 0 0 0 1 0 0 0 0 1 0 1 0 0 0 0]
Kernels: [0 10 11 14 21 25 29 35 43 48 50]
W: [0.5711964342 1.2053271085 0.8099801941 -0.0208156418 -0.0035998154 0.0110981335 -0.0141266912 0.0043373505 -0.0086858676 0.0028654943 0.0072846575]
Time: 00m00s


**** Best Individual - #gen:20 ****
ChromeSize: 55	Kernels: 11	Fitness: 0.8413628494
Chromosome: [1 0 0 0 0 0 1 0 0 1 1 1 0 0 0 0 1 0 0 0 0 0 0 0 0 0 0 0 0 0 1 0 0 1 0 0 0 1 0 0 0 1 0 0 0 0 0 0 0 0 0 0 0 1 0]
Kernels: [0 6 9 10 11 16 30 33 37 41 53]
W: [0.5968414886 -0.0217707993 -0.0263047836 1.1899670029 0.8116036013 -0.0059858115 0.0046228445 0.0089473967 0.0168809209 0.0143599634 -0.0126933085]
Time: 00m00s


**** Best Individual - #gen:30 ****
ChromeSize: 55	Kernels: 11	Fitness: 0.8418071949
Chromosome: [1 0 0 0 0 0 0 1 1 0 1 1 0 0 0 0 0 0 0 0 0 0 0 0 0 0 0 1 0 1 0 1 0 0 1 0 1 0 0 0 1 0 0 0 0 0 0 0 0 0 0 0 0 0 0]
Kernels: [0 7 8 10 11 27 29 31 34 36 40]
W: [0.5600782583 0.0261146916 -0.0091805055 1.2025796212 0.7867003304 0.0084288895 0.0098020320 -0.0103767641 0.0209431072 0.0116688710 0.0178042386]
Time: 00m00s


**** Best Individual - #gen:40 ****
ChromeSize: 55	Kernels: 10	Fitness: 0.8415207449
Chromosome: [1 0 0 1 0 0 0 0 0 0 1 1 1 1 0 0 0 0 0 0 0 0 0 0 0 0 0 0 0 0 1 0 0 0 1 0 0 0 0 0 0 0 0 0 1 0 0 0 1 0 0 0 0 0 0]
Kernels: [0 3 10 11 12 13 30 34 44 48]
W: [0.6169602197 0.0075616193 1.2031002772 0.8134156592 -0.0256027071 -0.0069218225 -0.0010999105 -0.0099882006 0.0248863482 0.0071003441]
Time: 00m00s


**** Best Individual - #gen:50 ****
ChromeSize: 55	Kernels: 11	Fitness: 0.8430165461
Chromosome: [1 1 0 0 0 0 0 0 0 1 1 1 0 0 0 0 0 0 0 0 0 0 0 0 0 1 0 0 0 0 0 0 0 0 1 1 0 1 1 0 0 0 0 0 0 0 0 0 0 0 0 1 0 0 0]
Kernels: [0 1 9 10 11 25 34 35 37 38 51]
W: [0.5810605694 0.0265283280 -0.0148135093 1.1933431286 0.8101138368 -0.0160739784 0.0348034470 -0.0040849799 0.0135981234 0.0136151722 -0.0028073833]
Time: 00m00s


**** Best Individual - #gen:60 ****
ChromeSize: 55	Kernels: 11	Fitness: 0.8413300272
Chromosome: [1 0 0 0 0 0 0 0 0 0 1 1 0 0 0 1 1 0 0 0 0 0 0 0 1 0 0 0 0 0 0 0 0 0 1 0 0 1 0 0 0 0 1 0 1 0 1 0 0 0 0 0 0 0 0]
Kernels: [0 10 11 15 16 24 34 37 42 44 46]
W: [0.5967743330 1.1913669370 0.8057497564 -0.0120390236 0.0076819933 0.0144755698 -0.0053251105 0.0120354244 -0.0082637175 0.0183747239 -0.0114063206]
Time: 00m00s


**** Best Individual - #gen:70 ****
ChromeSize: 55	Kernels: 11	Fitness: 0.8419645810
Chromosome: [1 0 0 1 0 0 0 0 0 0 1 1 1 1 0 0 0 1 0 0 0 0 0 0 0 0 0 0 0 1 0 0 1 0 1 0 0 0 0 0 0 0 0 0 0 0 0 0 0 0 0 1 0 0 0]
Kernels: [0 3 10 11 12 13 17 29 32 34 51]
W: [0.6124518604 -0.0496841499 1.1889468255 0.7929784718 0.0017717993 -0.0270646349 0.0141330710 -0.0125268151 0.0122427783 -0.0040951083 0.0164772453]
Time: 00m00s


**** Best Individual - #gen:80 ****
ChromeSize: 55	Kernels: 11	Fitness: 0.8441827233
Chromosome: [1 0 0 0 0 0 1 1 0 0 1 1 0 0 0 1 0 0 1 0 0 1 0 0 0 0 0 1 0 1 0 0 0 0 0 0 0 0 0 0 0 0 0 0 0 1 0 0 0 0 0 0 0 0 0]
Kernels: [0 6 7 10 11 15 18 21 27 29 45]
W: [0.5860396925 0.0207656470 -0.0229793059 1.2159149481 0.7945633033 0.0147354654 -0.0207136297 0.0214106988 0.0102254713 0.0249828610 -0.0011452040]
Time: 00m00s


**** Best Individual - #gen:90 ****
ChromeSize: 55	Kernels: 11	Fitness: 0.8440725025
Chromosome: [1 0 0 0 0 0 0 0 1 0 1 1 1 1 0 0 0 0 0 1 0 0 0 0 0 0 0 1 0 0 0 0 0 0 0 0 1 0 1 0 0 0 0 0 0 0 0 0 0 0 0 0 0 1 0]
Kernels: [0 8 10 11 12 13 19 27 36 38 53]
W: [0.5965029815 0.0273955335 1.1892227497 0.7937630989 0.0278278660 0.0376993951 0.0035760514 0.0089178550 -0.0163541657 -0.0123720300 -0.0135813771]
Time: 00m00s


**** Best Individual - #gen:100 ****
ChromeSize: 55	Kernels: 10	Fitness: 0.8426606393
Chromosome: [1 0 0 0 0 0 0 0 0 0 1 1 0 0 0 0 0 0 0 0 1 0 0 0 1 0 0 1 0 0 1 0 0 0 0 0 0 0 0 0 0 0 0 0 1 0 0 0 0 0 1 0 0 1 0]
Kernels: [0 10 11 20 24 27 30 44 50 53]
W: [0.6491420508 1.1921060214 0.7892030280 -0.0152523072 -0.0159560684 -0.0011419208 0.0113700411 -0.0132015995 0.0108597857 0.0173493252]
Time: 00m00s