Generations   Fitness        Kernels <= 11   Time
10            0.8417777526   11              00m00s
20            0.8413628494   11              00m00s
30            0.8418071949   11              00m00s
40            0.8415207449   10              00m00s
50            0.8430165461   11              00m00s
60            0.8413300272   11              00m00s
70            0.8419645810   11              00m00s
80            0.8441827233   11              00m00s
90            0.8440725025   11              00m00s
100           0.8426606393   10              00m00s