**** Best Individual - #gen:10 ****
ChromeSize: 55	Kernels: 27	Fitness: 0.8467983488
Chromosome: [1 1 1 1 0 1 1 1 0 1 1 1 1 1 1 1 1 1 1 0 0 0 1 0 1 0 0 0 1 0 0 1 0 1 0 0 0 0 0 0 1 0 0 0 0 0 0 1 1 1 1 0 0 0 0]
Kernels: [0 1 2 3 5 6 7 9 10 11 12 13 14 15 16 17 18 22 24 28 31 33 40 47 48 49 50]
W: [0.3309293554 0.2364862145 0.1330610081 0.0023633715 0.3359933848 0.2492527874 0.2120380543 0.1185709997 0.2331282955 0.1978942803 0.1119795789 0.0734345897 0.1437336834 0.1211147456 0.0390462834 0.0653143151 0.0219160731 -0.0101737907 -0.0678054058 -0.0249690594 0.0064060585 -0.0102043200 -0.0071742287 -0.0182564836 -0.0222175970 0.0019210960 0.0002903223]
Time: 00m00s


**** Best Individual - #gen:20 ****
ChromeSize: 55	Kernels: 31	Fitness: 0.8596835032
Chromosome: [1 1 1 0 1 1 1 1 1 1 1 1 1 1 1 1 0 0 1 0 0 0 1 1 0 0 1 1 1 1 1 0 1 1 0 1 0 1 0 0 0 0 0 1 0 0 0 1 1 0 0 1 0 0 0]
Kernels: [0 1 2 4 5 6 7 8 9 10 11 12 13 14 15 18 22 23 26 27 28 29 30 32 33 35 37 43 47 48 51]
W: [0.3646072941 0.2538015993 0.0981748504 -0.1188030184 0.3647533567 0.2862197060 0.2198140033 0.1649068204 0.0758488628 0.2464790873 0.2057576667 0.1327909126 0.0709551726 0.1294787038 0.1025018160 0.0224196924 0.0141128107 -0.0009620888 -0.0025983415 0.0013428434 -0.0007119442 -0.0012265890 0.0047125355 0.0062067729 -0.0240742181 -0.0033689457 -0.0086812971 0.0289797309 0.0074759488 -0.0034199198 -0.0070247398]
Time: 00m00s


**** Best Individual - #gen:30 ****
ChromeSize: 55	Kernels: 32	Fitness: 0.8665792825
Chromosome: [1 1 1 0 1 1 1 1 1 1 1 1 1 1 1 1 1 1 1 1 0 1 0 1 1 0 0 1 1 1 0 1 0 0 0 0 1 0 0 1 1 0 0 0 0 1 0 0 1 0 0 0 1 0 0]
Kernels: [0 1 2 4 5 6 7 8 9 10 11 12 13 14 15 16 17 18 19 21 23 24 27 28 29 31 36 39 40 45 48 52]
W: [0.3295343954 0.2399205971 0.1125614029 -0.1422223791 0.3476949386 0.2757117880 0.2398758576 0.1635617428 0.0795111769 0.2530742262 0.2039853781 0.1306713478 0.0790565927 0.1420624268 0.0658112337 0.0368300283 0.0392525710 0.0118229568 -0.0153783352 0.0040187773 -0.0050788659 0.0145361117 0.0017855652 -0.0112686631 0.0098661703 0.0163543674 0.0153909013 0.0043575965 -0.0005848129 -0.0063128711 0.0075642400 -0.0047729123]
Time: 00m00s


**** Best Individual - #gen:40 ****
ChromeSize: 55	Kernels: 32	Fitness: 0.8686201498
Chromosome: [1 1 1 0 1 1 1 1 1 1 1 1 1 1 1 1 1 1 0 0 1 0 1 0 0 1 1 0 0 0 1 1 0 0 1 1 0 1 0 0 0 0 0 1 1 1 0 0 1 0 0 1 0 1 0]
Kernels: [0 1 2 4 5 6 7 8 9 10 11 12 13 14 15 16 17 20 22 25 26 30 31 34 35 37 43 44 45 48 51 53]
W: [0.3432866861 0.2570486058 0.1028057912 -0.1360276906 0.3483377806 0.2735227285 0.2251820335 0.1551066135 0.1107374545 0.2456544853 0.2094417112 0.1182679284 0.0698695323 0.1386012942 0.1204426452 0.0291948232 0.0418752342 -0.0067819471 0.0070892719 -0.0243716127 -0.0225000341 -0.0101873788 0.0055025211 0.0278874212 0.0001106033 0.0028454436 -0.0020982447 -0.0101252742 0.0012424977 0.0056062951 -0.0042311616 -0.0030970086]
Time: 00m00s


**** Best Individual - #gen:50 ****
ChromeSize: 55	Kernels: 32	Fitness: 0.8691009729
Chromosome: [1 1 1 0 1 1 1 1 1 1 1 1 1 1 1 1 1 1 1 1 1 0 0 1 1 0 0 0 0 0 0 0 1 0 0 1 0 0 0 0 0 0 1 1 1 1 1 1 1 0 0 0 1 0 0]
Kernels: [0 1 2 4 5 6 7 8 9 10 11 12 13 14 15 16 17 18 19 20 23 24 32 35 42 43 44 45 46 47 48 52]
W: [0.3391416479 0.2989235253 0.1771182527 -0.1109837270 0.3377714450 0.2785415381 0.2300344919 0.1437726219 0.1325277391 0.2504118516 0.1993790045 0.1133674900 0.0593175341 0.1474155110 0.0827905320 0.0415783504 0.0537738478 0.0327801825 -0.0269414326 0.0089363977 0.0078645843 -0.0162142967 -0.0064638400 -0.0121178130 -0.0087860062 -0.0169807448 -0.0099258559 -0.0088521306 0.0024793151 0.0031409744 -0.0217888005 0.0095665580]
Time: 00m00s


**** Best Individual - #gen:60 ****
ChromeSize: 55	Kernels: 31	Fitness: 0.8680666825
Chromosome: [1 1 1 0 1 1 1 1 1 1 1 1 1 1 1 1 1 1 0 1 1 0 0 0 1 0 0 0 0 0 0 1 1 0 0 0 0 1 0 1 1 1 1 0 0 0 0 1 1 0 1 1 0 0 0]
Kernels: [0 1 2 4 5 6 7 8 9 10 11 12 13 14 15 16 17 19 20 24 31 32 37 39 40 41 42 47 48 50 51]
W: [0.3344757927 0.2072309408 0.1119901640 -0.1418299971 0.3292212813 0.3030703855 0.2245994137 0.1514184891 0.1021346210 0.2564274438 0.2071404601 0.1354630760 0.0649276935 0.1446275926 0.1007630041 0.0330835529 0.0483246858 -0.0278469764 0.0119607617 -0.0124753616 -0.0108961402 -0.0065878543 -0.0020640799 0.0169255059 -0.0046702780 0.0224052564 0.0190029135 0.0067799890 0.0083746731 0.0058484787 0.0002750055]
Time: 00m01s


**** Best Individual - #gen:70 ****
ChromeSize: 55	Kernels: 32	Fitness: 0.8687132168
Chromosome: [1 1 1 0 1 1 1 1 1 1 1 1 1 1 1 1 1 1 0 0 0 0 0 1 1 1 1 0 0 0 0 1 0 0 0 1 1 1 1 0 0 0 1 0 1 0 1 0 1 0 1 1 0 0 0]
Kernels: [0 1 2 4 5 6 7 8 9 10 11 12 13 14 15 16 17 23 24 25 26 31 35 36 37 38 42 44 46 48 50 51]
W: [0.3568810282 0.2302595748 0.1308492652 -0.1177819590 0.3442598793 0.3035647935 0.2150318549 0.1559873202 0.0866728242 0.2348242924 0.1809308681 0.1341018136 0.0739608198 0.1378489658 0.0805440418 0.0457493819 0.0447291768 -0.0209210757 -0.0035650166 0.0079852721 0.0294217134 -0.0030017911 -0.0071778661 0.0159911081 -0.0223348802 0.0094823800 0.0134106628 -0.0011895600 0.0023957458 -0.0113657972 -0.0098223739 0.0123120792]
Time: 00m01s


**** Best Individual - #gen:80 ****
ChromeSize: 55	Kernels: 30	Fitness: 0.8692982430
Chromosome: [1 1 1 1 1 1 1 1 1 1 1 1 1 1 1 1 1 1 0 0 0 0 0 0 0 0 0 0 0 1 0 0 0 0 1 0 0 1 1 1 1 0 1 1 0 1 0 0 0 0 0 1 1 0 1]
Kernels: [0 1 2 3 4 5 6 7 8 9 10 11 12 13 14 15 16 17 29 34 37 38 39 40 42 43 45 51 52 54]
W: [0.3221442051 0.2340231473 0.0739133213 0.0321711265 -0.0969371791 0.3335890979 0.3040509813 0.2224749765 0.1602731397 0.0854236451 0.2310842908 0.1866135456 0.1330905860 0.0714398956 0.1579206196 0.0850041278 0.0338702488 0.0479599889 -0.0057691276 0.0112935447 -0.0282174696 -0.0088918894 -0.0012155097 0.0251350183 0.0001042082 0.0294152599 0.0113751868 -0.0041783809 0.0018188911 -0.0035517506]
Time: 00m01s


**** Best Individual - #gen:90 ****
ChromeSize: 55	Kernels: 32	Fitness: 0.8663476342
Chromosome: [1 1 1 0 1 1 1 1 1 1 1 1 1 1 1 1 1 1 1 1 1 0 0 1 1 0 1 0 0 1 0 0 0 0 1 1 0 1 1 0 0 0 0 0 1 0 1 0 0 0 0 0 1 1 0]
Kernels: [0 1 2 4 5 6 7 8 9 10 11 12 13 14 15 16 17 18 19 20 23 24 26 29 34 35 37 38 44 46 52 53]
W: [0.3864867346 0.2597592989 0.1176744433 -0.1371115733 0.3357946405 0.2713341943 0.2259302621 0.1671040702 0.0823010941 0.2530191678 0.1937873121 0.1350163506 0.0746767034 0.1384580470 0.1130902940 0.0323823240 0.0517808198 0.0165010877 -0.0258469153 -0.0089400589 -0.0017464132 0.0078726064 -0.0039885177 0.0020513066 -0.0029978923 -0.0090209433 0.0050671407 0.0061281028 0.0159917299 -0.0046021940 -0.0058236054 0.0023841635]
Time: 00m01s


**** Best Individual - #gen:100 ****
ChromeSize: 55	Kernels: 32	Fitness: 0.8681651509
Chromosome: [1 1 1 0 1 1 1 1 1 1 1 1 1 1 1 1 1 1 0 1 0 1 0 1 0 1 1 0 1 0 0 0 0 1 1 1 0 0 0 1 0 0 0 1 0 0 0 1 0 1 0 1 0 1 0]
Kernels: [0 1 2 4 5 6 7 8 9 10 11 12 13 14 15 16 17 19 21 23 25 26 28 33 34 35 39 43 47 49 51 53]
W: [0.3782134568 0.2582460947 0.1295069763 -0.1255149181 0.3448022526 0.2942533264 0.2394521184 0.1526194727 0.0761705732 0.2419498999 0.1935577164 0.1203377122 0.0513418636 0.1482430035 0.0838069077 0.0544219072 0.0527746797 -0.0232032244 -0.0173121117 -0.0100352320 -0.0151945069 0.0146925128 -0.0197449368 0.0052337937 -0.0052851251 -0.0050294073 0.0054341535 0.0285953050 0.0065214424 0.0178338443 -0.0022078335 -0.0247769721]
Time: 00m01s