**** Best Individual - #gen:10 ****
ChromeSize: 55	Kernels: 29	Fitness: 0.8591667687
Chromosome: [1 1 0 0 1 1 1 1 1 1 1 1 1 1 1 1 0 0 1 1 1 0 0 0 1 0 1 0 0 0 0 0 1 0 1 0 1 0 0 1 0 0 0 0 0 1 0 1 1 0 1 1 1 0 0]
Kernels: [0 1 4 5 6 7 8 9 10 11 12 13 14 15 18 19 20 24 26 32 34 36 39 45 47 48 50 51 52]
W: [0.3204568817 0.2446275859 -0.1124125776 0.3569359366 0.2820512577 0.2126123803 0.1624367186 0.0815263919 0.2629727046 0.1729124613 0.1372986507 0.0781465950 0.1375807771 0.1006555022 0.0194479862 -0.0470961789 0.0022722331 -0.0008362209 0.0237287295 0.0101294613 0.0043447132 0.0122124022 0.0065885036 0.0159858673 0.0012935544 0.0292963418 0.0095322863 -0.0029147499 -0.0113318107]
Time: 00m00s


**** Best Individual - #gen:20 ****
ChromeSize: 55	Kernels: 27	Fitness: 0.8553311460
Chromosome: [1 1 0 0 1 1 1 1 1 1 1 1 1 1 1 1 0 0 1 1 0 0 0 1 0 0 1 0 0 0 0 0 1 0 1 1 1 0 1 1 0 0 1 0 0 1 0 0 0 0 1 0 0 0 0]
Kernels: [0 1 4 5 6 7 8 9 10 11 12 13 14 15 18 19 23 26 32 34 35 36 38 39 42 45 50]
W: [0.3379377085 0.2246583006 -0.1079179867 0.3688965496 0.2742046500 0.2299924248 0.1800245167 0.0994928643 0.2530143718 0.1855206825 0.1277851137 0.0718320891 0.1506888631 0.0890584256 0.0206606332 -0.0243110068 0.0049361243 -0.0111767696 0.0013240107 0.0027427306 0.0049806542 0.0122411620 -0.0110778171 0.0001102712 0.0032860849 0.0172144333 0.0221126011]
Time: 00m00s


**** Best Individual - #gen:30 ****
ChromeSize: 55	Kernels: 29	Fitness: 0.8665457433
Chromosome: [1 1 1 0 1 1 1 1 1 1 1 1 1 1 1 1 1 1 0 1 1 0 1 0 0 0 1 0 0 0 0 1 0 1 0 0 1 0 1 0 0 0 0 1 0 1 0 1 0 0 0 0 0 0 1]
Kernels: [0 1 2 4 5 6 7 8 9 10 11 12 13 14 15 16 17 19 20 22 26 31 33 36 38 43 45 47 54]
W: [0.3643070126 0.2221278891 0.1341196222 -0.1472259128 0.3462215860 0.3072547844 0.2327868756 0.1491555655 0.0803482242 0.2416695092 0.1805280337 0.1433354784 0.0789814775 0.1529881201 0.0957534306 0.0601611344 0.0416832603 -0.0279617701 -0.0008249273 -0.0080222002 0.0067099605 -0.0001859709 0.0022159302 -0.0047583420 -0.0001511660 -0.0031209144 0.0059422291 0.0169499164 0.0000356051]
Time: 00m00s


**** Best Individual - #gen:40 ****
ChromeSize: 55	Kernels: 30	Fitness: 0.8686265136
Chromosome: [1 1 1 0 1 1 1 1 1 1 1 1 1 1 1 1 1 1 1 1 0 0 0 1 1 0 0 0 0 0 1 0 0 0 1 0 0 1 0 0 0 0 0 1 0 1 0 0 0 1 1 1 0 0 1]
Kernels: [0 1 2 4 5 6 7 8 9 10 11 12 13 14 15 16 17 18 19 23 24 30 34 37 43 45 49 50 51 54]
W: [0.3380390734 0.2491473054 0.1296639177 -0.1287966936 0.3281706097 0.2962572216 0.2343579865 0.1533122465 0.0658225929 0.2496102638 0.1916676548 0.1229898832 0.0599911843 0.1569649989 0.0911010785 0.0128382820 0.0699348700 0.0257465479 -0.0141797433 -0.0119140099 -0.0078946486 -0.0085952664 0.0062395485 0.0094933853 -0.0089338584 0.0039807622 -0.0043114885 -0.0070230030 0.0029130348 -0.0003572636]
Time: 00m00s


**** Best Individual - #gen:50 ****
ChromeSize: 55	Kernels: 30	Fitness: 0.8653705026
Chromosome: [1 1 1 0 1 1 1 1 1 1 1 1 1 0 1 1 1 1 1 0 0 0 0 1 0 1 1 0 0 0 0 1 0 0 1 1 0 0 1 1 0 1 1 0 0 0 0 1 0 0 0 1 0 0 1]
Kernels: [0 1 2 4 5 6 7 8 9 10 11 12 14 15 16 17 18 23 25 26 31 34 35 38 39 41 42 47 51 54]
W: [0.3653580658 0.2617020984 0.1263448631 -0.1214192675 0.3293142371 0.2792979453 0.2344857683 0.1623118302 0.0933875316 0.2398993456 0.1868336083 0.1102281512 0.1454698248 0.0810247105 0.0340742479 0.0541035742 0.0290773656 -0.0033745673 0.0029224777 -0.0079084561 0.0137412740 -0.0055842323 -0.0082732717 -0.0199176859 -0.0042454608 -0.0064050434 -0.0060535931 -0.0210327270 0.0026349572 0.0105244442]
Time: 00m00s


**** Best Individual - #gen:60 ****
ChromeSize: 55	Kernels: 30	Fitness: 0.8670293037
Chromosome: [1 1 1 0 1 1 1 1 1 1 1 1 1 1 1 1 0 1 0 1 0 0 0 0 1 1 0 0 1 0 0 0 1 0 0 0 1 0 1 1 0 0 1 0 1 1 1 0 0 0 1 0 0 1 0]
Kernels: [0 1 2 4 5 6 7 8 9 10 11 12 13 14 15 17 19 24 25 28 32 36 38 39 42 44 45 46 50 53]
W: [0.3841248047 0.2381689516 0.1425796640 -0.1374191426 0.3549897727 0.2921316570 0.2408944619 0.1578404668 0.0855032228 0.2410566700 0.1823691506 0.1215052411 0.0817375274 0.1370855582 0.1033719286 0.0423609805 -0.0174720180 -0.0029386466 -0.0199045279 -0.0271064697 0.0022399806 -0.0107201443 0.0116872261 -0.0081319355 -0.0037754507 -0.0028961726 -0.0042759987 0.0161564001 0.0064809358 -0.0114343683]
Time: 00m01s


**** Best Individual - #gen:70 ****
ChromeSize: 55	Kernels: 30	Fitness: 0.8679595032
Chromosome: [1 1 1 0 1 1 1 1 1 1 1 1 1 1 1 1 0 1 1 1 0 1 0 0 0 1 0 1 1 0 0 0 0 0 0 1 1 0 1 1 0 0 0 0 1 0 1 0 0 0 1 1 0 0 0]
Kernels: [0 1 2 4 5 6 7 8 9 10 11 12 13 14 15 17 18 19 21 25 27 28 35 36 38 39 44 46 50 51]
W: [0.3599553649 0.2138651142 0.1077247355 -0.1233213769 0.3538095020 0.3140608242 0.2250938538 0.1521055065 0.0825036051 0.2462004692 0.1768943670 0.1367135277 0.0830675320 0.1438897917 0.0881634666 0.0480025260 0.0295928621 -0.0304571959 0.0174828074 -0.0223422253 -0.0172758385 0.0097539475 0.0018020714 0.0036543781 0.0060124759 -0.0051189095 0.0043092725 0.0023385100 0.0211257125 -0.0012487326]
Time: 00m01s


**** Best Individual - #gen:80 ****
ChromeSize: 55	Kernels: 28	Fitness: 0.8674645289
Chromosome: [1 1 1 1 1 1 1 1 1 1 1 1 1 1 1 1 0 1 0 1 0 0 1 0 1 1 0 0 0 1 0 1 1 0 1 0 0 0 0 0 0 0 0 0 0 1 1 0 0 0 1 0 0 0 0]
Kernels: [0 1 2 3 4 5 6 7 8 9 10 11 12 13 14 15 17 19 22 24 25 29 31 32 34 45 46 50]
W: [0.3420289586 0.2498729724 0.1807957399 0.0075325792 -0.1329379835 0.3581468820 0.2819361094 0.2389093920 0.1669736272 0.0957024476 0.2405949202 0.1964884378 0.1202151324 0.0652570485 0.1321755530 0.0968199924 0.0482164484 -0.0297531715 -0.0062976579 0.0141213971 0.0156347872 0.0054916921 -0.0103453191 0.0018624192 -0.0166538294 -0.0119734746 -0.0039277789 -0.0007979691]
Time: 00m01s


**** Best Individual - #gen:90 ****
ChromeSize: 55	Kernels: 29	Fitness: 0.8678565695
Chromosome: [1 1 1 0 1 1 1 1 1 1 1 1 1 1 1 1 1 1 1 1 1 0 0 1 1 0 1 0 0 1 0 0 0 0 0 0 1 0 0 1 0 0 0 0 1 0 0 0 0 0 1 1 0 0 0]
Kernels: [0 1 2 4 5 6 7 8 9 10 11 12 13 14 15 16 17 18 19 20 23 24 26 29 36 39 44 50 51]
W: [0.3370582194 0.2401972940 0.0920003041 -0.1508746250 0.3387621688 0.2957821666 0.2449941330 0.1485960639 0.0976724972 0.2591936352 0.1759646109 0.1338819693 0.0744636597 0.1381434914 0.0738159940 0.0292957323 0.0580464040 0.0164306615 -0.0256015016 0.0014179375 0.0089026555 0.0181930709 0.0155976854 -0.0020707073 -0.0006932991 0.0037077114 -0.0084253194 0.0209875172 -0.0018968999]
Time: 00m01s


**** Best Individual - #gen:100 ****
ChromeSize: 55	Kernels: 30	Fitness: 0.8675185654
Chromosome: [1 1 1 1 1 1 1 1 1 1 1 1 1 1 1 1 1 1 1 1 0 0 0 0 0 1 1 0 0 0 0 0 0 1 0 1 1 0 0 0 1 0 0 1 0 0 0 0 1 1 0 0 0 1 0]
Kernels: [0 1 2 3 4 5 6 7 8 9 10 11 12 13 14 15 16 17 18 19 25 26 33 35 36 40 43 48 49 53]
W: [0.3419268914 0.2340931633 0.1172679234 -0.0324955749 -0.1250527302 0.3408962010 0.2883596590 0.2424447920 0.1610328270 0.1077608077 0.2396338175 0.2057257634 0.1401188787 0.0602133022 0.1421232639 0.0770851181 0.0489830111 0.0565118280 0.0185877317 -0.0219873071 0.0004314264 0.0251458357 0.0069496950 -0.0031318654 0.0171372606 0.0352093655 0.0082557410 -0.0156182488 0.0087396033 0.0202698417]
Time: 00m01s