**** Best Individual - #gen:10 ****
ChromeSize: 55	Kernels: 14	Fitness: 0.9471488713
Chromosome: [1 1 1 0 1 1 1 0 0 0 1 1 0 0 1 0 0 0 0 0 0 1 0 0 0 0 0 0 0 0 0 0 0 0 1 1 0 0 1 0 0 0 0 0 0 0 0 0 0 1 0 0 0 0 0]
Kernels: [0 1 2 4 5 6 10 11 14 21 34 35 38 49]
W: [0.6051747842 0.0180358538 -0.0152233296 0.0217521231 -0.0000305822 -0.0023420014 1.2101655163 0.7959012090 -0.0019429056 -0.0008143517 -0.0084967104 -0.0017565128 -0.0168462589 0.0007924492]
Time: 00m05s


**** Best Individual - #gen:20 ****
ChromeSize: 55	Kernels: 14	Fitness: 0.9473004402
Chromosome: [1 0 1 0 0 0 1 0 0 0 1 1 0 0 0 0 0 1 0 1 1 1 0 0 0 1 0 0 0 0 0 0 0 0 0 0 0 1 0 1 0 0 0 0 0 1 0 0 0 0 0 0 0 1 0]
Kernels: [0 2 6 10 11 17 19 20 21 25 37 39 45 53]
W: [0.6221670047 0.0030426272 -0.0140741584 1.1933713589 0.8001318104 0.0079427896 -0.0007874753 -0.0079646733 -0.0124691914 -0.0049636428 -0.0013663187 0.0008009893 0.0021853985 0.0012253589]
Time: 00m11s


**** Best Individual - #gen:30 ****
ChromeSize: 55	Kernels: 14	Fitness: 0.9474748165
Chromosome: [1 0 1 0 1 0 0 0 0 0 1 1 0 0 1 0 0 0 0 0 0 1 0 0 0 0 1 0 1 1 0 1 0 0 0 1 0 0 0 0 0 0 0 1 0 0 0 0 1 0 0 0 0 0 0]
Kernels: [0 2 4 10 11 14 21 26 28 29 31 35 43 48]
W: [0.5978883105 -0.0155892021 -0.0077413580 1.1956723901 0.7882484467 -0.0039101431 -0.0110213968 -0.0064311472 -0.0068493787 0.0064309245 -0.0148434056 0.0058741374 -0.0161579528 0.0108608508]
Time: 00m15s


**** Best Individual - #gen:40 ****
ChromeSize: 55	Kernels: 14	Fitness: 0.9470398243
Chromosome: [1 0 0 0 1 0 1 1 0 0 1 1 0 0 0 0 0 0 0 0 0 1 0 0 0 0 0 1 0 0 0 1 0 0 0 0 1 1 0 0 0 0 0 0 0 0 0 0 1 0 0 0 1 1 0]
Kernels: [0 4 6 7 10 11 21 27 31 36 37 48 52 53]
W: [0.5965752474 -0.0040282486 -0.0160220688 -0.0091984457 1.2033750834 0.7963866668 0.0058531697 0.0060109277 -0.0011283342 -0.0017001386 -0.0072075022 0.0019573887 0.0093610758 -0.0103950348]
Time: 00m20s


**** Best Individual - #gen:50 ****
ChromeSize: 55	Kernels: 14	Fitness: 0.9472476192
Chromosome: [1 1 0 1 0 1 1 0 0 0 1 1 0 0 1 0 0 0 0 0 0 0 0 0 0 0 0 0 1 1 1 1 0 0 0 0 0 0 0 0 0 0 0 1 0 0 0 0 0 0 0 0 0 0 1]
Kernels: [0 1 3 5 6 10 11 14 28 29 30 31 43 54]
W: [0.6024351383 -0.0060025464 0.0065927896 0.0066048895 0.0055840269 1.2029344051 0.8070599128 -0.0089317935 -0.0169113780 0.0023755316 -0.0000283110 -0.0239463672 -0.0033241657 0.0028194798]
Time: 00m25s


**** Best Individual - #gen:60 ****
ChromeSize: 55	Kernels: 13	Fitness: 0.9476863730
Chromosome: [1 1 0 0 0 0 0 0 0 0 1 1 0 0 1 0 0 0 0 1 0 0 0 0 0 0 0 1 0 0 0 0 0 1 0 0 0 1 0 0 1 0 0 1 0 0 1 1 0 0 0 0 0 0 0]
Kernels: [0 1 10 11 14 19 27 33 37 40 43 46 47]
W: [0.6040121466 -0.0206313623 1.2002481436 0.7959708347 0.0069991985 0.0041843229 0.0065730059 0.0136023245 -0.0085468155 0.0175451785 0.0060133525 -0.0058387277 -0.0071029853]
Time: 00m30s


**** Best Individual - #gen:70 ****
ChromeSize: 55	Kernels: 13	Fitness: 0.9471223034
Chromosome: [1 0 0 0 0 0 0 0 1 1 1 1 0 0 0 0 0 0 0 0 0 0 0 0 0 0 0 0 0 0 0 0 0 0 0 0 0 1 0 1 1 1 0 0 0 0 0 0 0 1 1 0 0 1 1]
Kernels: [0 8 9 10 11 37 39 40 41 49 50 53 54]
W: [0.6010320599 -0.0080709976 0.0096819289 1.1906512799 0.7923756562 -0.0106940888 -0.0074563507 -0.0135736940 0.0075183866 0.0134703081 -0.0013524321 0.0012788939 -0.0021843175]
Time: 00m36s


**** Best Individual - #gen:80 ****
ChromeSize: 55	Kernels: 14	Fitness: 0.9472179518
Chromosome: [1 0 0 0 1 0 0 1 0 0 1 1 0 0 1 0 0 0 0 0 0 0 0 0 0 1 0 0 0 0 0 1 1 0 0 0 0 0 1 0 0 0 1 1 0 0 1 0 0 0 0 0 0 0 1]
Kernels: [0 4 7 10 11 14 25 31 32 38 42 43 46 54]
W: [0.6186465098 -0.0088605450 0.0121776384 1.2033177137 0.8059050532 -0.0007325660 -0.0091110645 -0.0127628894 -0.0085703772 0.0064636578 0.0090781880 -0.0144866202 0.0078526787 -0.0016488784]
Time: 00m40s


**** Best Individual - #gen:90 ****
ChromeSize: 55	Kernels: 13	Fitness: 0.9481675474
Chromosome: [1 1 0 0 0 1 0 0 0 0 1 1 0 0 1 0 0 0 0 0 0 0 0 0 0 1 0 0 0 0 0 0 1 0 0 0 0 1 0 0 0 1 0 1 0 0 0 0 1 0 0 0 0 1 0]
Kernels: [0 1 5 10 11 14 25 32 37 41 43 48 53]
W: [0.5620356018 0.0135513001 0.0019218371 1.2003518533 0.8067180103 -0.0083374571 0.0178869314 0.0145240657 -0.0048937369 -0.0193439162 0.0220310186 -0.0072357211 0.0101011520]
Time: 00m44s


**** Best Individual - #gen:100 ****
ChromeSize: 55	Kernels: 14	Fitness: 0.9483332556
Chromosome: [1 0 0 1 0 0 0 1 0 0 1 1 1 1 0 0 0 0 0 0 0 0 1 1 1 1 0 0 0 0 0 0 0 0 0 0 1 1 0 0 0 0 0 0 0 0 0 0 0 0 0 0 0 1 0]
Kernels: [0 3 7 10 11 12 13 22 23 24 25 36 37 53]
W: [0.6120563488 0.0243081104 0.0027754876 1.1934528901 0.7986185260 0.0035475124 -0.0179701133 -0.0166888269 0.0047656961 0.0083491621 -0.0127368895 0.0104051009 -0.0015343596 0.0023423198]
Time: 00m50s