Generations   Fitness        Kernels <= 15   Time
10            0.9469051782   14              00m02s
20            0.9469157445   15              00m03s
30            0.9466461833   15              00m05s
40            0.9471009655   15              00m07s
50            0.9480015783   15              00m08s
60            0.9472373472   15              00m10s
70            0.9476504456   15              00m13s
80            0.9474248056   15              00m15s
90            0.9472809292   15              00m16s
100           0.9469337468   15              00m17s