**** Best Individual - #gen:10 ****
ChromeSize: 55	Kernels: 15	Fitness: 0.9679202412
Chromosome: [0 0 1 0 0 0 0 0 1 0 0 1 1 1 1 0 0 0 0 0 0 0 0 0 0 0 0 0 0 1 1 0 0 0 0 1 0 0 0 1 0 0 1 0 0 0 0 0 0 1 0 1 1 1 0]
Kernels: [2 8 11 12 13 14 29 30 35 39 42 49 51 52 53]
W: [1.0057218480 0.0014873030 -0.0107531120 -0.0145321228 -0.0049846405 0.0740388200 -0.0000846777 0.0069295073 -0.0405268211 0.0061234037 -0.0028131678 -0.0005784701 -0.0004534703 -0.0006353870 0.0012136792]
Time: 00m01s


**** Best Individual - #gen:20 ****
ChromeSize: 55	Kernels: 14	Fitness: 0.9677824566
Chromosome: [0 0 1 1 1 0 1 0 0 0 1 0 0 0 1 0 0 0 1 0 0 0 0 0 0 0 0 0 1 0 0 0 0 0 0 1 0 0 0 0 0 0 1 1 0 0 1 0 1 0 1 0 0 0 0]
Kernels: [2 3 4 6 10 14 18 28 35 42 43 46 48 50]
W: [1.0009139582 -0.0129880745 -0.0059573738 0.0002584630 0.0021913583 0.0775105829 0.0077762816 0.0045827187 -0.0385151324 -0.0046257705 0.0096843550 0.0030863486 -0.0073994430 0.0050306717]
Time: 00m03s


**** Best Individual - #gen:30 ****
ChromeSize: 55	Kernels: 15	Fitness: 0.9679826503
Chromosome: [0 1 1 0 1 0 0 0 1 1 1 0 0 1 1 0 0 0 0 1 0 0 0 0 0 0 0 0 0 1 0 0 0 1 0 1 0 0 0 0 0 0 0 0 0 0 0 0 1 1 0 0 0 0 1]
Kernels: [1 2 4 8 9 10 13 14 19 29 33 35 48 49 54]
W: [0.0140380642 0.9909454236 -0.0212393422 -0.0119007950 0.0029084678 -0.0038213393 0.0009346495 0.0800440565 0.0004696870 -0.0034287265 0.0094573041 -0.0427112274 0.0057094649 0.0146305138 0.0049695718]
Time: 00m05s


**** Best Individual - #gen:40 ****
ChromeSize: 55	Kernels: 15	Fitness: 0.9684461122
Chromosome: [0 0 1 1 0 0 1 0 0 1 0 0 1 1 1 0 1 0 0 0 0 0 0 0 0 0 0 1 1 0 1 0 0 1 0 1 0 0 0 0 0 0 0 0 0 0 1 0 1 0 0 0 0 0 0]
Kernels: [2 3 6 9 12 13 14 16 27 28 30 33 35 46 48]
W: [0.9987138758 0.0130909270 0.0152004916 -0.0163811342 -0.0118964938 0.0009606999 0.0792276511 0.0107397988 0.0057719527 -0.0088239393 0.0151403467 0.0019826652 -0.0394300051 -0.0056898459 0.0052779416]
Time: 00m07s


**** Best Individual - #gen:50 ****
ChromeSize: 55	Kernels: 15	Fitness: 0.9679654063
Chromosome: [0 1 1 0 1 0 0 0 0 0 0 1 1 0 1 0 0 0 0 0 0 0 1 0 0 1 0 0 0 1 0 0 0 0 0 1 0 0 0 1 0 0 0 1 1 0 1 0 1 0 0 0 0 0 0]
Kernels: [1 2 4 11 12 14 22 25 29 35 39 43 44 46 48]
W: [0.0245877703 0.9931903202 0.0078700103 -0.0052765072 -0.0042461822 0.0799501940 0.0057223154 -0.0032873211 0.0016708820 -0.0427984995 -0.0102099283 -0.0148311899 0.0050279121 -0.0019075232 0.0043948612]
Time: 00m09s


**** Best Individual - #gen:60 ****
ChromeSize: 55	Kernels: 15	Fitness: 0.9680192062
Chromosome: [0 0 1 0 1 0 0 0 1 0 0 0 0 1 1 1 0 1 0 0 0 0 0 0 0 0 0 0 0 0 1 0 0 0 1 1 0 1 1 0 0 0 0 0 1 0 0 1 0 0 0 0 0 1 0]
Kernels: [2 4 8 13 14 15 17 30 34 35 37 38 44 47 53]
W: [1.0005916300 0.0207467562 -0.0066622114 0.0089680926 0.0794719510 0.0035374444 -0.0017525901 -0.0033317672 0.0070709927 -0.0407867312 -0.0061400831 -0.0056611137 -0.0063081253 -0.0059093465 0.0019417327]
Time: 00m11s


**** Best Individual - #gen:70 ****
ChromeSize: 55	Kernels: 15	Fitness: 0.9681275219
Chromosome: [0 0 1 0 0 1 1 0 0 0 0 1 1 0 1 0 1 0 0 0 0 0 0 0 1 0 0 0 0 0 1 0 0 0 0 1 1 0 0 1 0 1 0 0 0 0 0 0 0 0 0 0 1 0 1]
Kernels: [2 5 6 11 12 14 16 24 30 35 36 39 41 52 54]
W: [1.0007444291 -0.0061526627 -0.0112999649 -0.0101856746 0.0065871815 0.0901449404 -0.0119480265 0.0024918067 0.0050129453 -0.0412449224 0.0020380557 0.0048147708 0.0123293478 0.0025385252 -0.0021170483]
Time: 00m13s


**** Best Individual - #gen:80 ****
ChromeSize: 55	Kernels: 14	Fitness: 0.9682678396
Chromosome: [0 1 1 1 0 0 0 0 0 1 0 0 0 0 1 0 1 1 0 0 0 0 0 0 0 1 0 0 1 0 0 1 1 0 0 1 0 0 0 0 0 0 0 0 1 0 0 0 0 0 0 1 0 0 0]
Kernels: [1 2 3 9 14 16 17 25 28 31 32 35 44 51]
W: [-0.0172901329 0.9969006587 -0.0274868425 -0.0038416817 0.0855274774 0.0030413383 -0.0068024631 -0.0034042134 -0.0093537892 -0.0102038153 0.0003432286 -0.0395255389 0.0085318854 0.0053193950]
Time: 00m14s


**** Best Individual - #gen:90 ****
ChromeSize: 55	Kernels: 14	Fitness: 0.9678163440
Chromosome: [0 0 1 0 0 1 0 0 1 0 0 0 0 0 1 0 0 0 0 1 0 0 0 0 1 1 1 0 0 0 0 0 0 0 1 1 0 0 0 1 0 0 0 0 0 0 0 0 0 0 1 1 0 0 1]
Kernels: [2 5 8 14 19 24 25 26 34 35 39 50 51 54]
W: [1.0081454249 -0.0035410173 -0.0066164470 0.0758875399 0.0062896519 -0.0015843659 -0.0046586156 -0.0019898245 0.0037604619 -0.0392242039 -0.0030503429 -0.0069963797 0.0017030723 0.0038269500]
Time: 00m16s


**** Best Individual - #gen:100 ****
ChromeSize: 55	Kernels: 15	Fitness: 0.9677831514
Chromosome: [0 0 1 0 0 0 1 0 0 0 0 0 0 1 1 0 0 0 1 1 0 0 1 0 0 0 0 1 1 0 0 0 0 0 0 1 1 0 1 0 0 1 0 1 0 0 0 0 0 0 0 0 1 0 0]
Kernels: [2 6 13 14 18 19 22 27 28 35 36 38 41 43 52]
W: [0.9885303467 0.0084465128 -0.0051807971 0.0771769577 0.0057192914 0.0041075299 0.0037360222 -0.0027017947 -0.0072802830 -0.0398839255 0.0059035309 0.0026974384 0.0094983139 -0.0091054988 -0.0065080369]
Time: 00m18s