Generations   Fitness        Kernels <= 11   Time
10            0.9675130804   11              04m34s
20            0.9677830968   10              08m16s
30            0.9677479459   11              10m09s
40            0.9676588264   11              10m10s
50            0.9678070541   11              10m08s
60            0.9677193929   11              10m10s
70            0.9680834168   11              10m04s
80            0.9677160124   11              10m09s
90            0.9677081294   11              10m03s
100           0.9680748299   11              10m12s