**** Best Individual - #gen:100 ****
ChromeSize: 55	Kernels: 14	Fitness: 0.6325186605
Chromosome: [1 0 1 0 1 0 0 0 0 0 1 1 0 0 1 0 0 1 0 0 0 0 1 0 0 0 0 0 0 1 0 0 1 0 1 0 0 0 0 0 0 0 0 0 0 0 0 1 1 0 0 0 1 0 0]
Kernels: [0 2 4 10 11 14 17 22 29 32 34 47 48 52]
W: [0.5974334590 0.0755569927 -0.0517632107 1.2028658537 0.7815263981 0.0375764987 -0.0336705787 -0.0279426529 -0.0050448272 -0.0177831609 0.0241438277 0.0051687939 -0.0261997541 0.0174990492]
Time: 00m41s