**** Best Individual - #gen:100 ****
ChromeSize: 55	Kernels: 8	Fitness: 0.5854853863
Chromosome: [1 0 0 0 0 0 0 0 0 0 1 1 0 0 0 0 0 0 0 0 0 0 0 0 0 1 0 0 0 0 0 0 0 0 0 0 0 0 0 0 0 1 1 0 0 0 0 0 1 0 0 0 1 0 0]
Kernels: [0 10 11 25 41 42 48 52]
W: [0.5940603661 1.2109758218 0.8008528321 0.0284465847 -0.0454371584 -0.0170788414 -0.0283970071 0.0284718252]
Time: 00m42s