**** Best Individual - #gen:100 ****
ChromeSize: 55	Kernels: 13	Fitness: 0.6074117071
Chromosome: [1 1 0 0 0 0 0 0 0 0 1 1 1 0 1 0 0 0 0 0 1 0 0 1 0 0 0 0 0 0 0 1 0 0 0 1 0 0 0 0 1 0 0 0 0 0 0 0 0 0 0 1 1 0 0]
Kernels: [0 1 10 11 12 14 20 23 31 35 40 51 52]
W: [0.6602107884 0.0811210450 1.2024258036 0.8062453440 -0.0248670688 -0.0124774576 -0.0187896957 0.0147769953 -0.0713050044 -0.0227055505 0.0505579086 -0.0086600258 -0.0266932233]
Time: 00m42s