**** Best Individual - #gen:100 ****
ChromeSize: 55	Kernels: 8	Fitness: 0.9497268523
Chromosome: [1 0 0 0 1 0 0 0 0 0 1 1 0 0 0 1 0 1 0 0 0 0 0 0 0 0 0 0 0 0 0 0 1 0 0 0 0 0 0 1 0 0 0 0 0 0 0 0 0 0 0 0 0 0 0]
Kernels: [0 4 10 11 15 17 32 39]
W: [0.6006823912 -0.0136998338 1.1982899025 0.7925547807 -0.0109395236 0.0094438787 0.0040737772 0.0088154188]
Time: 00m43s