**** Best Individual - #gen:100 ****
ChromeSize: 55	Kernels: 15	Fitness: 0.5846159728
Chromosome: [1 0 0 0 0 1 0 0 1 0 1 1 1 0 1 0 0 0 0 1 0 1 0 1 1 0 0 0 0 0 0 0 0 1 0 0 0 0 0 0 0 1 0 0 0 0 0 1 1 0 0 0 0 0 0]
Kernels: [0 5 8 10 11 12 14 19 21 23 24 33 41 47 48]
W: [0.6033580363 -0.0111422048 -0.0524038407 1.2075201125 0.7800236793 -0.0244274928 -0.0229868086 -0.0235300837 0.0157203671 -0.0157084523 0.0148744217 -0.0151991525 -0.0312747485 -0.0213655344 -0.0249064180]
Time: 00m44s