**** Best Individual - #gen:100 ****
ChromeSize: 55	Kernels: 13	Fitness: 0.9005795356
Chromosome: [0 0 1 0 0 1 0 0 0 0 0 1 0 1 1 0 0 1 1 0 0 0 0 1 0 0 0 0 0 0 1 0 1 0 1 1 0 0 0 0 0 0 1 0 0 0 0 0 0 0 0 0 0 0 0]
Kernels: [2 5 11 13 14 17 18 23 30 32 34 35 42]
W: [1.0028592707 -0.0093692623 0.0090963002 -0.0062947405 0.0831620937 0.0035942420 -0.0080428056 0.0061583843 0.0048463287 0.0048603887 -0.0053209225 -0.0398683719 0.0008404397]
Time: 02m35s