**** Best Individual - #gen:10 ****
ChromeSize: 55	Kernels: 11	Fitness: 0.9896233794
Chromosome: [0 0 1 1 1 0 0 0 0 0 0 0 0 0 1 0 0 0 0 0 1 0 0 0 0 0 0 0 0 0 0 0 1 0 0 1 0 0 0 0 0 0 1 0 0 0 0 0 0 0 0 1 1 0 1]
Kernels: [2 3 4 14 20 32 35 42 51 52 54]
W: [0.9993559771 0.0089125176 0.0039643387 0.0804756837 0.0013000032 -0.0023117884 -0.0412634101 0.0027646741 -0.0024891698 0.0001401715 -0.0011757121]
Time: 05m54s


**** Best Individual - #gen:20 ****
ChromeSize: 55	Kernels: 11	Fitness: 0.9896399043
Chromosome: [0 0 1 0 1 1 0 0 0 0 0 1 0 0 1 0 0 0 0 0 1 0 0 0 0 0 0 0 0 1 0 0 0 0 0 1 0 0 0 1 0 0 0 0 0 0 0 1 0 0 0 0 0 0 1]
Kernels: [2 4 5 11 14 20 29 35 39 47 54]
W: [1.0015340258 0.0040270654 -0.0025103036 0.0044792319 0.0807322271 -0.0004789186 0.0042586116 -0.0399030908 -0.0015366261 -0.0015208477 -0.0010817091]
Time: 09m58s


**** Best Individual - #gen:30 ****
ChromeSize: 55	Kernels: 11	Fitness: 0.9896988598
Chromosome: [0 0 1 0 1 1 0 0 0 0 0 1 0 0 1 0 1 0 0 0 0 0 0 0 0 1 0 0 0 0 0 0 0 0 0 1 0 0 1 0 0 0 1 0 0 0 0 0 1 0 0 0 0 0 0]
Kernels: [2 4 5 11 14 16 25 35 38 42 48]
W: [1.0023376747 0.0095720048 -0.0014730600 -0.0087510394 0.0782666656 0.0006729236 -0.0013800106 -0.0398800140 -0.0018164763 -0.0017080121 -0.0009699148]
Time: 10m02s


**** Best Individual - #gen:40 ****
ChromeSize: 55	Kernels: 11	Fitness: 0.9896302039
Chromosome: [0 1 1 1 0 0 0 0 0 0 0 0 0 0 1 0 0 0 0 0 1 0 1 0 0 0 0 0 0 0 0 0 0 0 0 1 0 0 1 0 1 0 0 0 0 0 0 0 1 0 0 0 0 0 1]
Kernels: [1 2 3 14 20 22 35 38 40 48 54]
W: [0.0042886630 1.0027583950 0.0025397554 0.0790190392 0.0003877212 0.0006905945 -0.0397534157 0.0042184081 -0.0053915203 -0.0036126257 -0.0011115533]
Time: 10m01s


**** Best Individual - #gen:50 ****
ChromeSize: 55	Kernels: 11	Fitness: 0.9896621786
Chromosome: [0 0 1 0 1 0 0 0 0 0 0 0 1 1 1 0 0 0 1 0 0 0 1 0 0 1 0 0 0 0 1 0 0 0 0 1 0 0 0 0 0 0 0 1 0 0 0 0 0 0 0 0 0 0 0]
Kernels: [2 4 12 13 14 18 22 25 30 35 43]
W: [0.9969841298 -0.0023427070 0.0046720379 -0.0016429209 0.0819634617 0.0051669945 -0.0005101293 0.0034749442 -0.0019758166 -0.0399318857 -0.0057307082]
Time: 10m00s


**** Best Individual - #gen:60 ****
ChromeSize: 55	Kernels: 9	Fitness: 0.9897256117
Chromosome: [0 0 1 0 0 1 0 0 0 0 0 1 0 0 1 0 1 0 0 0 1 0 0 0 0 0 0 0 0 1 0 0 0 0 0 1 0 0 0 1 0 0 0 0 0 0 0 0 0 0 0 0 0 0 0]
Kernels: [2 5 11 14 16 20 29 35 39]
W: [0.9979488203 0.0020148120 -0.0023389343 0.0768759423 -0.0051575526 -0.0021404569 0.0043073400 -0.0391511808 -0.0047598837]
Time: 10m09s


**** Best Individual - #gen:70 ****
ChromeSize: 55	Kernels: 11	Fitness: 0.9896473905
Chromosome: [0 0 1 0 1 1 0 0 0 0 0 1 0 0 1 0 1 0 0 0 0 0 0 0 0 1 0 0 0 0 0 0 0 0 0 1 0 0 1 0 0 0 0 0 0 0 0 0 1 0 0 0 0 1 0]
Kernels: [2 4 5 11 14 16 25 35 38 48 53]
W: [1.0042347771 -0.0016557885 0.0030633473 0.0030439406 0.0798067932 -0.0049851440 0.0024378744 -0.0397939393 0.0030060571 -0.0034272694 0.0010115894]
Time: 10m12s


**** Best Individual - #gen:80 ****
ChromeSize: 55	Kernels: 11	Fitness: 0.9896954284
Chromosome: [0 0 1 0 1 0 1 0 0 0 0 1 0 1 1 0 0 0 0 1 0 0 0 0 0 0 0 0 0 1 0 0 0 0 1 1 0 0 0 0 0 0 0 0 0 0 0 0 0 0 0 0 1 0 0]
Kernels: [2 4 6 11 13 14 19 29 34 35 52]
W: [1.0000043260 0.0068137226 -0.0062750712 0.0020297980 0.0061435364 0.0806664966 -0.0038701973 -0.0015110138 -0.0010619596 -0.0394555004 -0.0019619705]
Time: 10m14s


**** Best Individual - #gen:90 ****
ChromeSize: 55	Kernels: 11	Fitness: 0.9896958016
Chromosome: [0 1 1 1 0 0 0 0 0 1 0 0 1 0 1 0 0 0 0 0 0 0 1 0 0 0 0 0 0 0 0 1 0 0 0 1 0 0 0 0 0 0 0 0 0 0 0 0 1 0 0 0 1 0 0]
Kernels: [1 2 3 9 12 14 22 31 35 48 52]
W: [-0.0081189056 0.9998541510 -0.0054492156 0.0061590903 -0.0003292062 0.0819170406 0.0011673121 0.0052211095 -0.0374261514 0.0016505091 0.0014291704]
Time: 10m02s


**** Best Individual - #gen:100 ****
ChromeSize: 55	Kernels: 11	Fitness: 0.9897609279
Chromosome: [0 0 1 0 0 0 0 1 0 0 0 0 0 0 1 0 0 0 0 0 0 0 1 0 0 0 0 1 0 0 0 0 0 0 1 1 0 0 0 0 0 0 1 1 0 0 1 0 0 0 0 0 0 0 1]
Kernels: [2 7 14 22 27 34 35 42 43 46 54]
W: [1.0019621423 -0.0035958792 0.0816149902 0.0022262531 -0.0055082653 -0.0026363868 -0.0394146620 -0.0051293745 0.0029813905 -0.0031942923 0.0011703791]
Time: 10m01s