**** Best Individual - #gen:100 ****
ChromeSize: 55	Kernels: 8	Fitness: 0.9015918905
Chromosome: [0 0 1 0 0 0 0 0 1 0 0 0 0 0 1 0 0 0 0 0 0 0 0 0 0 1 0 0 0 0 0 0 0 0 0 1 0 0 0 0 0 1 0 0 0 0 0 0 1 0 1 0 0 0 0]
Kernels: [2 8 14 25 35 41 48 50]
W: [1.0079341517 -0.0074115824 0.0806245560 -0.0026568771 -0.0394233337 0.0073501981 -0.0060053524 0.0012879335]
Time: 05m14s