**** Best Individual - #gen:100 ****
ChromeSize: 55	Kernels: 9	Fitness: 0.8992139184
Chromosome: [0 0 1 0 0 0 0 0 0 1 0 0 0 0 1 0 0 0 1 0 0 0 0 0 0 0 0 0 0 0 0 0 0 1 0 1 0 0 0 0 0 0 0 0 0 0 1 0 1 0 0 0 1 0 0]
Kernels: [2 9 14 18 33 35 46 48 52]
W: [1.0039693370 0.0078768715 0.0784780772 0.0067943269 0.0062197216 -0.0386493520 -0.0009139295 -0.0000225413 -0.0037707309]
Time: 05m17s