**** Best Individual - #gen:100 ****
ChromeSize: 55	Kernels: 15	Fitness: 0.6176299194
Chromosome: [1 0 0 0 1 0 0 0 0 0 1 1 1 0 1 0 1 0 0 0 0 0 0 1 0 0 0 1 1 0 0 1 0 0 0 0 1 0 0 0 0 1 0 1 0 0 0 0 0 0 0 0 1 0 0]
Kernels: [0 4 10 11 12 14 16 23 27 28 31 36 41 43 52]
W: [0.5861330139 -0.0351283990 1.1875411058 0.7811424290 0.0278486409 0.0234916277 0.0341604846 0.0119672795 -0.0281400328 0.0319713582 -0.0301961357 -0.0138817404 0.0360805010 0.0083934021 0.0114269717]
Time: 00m57s