**** Best Individual - #gen:100 ****
ChromeSize: 55	Kernels: 9	Fitness: 0.6467817528
Chromosome: [1 0 0 0 0 0 0 0 0 0 1 1 0 0 0 0 0 0 1 0 0 0 1 0 0 0 0 0 0 1 0 0 0 0 0 0 0 0 0 0 1 0 0 0 0 0 0 0 0 0 0 0 1 0 1]
Kernels: [0 10 11 18 22 29 40 52 54]
W: [0.5771651789 1.2095588641 0.8029610398 -0.0208168950 0.0202944638 0.0269216950 0.0213329735 0.0313243612 -0.0158277132]
Time: 00m48s