**** Best Individual - #gen:100 ****
ChromeSize: 55	Kernels: 11	Fitness: 0.9493624969
Chromosome: [1 0 1 0 0 0 0 0 1 0 1 1 0 0 0 0 1 0 0 0 0 0 1 1 0 0 0 0 0 0 1 0 0 1 0 0 0 0 0 0 0 0 0 0 0 0 0 0 0 1 0 0 0 0 0]
Kernels: [0 2 8 10 11 16 22 23 30 33 49]
W: [0.5981796696 -0.0117416252 -0.0066811792 1.1929085384 0.7945267215 0.0111045237 0.0066528298 0.0019158315 0.0066736344 -0.0098887198 0.0128632052]
Time: 00m50s