**** Best Individual - #gen:100 ****
ChromeSize: 55	Kernels: 12	Fitness: 0.6126982828
Chromosome: [1 0 0 0 0 0 0 0 1 1 1 1 0 0 1 1 0 0 0 1 0 0 0 0 0 0 0 0 0 0 1 0 0 0 0 1 0 0 0 0 0 0 0 0 0 1 0 0 1 0 0 0 0 0 0]
Kernels: [0 8 9 10 11 14 15 19 30 35 45 48]
W: [0.6053931946 -0.0193062999 -0.0237311022 1.2087752756 0.8050620144 -0.0105100179 0.0316362509 -0.0011633014 0.0329471626 -0.0115629653 -0.0086590463 0.0125920596]
Time: 00m50s