**** Best Individual - #gen:100 ****
ChromeSize: 55	Kernels: 11	Fitness: 0.5915445249
Chromosome: [1 0 0 0 0 0 0 0 0 0 1 1 0 0 0 0 1 0 0 1 0 0 0 0 0 0 0 1 0 0 1 0 0 0 0 0 0 0 0 0 0 0 0 1 0 0 0 1 0 0 0 0 1 0 1]
Kernels: [0 10 11 16 19 27 30 43 47 52 54]
W: [0.6013865538 1.2056400783 0.8155090443 -0.0436460340 -0.0135385426 0.0001838992 -0.0327456530 0.0271710175 -0.0191863500 -0.0182380889 0.0111147457]
Time: 00m50s