**** Best Individual - #gen:100 ****
ChromeSize: 55	Kernels: 25	Fitness: 0.9839426034
Chromosome: [1 1 1 0 1 1 1 1 1 1 1 1 1 1 1 1 1 1 1 1 0 1 1 0 0 0 0 0 0 0 0 0 1 0 0 0 1 0 0 0 0 0 0 0 0 1 0 0 0 0 0 1 0 0 0]
Kernels: [0 1 2 4 5 6 7 8 9 10 11 12 13 14 15 16 17 18 19 21 22 32 36 45 51]
W: [0.3538913151 0.2408193046 0.1112452032 -0.1230660385 0.3487207248 0.2925864585 0.2260645175 0.1637268698 0.0963646872 0.2401052141 0.1939424596 0.1268029566 0.0686707818 0.1402137407 0.0930699223 0.0368571407 0.0539652425 0.0061130430 -0.0234450135 0.0004767363 0.0040498719 -0.0017935544 -0.0000215051 0.0010793903 -0.0015506278]
Time: 01m51s