**** Best Individual - #gen:100 ****
ChromeSize: 55	Kernels: 29	Fitness: 0.8613521454
Chromosome: [1 1 1 0 1 1 1 1 1 1 1 1 1 1 1 1 1 1 0 1 0 0 1 0 0 1 0 0 1 1 1 0 0 0 0 1 0 0 1 1 0 0 0 0 0 0 0 0 1 1 1 0 0 0 0]
Kernels: [0 1 2 4 5 6 7 8 9 10 11 12 13 14 15 16 17 19 22 25 28 29 30 35 38 39 48 49 50]
W: [0.3595827636 0.2658485703 0.1461100707 -0.1156674296 0.3410960722 0.2912400639 0.2369032063 0.1511479743 0.0971497546 0.2436892312 0.1794787394 0.1333886217 0.0700425378 0.1419084911 0.0900662504 0.0477608510 0.0476184592 -0.0180792246 -0.0142795216 -0.0148247312 -0.0127892969 0.0120364596 -0.0148447306 -0.0042048007 -0.0078668451 -0.0075592477 -0.0101141896 0.0021770683 -0.0088720368]
Time: 02m11s