**** Best Individual - #gen:100 ****
ChromeSize: 55	Kernels: 26	Fitness: 0.8612631753
Chromosome: [1 1 1 0 1 1 1 1 1 1 1 1 1 1 1 1 1 1 1 1 0 0 0 0 0 0 0 0 1 0 0 1 0 0 0 0 0 0 0 1 0 1 0 0 0 0 0 0 0 1 0 1 0 0 1]
Kernels: [0 1 2 4 5 6 7 8 9 10 11 12 13 14 15 16 17 18 19 28 31 39 41 49 51 54]
W: [0.3525900899 0.2385916803 0.1140611792 -0.1058779971 0.3423805682 0.2890412080 0.2323278039 0.1468869736 0.0932326889 0.2430602060 0.1679853505 0.1163839097 0.0637658566 0.1389241615 0.0955045723 0.0334813850 0.0520316093 0.0186502076 -0.0195644492 0.0101500945 -0.0140505933 -0.0084205906 0.0050676883 -0.0172895447 -0.0007302469 -0.0038517978]
Time: 01m50s