**** Best Individual - #gen:100 ****
ChromeSize: 55	Kernels: 31	Fitness: 0.8788543268
Chromosome: [1 1 1 0 1 1 1 1 1 1 1 1 1 1 1 1 1 1 1 1 0 0 0 1 0 1 1 1 0 0 0 1 1 0 0 0 0 1 0 0 0 0 0 0 0 0 0 0 0 1 1 0 1 1 1]
Kernels: [0 1 2 4 5 6 7 8 9 10 11 12 13 14 15 16 17 18 19 23 25 26 27 31 32 37 49 50 52 53 54]
W: [0.3753783575 0.2442800674 0.1095697577 -0.1174504394 0.3428817094 0.2985099199 0.2129491205 0.1615709736 0.0889262493 0.2441335805 0.2007734723 0.1176071939 0.0719681971 0.1546493577 0.0950427094 0.0289093106 0.0490544156 0.0177456667 -0.0263475804 -0.0099018408 -0.0034289980 -0.0180992724 -0.0119968551 -0.0140900612 -0.0032758374 0.0092069799 -0.0023135977 0.0102724543 -0.0030893615 -0.0041236129 -0.0006746305]
Time: 02m27s