**** Best Individual - #gen:100 ****
ChromeSize: 55	Kernels: 27	Fitness: 0.9880791013
Chromosome: [1 1 1 1 1 1 1 1 1 1 1 1 1 1 1 1 1 1 1 1 0 0 0 0 0 0 0 0 0 0 0 1 0 1 1 0 1 0 0 1 0 0 0 0 0 0 0 1 0 0 1 0 0 0 0]
Kernels: [0 1 2 3 4 5 6 7 8 9 10 11 12 13 14 15 16 17 18 19 31 33 34 36 39 47 50]
W: [0.3528524689 0.2413264447 0.1227445494 -0.0061494267 -0.1291919585 0.3445838329 0.2960513571 0.2299062531 0.1678285312 0.0944702095 0.2451352142 0.1879870881 0.1302968680 0.0659065259 0.1403272348 0.0852925698 0.0383396141 0.0497850667 0.0117080229 -0.0191508399 0.0026831120 0.0028937651 -0.0020111073 -0.0041620634 -0.0015666622 0.0011786530 0.0025453549]
Time: 02m03s