**** Best Individual - #gen:100 ****
ChromeSize: 55	Kernels: 25	Fitness: 0.8729592000
Chromosome: [1 1 1 0 1 1 1 1 1 1 1 1 1 1 1 1 1 1 1 1 0 0 1 0 0 0 0 1 0 0 0 1 0 0 0 0 0 0 0 0 0 1 0 0 0 0 1 0 0 0 0 0 1 0 0]
Kernels: [0 1 2 4 5 6 7 8 9 10 11 12 13 14 15 16 17 18 19 22 27 31 41 46 52]
W: [0.3575477182 0.2444436204 0.1392911696 -0.1024455431 0.3439836947 0.3015209127 0.2330839471 0.1643427557 0.0902823522 0.2382361055 0.1805294306 0.1241624235 0.0693095748 0.1380138573 0.0879033998 0.0445699329 0.0558203092 0.0061996630 -0.0157001697 -0.0053771249 -0.0164324629 0.0151623669 -0.0072033959 0.0018917962 -0.0064360651]
Time: 01m43s