Generations   Fitness        Kernels <= 13   Time
10            0.9488068453   13              00m00s
20            0.9493060526   13              00m00s
30            0.9492013199   12              00m00s
40            0.9488727472   13              00m00s
50            0.9495933792   13              00m00s
60            0.9492624672   13              00m00s
70            0.9498759190   13              00m00s
80            0.9494156899   13              00m00s
90            0.9500186176   13              00m00s
100           0.9493299702   13              00m00s