Generations   Fitness        Kernels <= 11   Time
10            0.9487512961   11              00m00s
20            0.9488521611   11              00m00s
30            0.9487080354   11              00m00s
40            0.9495379977   11              00m00s
50            0.9494536130   11              00m00s
60            0.9489549597   11              00m00s
70            0.9493633123   11              00m00s
80            0.9489421540   11              00m00s
90            0.9492596851   11              00m00s
100           0.9486973988   10              00m00s