**** Best Individual - #gen:100 ****
ChromeSize: 55	Kernels: 29	Fitness: 0.9865193923
Chromosome: [1 1 1 0 1 1 1 1 1 1 1 1 1 1 1 1 1 1 1 1 0 1 1 1 0 0 0 1 1 0 0 0 1 0 1 0 1 0 0 0 0 1 0 0 0 1 0 0 0 0 0 0 0 0 0]
Kernels: [0 1 2 4 5 6 7 8 9 10 11 12 13 14 15 16 17 18 19 21 22 23 27 28 32 34 36 41 45]
W: [0.3540599466 0.2421489769 0.1136427244 -0.1287937820 0.3453386221 0.2994349181 0.2384277609 0.1643489056 0.0902209739 0.2463385390 0.1876557636 0.1317348177 0.0664258503 0.1405616399 0.0949554151 0.0413036710 0.0502929762 0.0075081381 -0.0238311470 -0.0000274426 0.0011016116 -0.0031023478 0.0028372142 0.0027931851 0.0027694646 -0.0038169879 0.0037842750 0.0000041041 0.0006215794]
Time: 02m10s