**** Best Individual - #gen:100 ****
ChromeSize: 55	Kernels: 27	Fitness: 0.8640939648
Chromosome: [1 1 1 0 1 1 1 1 1 1 1 1 1 1 1 1 1 1 1 1 0 1 0 1 1 0 0 0 0 1 0 1 0 1 0 0 0 1 0 0 0 0 0 0 0 0 0 0 0 1 0 0 0 0 0]
Kernels: [0 1 2 4 5 6 7 8 9 10 11 12 13 14 15 16 17 18 19 21 23 24 29 31 33 37 49]
W: [0.3536148004 0.2666145818 0.1061586785 -0.1434538674 0.3471394360 0.2880351677 0.2369783170 0.1436891665 0.0951514289 0.2486659399 0.1877709992 0.1420532726 0.0745436852 0.1424548578 0.0900828323 0.0386752696 0.0450633704 0.0354015365 -0.0248188195 -0.0107226303 -0.0085690113 0.0057899936 -0.0123430801 0.0157106273 -0.0099529069 0.0104379579 -0.0155912681]
Time: 02m04s