**** Best Individual - #gen:100 ****
ChromeSize: 55	Kernels: 26	Fitness: 0.8769626264
Chromosome: [1 1 1 0 1 1 1 1 1 1 1 1 1 1 1 1 1 1 0 1 0 0 1 0 1 0 0 0 0 0 0 0 1 1 0 0 0 0 1 0 0 0 0 0 0 0 0 0 0 1 1 0 0 1 0]
Kernels: [0 1 2 4 5 6 7 8 9 10 11 12 13 14 15 16 17 19 22 24 32 33 38 49 50 53]
W: [0.3385176400 0.2476480867 0.1263200582 -0.1281963782 0.3454384172 0.2926938524 0.2309794169 0.1766797820 0.0894788665 0.2435093227 0.1774126642 0.1108682543 0.0909853402 0.1363833353 0.0888035893 0.0445921197 0.0524410447 -0.0159019592 0.0024801719 0.0034667558 0.0078129223 -0.0198085873 -0.0002085675 -0.0014834402 -0.0100935090 -0.0077385249]
Time: 01m49s