**** Best Individual - #gen:100 ****
ChromeSize: 55	Kernels: 26	Fitness: 0.9862997687
Chromosome: [1 1 1 0 1 1 1 1 1 1 1 1 1 1 1 1 1 1 1 1 0 0 0 0 0 0 0 0 0 0 0 1 0 0 0 1 1 0 0 0 0 0 1 0 0 0 0 1 0 0 0 0 0 1 1]
Kernels: [0 1 2 4 5 6 7 8 9 10 11 12 13 14 15 16 17 18 19 31 35 36 42 47 53 54]
W: [0.3559270336 0.2403412779 0.1181596323 -0.1240266197 0.3462613263 0.2924530168 0.2291999076 0.1666431776 0.0886745989 0.2407413159 0.1852949542 0.1327158445 0.0651588890 0.1418265656 0.0880488528 0.0347891527 0.0490538303 0.0073252915 -0.0225178425 -0.0056895298 -0.0010438878 0.0015624485 -0.0002649851 0.0026970670 0.0021076428 -0.0010326860]
Time: 01m51s