**** Best Individual - #gen:100 ****
ChromeSize: 55	Kernels: 26	Fitness: 0.8815582718
Chromosome: [1 1 1 0 1 1 1 1 1 1 1 1 1 1 1 1 1 1 1 1 0 0 0 1 0 0 1 0 0 0 0 0 0 0 0 1 0 0 0 0 0 0 1 0 0 1 0 1 0 0 0 0 0 1 0]
Kernels: [0 1 2 4 5 6 7 8 9 10 11 12 13 14 15 16 17 18 19 23 26 35 42 45 47 53]
W: [0.3451628480 0.2622033816 0.1297006330 -0.1277692780 0.3506938165 0.3024853774 0.2234140855 0.1565920375 0.0904142086 0.2503768800 0.1894949257 0.1255463410 0.0600477697 0.1330299067 0.0827932885 0.0368458273 0.0450002679 0.0129011830 -0.0292593119 0.0007798682 0.0248306180 -0.0074988393 -0.0021520310 -0.0027416771 0.0071752160 0.0099943676]
Time: 01m18s