**** Best Individual - #gen:100 ****
ChromeSize: 55	Kernels: 28	Fitness: 0.8688923366
Chromosome: [1 1 1 1 1 1 1 1 1 1 1 1 1 1 1 1 1 1 1 1 0 0 1 1 1 0 0 0 1 0 0 0 0 0 0 0 1 0 0 0 0 0 1 0 0 0 1 0 1 0 0 0 0 0 0]
Kernels: [0 1 2 3 4 5 6 7 8 9 10 11 12 13 14 15 16 17 18 19 22 23 24 28 36 42 46 48]
W: [0.3532549817 0.2505233467 0.0780620634 0.0204705200 -0.1304141283 0.3350324604 0.2918284621 0.2344545906 0.1514344899 0.0786944538 0.2483839724 0.1920306238 0.1206958589 0.0706869468 0.1280923820 0.0962021839 0.0389055502 0.0593791217 0.0206515204 -0.0157725710 0.0094058544 -0.0091262282 -0.0053525721 0.0162184493 0.0058641731 -0.0095301130 -0.0185443125 0.0131909578]
Time: 01m31s