Generations   Fitness        Kernels <= 26   Time
10            0.9416131341   26              00m00s
20            0.9681526294   26              00m00s
30            0.9687177285   24              00m00s
40            0.9724089962   26              00m00s
50            0.9850491600   26              00m01s
60            0.9842069119   26              00m01s
70            0.9858940518   26              00m01s
80            0.9848548322   25              00m01s
90            0.9857416730   26              00m02s
100           0.9859288168   25              00m02s