**** Best Individual - #gen:10 ****
ChromeSize: 55	Kernels: 27	Fitness: 0.9455604560
Chromosome: [1 1 1 0 0 1 1 1 1 1 1 0 1 0 1 1 0 1 0 0 1 1 0 1 1 1 1 0 0 0 0 0 1 1 0 1 0 0 0 0 0 1 0 0 0 0 0 1 0 0 1 0 1 0 1]
Kernels: [0 1 2 5 6 7 8 9 10 12 14 15 17 20 21 23 24 25 26 32 33 35 41 47 50 52 54]
W: [0.3449948255 0.2629030728 0.1197720716 0.3398703202 0.2931583865 0.2249884966 0.1556053139 0.0884858870 0.2305887223 0.1246635145 0.1403976509 0.0808457318 0.0459195964 0.0036269686 -0.0082500838 -0.0000997652 -0.0214408463 -0.0022604285 0.0173318687 0.0000560672 0.0238599222 -0.0029386867 0.0140788253 -0.0041867709 0.0095183697 -0.0106485864 -0.0173354053]
Time: 00m00s


**** Best Individual - #gen:20 ****
ChromeSize: 55	Kernels: 26	Fitness: 0.9749159222
Chromosome: [1 1 1 0 0 1 1 1 1 1 1 1 1 1 1 1 0 0 0 1 1 1 0 0 1 0 0 0 0 0 0 0 0 0 1 1 1 0 0 0 0 1 1 1 0 0 0 0 0 0 1 0 0 0 1]
Kernels: [0 1 2 5 6 7 8 9 10 11 12 13 14 15 19 20 21 24 34 35 36 41 42 43 50 54]
W: [0.3458723556 0.2482738390 0.1177061790 0.3561945882 0.2938254330 0.2246807368 0.1561915171 0.0916973917 0.2482540650 0.1805860142 0.1272790807 0.0573673608 0.1507418641 0.0990090859 -0.0155591838 -0.0003540158 -0.0020833200 -0.0239510714 0.0049623234 -0.0042469152 0.0004411190 0.0107836078 0.0134631119 0.0007553874 0.0084364926 -0.0216261726]
Time: 00m00s


**** Best Individual - #gen:30 ****
ChromeSize: 55	Kernels: 26	Fitness: 0.9785562439
Chromosome: [1 1 1 1 1 1 1 1 1 1 1 1 1 1 1 1 0 0 0 0 0 0 0 0 0 1 1 0 0 0 0 0 1 0 0 1 1 1 0 1 0 0 0 0 1 0 0 1 0 0 0 1 0 0 0]
Kernels: [0 1 2 3 4 5 6 7 8 9 10 11 12 13 14 15 25 26 32 35 36 37 39 44 47 51]
W: [0.3520283804 0.2362815614 0.1118284317 -0.0221831490 -0.1244378277 0.3515941166 0.2971796519 0.2304902162 0.1616384851 0.0922565437 0.2416413461 0.1811515798 0.1290094193 0.0672186621 0.1467128026 0.0959858701 -0.0007969878 0.0060311484 0.0034165859 -0.0003069763 0.0048084184 -0.0006891301 0.0000900893 -0.0019469161 0.0017484360 0.0091457999]
Time: 00m00s


**** Best Individual - #gen:40 ****
ChromeSize: 55	Kernels: 27	Fitness: 0.9859848936
Chromosome: [1 1 1 0 1 1 1 1 1 1 1 1 1 1 1 1 1 1 0 1 1 0 1 1 0 1 0 0 0 0 0 0 1 1 0 0 0 0 0 0 0 0 0 1 0 0 0 0 1 0 0 0 0 1 0]
Kernels: [0 1 2 4 5 6 7 8 9 10 11 12 13 14 15 16 17 19 20 22 23 25 32 33 43 48 53]
W: [0.3709094072 0.2389598995 0.1144038046 -0.1293810173 0.3489096197 0.2938121020 0.2338787337 0.1609041690 0.0905503422 0.2416003949 0.1906608145 0.1264600747 0.0674725140 0.1387010294 0.0903082414 0.0317988500 0.0442272533 -0.0144439951 -0.0032360139 -0.0023946095 -0.0008726106 0.0023575181 -0.0032774627 0.0055303062 0.0053324277 0.0059156435 0.0017584736]
Time: 00m00s


**** Best Individual - #gen:50 ****
ChromeSize: 55	Kernels: 27	Fitness: 0.9780715627
Chromosome: [1 1 0 0 1 1 1 1 1 1 1 1 1 1 1 1 0 1 1 1 1 1 1 1 0 0 0 0 0 1 0 1 1 0 0 1 0 0 0 0 0 0 0 0 0 0 0 1 1 0 0 0 0 0 0]
Kernels: [0 1 4 5 6 7 8 9 10 11 12 13 14 15 17 18 19 20 21 22 23 29 31 32 35 47 48]
W: [0.3456297164 0.2402842593 -0.1190518210 0.3528604782 0.2906421308 0.2344714987 0.1642457033 0.0896674780 0.2411758765 0.1820239964 0.1229774801 0.0726966908 0.1478403762 0.0880780206 0.0448246561 0.0139471530 -0.0207788336 0.0031667783 -0.0019849462 0.0306673620 -0.0029163156 0.0051413657 0.0079430602 0.0021406417 0.0010750412 -0.0000402262 0.0327658343]
Time: 00m01s


**** Best Individual - #gen:60 ****
ChromeSize: 55	Kernels: 27	Fitness: 0.9844682983
Chromosome: [1 1 1 0 1 1 1 1 1 1 1 1 1 1 1 1 1 1 0 0 0 0 1 1 0 0 1 0 0 0 0 1 0 0 0 0 0 0 1 0 0 0 1 1 0 0 0 0 0 1 1 0 0 1 0]
Kernels: [0 1 2 4 5 6 7 8 9 10 11 12 13 14 15 16 17 22 23 26 31 38 42 43 49 50 53]
W: [0.3548760212 0.2326454382 0.1184231051 -0.1247166916 0.3375941306 0.2912526896 0.2290984584 0.1647213445 0.0894397045 0.2346295646 0.1900065248 0.1227760167 0.0702407145 0.1429156391 0.0942735091 0.0387987163 0.0459590604 -0.0004197026 -0.0008247257 0.0010578036 0.0052154448 -0.0021963112 0.0038487308 0.0069736482 -0.0020045052 -0.0020515088 -0.0023455027]
Time: 00m01s


**** Best Individual - #gen:70 ****
ChromeSize: 55	Kernels: 27	Fitness: 0.9856979072
Chromosome: [1 1 1 0 1 1 1 1 1 1 1 1 1 1 1 1 1 1 0 1 0 0 0 0 0 1 1 0 0 0 0 0 0 0 0 0 1 0 0 1 0 0 0 1 0 1 1 0 0 1 0 1 0 0 0]
Kernels: [0 1 2 4 5 6 7 8 9 10 11 12 13 14 15 16 17 19 25 26 36 39 43 45 46 49 51]
W: [0.3496271538 0.2470909726 0.1287804036 -0.1274238396 0.3463227666 0.2941225191 0.2283334176 0.1625880715 0.0946062527 0.2442060327 0.1923740835 0.1228025807 0.0680173130 0.1422058650 0.0942665124 0.0413308800 0.0491464955 -0.0198531529 0.0023101887 0.0015225288 -0.0005472359 -0.0002908144 0.0038254742 -0.0026692237 -0.0016086271 0.0020389430 -0.0012256597]
Time: 00m01s


**** Best Individual - #gen:80 ****
ChromeSize: 55	Kernels: 27	Fitness: 0.9855115172
Chromosome: [1 1 1 1 1 1 1 1 1 1 1 1 1 1 1 1 1 1 0 0 0 0 0 0 0 0 0 0 0 0 0 0 0 0 0 1 1 0 1 1 0 0 1 0 0 1 0 0 1 1 0 0 0 0 1]
Kernels: [0 1 2 3 4 5 6 7 8 9 10 11 12 13 14 15 16 17 35 36 38 39 42 45 48 49 54]
W: [0.3579756150 0.2453988431 0.1171374418 -0.0025369208 -0.1128497453 0.3392432100 0.2962430023 0.2281313713 0.1665674461 0.0904491144 0.2412577176 0.1867996163 0.1290076437 0.0699497933 0.1458312194 0.0897906358 0.0428781623 0.0419951684 -0.0013554599 -0.0035198537 -0.0032368572 -0.0021037535 0.0000516602 0.0008053187 0.0003093670 0.0000920312 -0.0049049616]
Time: 00m01s


**** Best Individual - #gen:90 ****
ChromeSize: 55	Kernels: 26	Fitness: 0.9835186922
Chromosome: [1 1 1 1 1 1 1 1 1 1 1 1 1 1 1 1 0 1 0 0 0 0 0 0 0 1 1 0 0 0 1 1 0 1 0 0 0 1 1 0 0 0 0 0 0 0 1 0 0 0 0 1 0 0 0]
Kernels: [0 1 2 3 4 5 6 7 8 9 10 11 12 13 14 15 17 25 26 30 31 33 37 38 46 51]
W: [0.3495662204 0.2430464233 0.1143762534 -0.0018495658 -0.1180543950 0.3447678341 0.2876853335 0.2271917472 0.1626261389 0.0922926946 0.2396401841 0.1868843458 0.1234374877 0.0641318453 0.1350074749 0.0880939844 0.0510675589 0.0058450857 0.0038278366 -0.0053249735 -0.0004507589 -0.0006541268 -0.0005334560 0.0008581664 -0.0046236246 0.0012190177]
Time: 00m02s


**** Best Individual - #gen:100 ****
ChromeSize: 55	Kernels: 27	Fitness: 0.9856265287
Chromosome: [1 1 1 0 1 1 1 1 1 1 1 1 1 1 1 1 1 1 1 1 1 0 0 0 1 0 0 0 0 0 1 0 0 0 0 0 0 0 1 0 0 1 0 0 0 1 0 0 1 0 0 0 0 1 0]
Kernels: [0 1 2 4 5 6 7 8 9 10 11 12 13 14 15 16 17 18 19 20 24 30 38 41 45 48 53]
W: [0.3545622140 0.2434500309 0.1169212499 -0.1243592814 0.3428171121 0.2904051912 0.2286821214 0.1662921283 0.0922812886 0.2441803605 0.1899804291 0.1318156766 0.0660568063 0.1395667996 0.0918695339 0.0338106672 0.0496618181 0.0106280263 -0.0210191273 0.0005935393 -0.0012950797 -0.0033309899 0.0007660337 -0.0017878898 0.0005770662 -0.0005491921 -0.0028160614]
Time: 00m02s