**** Best Individual - #gen:100 ****
ChromeSize: 55	Kernels: 12	Fitness: 0.5870516673
Chromosome: [1 0 0 0 0 0 0 0 0 0 1 1 1 0 0 1 0 0 0 0 0 0 1 0 0 0 0 0 0 0 1 0 0 0 0 0 1 0 0 0 0 0 0 0 0 0 0 1 1 0 0 0 0 1 1]
Kernels: [0 10 11 12 15 22 30 36 47 48 53 54]
W: [0.6276801303 1.1993058347 0.7855391723 -0.0101057752 -0.0191907298 0.0045941458 -0.0159938460 0.0061919313 0.0108827522 -0.0135204786 0.0104374492 -0.0042768251]
Time: 04m20s