**** Best Individual - #gen:100 ****
ChromeSize: 55	Kernels: 10	Fitness: 0.5810889454
Chromosome: [1 0 0 0 0 1 0 1 0 0 1 1 0 0 0 0 0 0 0 0 0 0 0 1 0 0 0 0 1 0 0 0 0 0 0 0 0 1 0 0 1 0 0 0 0 0 0 0 0 0 0 0 1 0 0]
Kernels: [0 5 7 10 11 23 28 37 40 52]
W: [0.5968482696 -0.0091455403 -0.0149124803 1.2068450076 0.7855153900 -0.0098377565 0.0138102695 0.0076170656 0.0096282246 0.0049277232]
Time: 04m10s