**** Best Individual - #gen:100 ****
ChromeSize: 55	Kernels: 8	Fitness: 0.9449561094
Chromosome: [1 0 0 0 0 0 0 0 0 0 1 1 0 0 0 0 0 0 0 0 0 0 0 0 0 0 0 1 0 0 0 0 0 1 1 0 0 0 0 0 0 0 0 1 0 0 0 1 0 0 0 0 0 0 0]
Kernels: [0 10 11 27 33 34 43 47]
W: [0.6030537395 1.1996639684 0.7980552277 0.0025110093 0.0044756368 -0.0016231763 -0.0030799383 -0.0026097192]
Time: 04m12s