**** Best Individual - #gen:100 ****
ChromeSize: 55	Kernels: 8	Fitness: 0.5875951952
Chromosome: [1 0 1 0 0 1 0 0 0 1 1 1 0 0 0 0 0 0 0 0 0 0 0 0 0 0 0 0 1 0 1 0 0 0 0 0 0 0 0 0 0 0 0 0 0 0 0 0 0 0 0 0 0 0 0]
Kernels: [0 2 5 9 10 11 28 30]
W: [0.6036389465 0.0136048764 0.0103462962 0.0088628734 1.1980693093 0.7943487859 0.0143017103 0.0154600819]
Time: 04m08s