**** Best Individual - #gen:100 ****
ChromeSize: 55	Kernels: 25	Fitness: 0.9858028366
Chromosome: [1 1 1 0 1 1 1 1 1 1 1 1 1 1 1 1 1 1 1 1 0 0 0 0 0 1 1 0 0 0 0 0 0 0 0 0 0 0 1 0 0 0 0 0 0 0 0 0 0 0 1 1 0 0 1]
Kernels: [0 1 2 4 5 6 7 8 9 10 11 12 13 14 15 16 17 18 19 25 26 38 50 51 54]
W: [0.3555428549 0.2380420338 0.1164690059 -0.1198617052 0.3460458249 0.2921536563 0.2338949092 0.1648665656 0.0931529577 0.2438010825 0.1903868422 0.1285894056 0.0668795267 0.1426387756 0.0891544159 0.0370973934 0.0489233583 0.0083227568 -0.0218526388 -0.0010663568 -0.0014796673 -0.0020510156 0.0015217161 -0.0003053395 -0.0001428028]
Time: 09m38s