**** Best Individual - #gen:100 ****
ChromeSize: 55	Kernels: 31	Fitness: 0.8613685545
Chromosome: [1 1 1 0 1 1 1 1 1 1 1 1 1 1 1 1 1 1 1 1 0 0 1 1 0 0 0 0 0 1 0 0 0 1 0 1 1 0 0 0 1 1 0 0 1 1 1 0 0 0 0 1 0 0 0]
Kernels: [0 1 2 4 5 6 7 8 9 10 11 12 13 14 15 16 17 18 19 22 23 29 33 35 36 40 41 44 45 46 51]
W: [0.3513465324 0.2402492251 0.1385569869 -0.1262774576 0.3420273587 0.2889471509 0.2330198768 0.1577305887 0.0956863396 0.2465825870 0.1876750718 0.1296148464 0.0620461270 0.1400550611 0.0886378048 0.0367184588 0.0535390225 0.0053363276 -0.0222722520 -0.0038301340 0.0039539694 -0.0008074914 -0.0003301462 -0.0011826484 -0.0033130438 -0.0063848906 0.0040526227 0.0046447348 -0.0029638567 -0.0051757992 0.0007360023]
Time: 10m00s