**** Best Individual - #gen:100 ****
ChromeSize: 55	Kernels: 27	Fitness: 0.8619317350
Chromosome: [1 1 1 0 1 1 1 1 1 1 1 1 1 1 1 1 1 1 1 1 0 0 0 0 0 0 1 0 0 1 0 0 0 0 0 1 0 1 0 0 0 0 0 1 1 0 0 1 0 0 0 0 0 0 1]
Kernels: [0 1 2 4 5 6 7 8 9 10 11 12 13 14 15 16 17 18 19 26 29 35 37 43 44 47 54]
W: [0.3555319108 0.2292083129 0.1246837189 -0.1313411425 0.3458046946 0.2914685764 0.2304848140 0.1641405306 0.0886800550 0.2402062873 0.1881274753 0.1210303078 0.0540000711 0.1394768871 0.0974526321 0.0382200202 0.0476159095 0.0157511860 -0.0193768036 -0.0079386853 -0.0079191131 0.0013545340 -0.0039531335 0.0006860122 0.0029851707 0.0039289364 0.0014095525]
Time: 10m00s