**** Best Individual - #gen:100 ****
ChromeSize: 55	Kernels: 27	Fitness: 0.8398450004
Chromosome: [1 1 1 1 1 1 1 1 1 1 1 1 1 1 1 1 1 1 0 1 0 0 0 0 0 0 0 0 1 1 0 0 0 0 0 0 1 0 0 1 1 0 0 0 0 0 1 0 0 0 0 1 0 1 0]
Kernels: [0 1 2 3 4 5 6 7 8 9 10 11 12 13 14 15 16 17 19 28 29 36 39 40 46 51 53]
W: [0.3684484422 0.1966541988 0.0985863194 0.0134164294 -0.1341441973 0.3471048892 0.2883464912 0.2264018118 0.1563165157 0.1094078912 0.2586511415 0.1949494833 0.1389548879 0.0538079782 0.1474845516 0.0820310006 0.0313537460 0.0423666101 -0.0072923702 -0.0304440806 -0.0189239502 0.0152366649 0.0122371332 0.0174415256 0.0061892050 -0.0105596930 0.0074197596]
Time: 01m02s