**** Best Individual - #gen:100 ****
ChromeSize: 55	Kernels: 31	Fitness: 0.8725991651
Chromosome: [1 1 1 1 1 1 1 1 1 1 1 1 1 1 1 1 1 1 0 1 1 1 0 0 1 0 0 0 0 0 1 1 0 1 0 0 0 0 1 1 0 0 0 1 0 0 0 0 0 1 1 0 1 0 0]
Kernels: [0 1 2 3 4 5 6 7 8 9 10 11 12 13 14 15 16 17 19 20 21 24 30 31 33 38 39 43 49 50 52]
W: [0.3788211821 0.2008308339 0.0912058314 0.0182152163 -0.1542225660 0.3479206554 0.2814791531 0.2284466453 0.1771310843 0.1038671588 0.2493757364 0.2056693759 0.1424990719 0.0803297507 0.1470440795 0.1090973774 0.0243814668 0.0347725719 -0.0112560890 -0.0052794344 0.0210050663 -0.0047166502 0.0143176706 0.0114533268 -0.0158728142 -0.0005736283 0.0078675296 -0.0162348314 -0.0097540908 0.0177794355 0.0064116177]
Time: 01m13s