**** Best Individual - #gen:100 ****
ChromeSize: 55	Kernels: 25	Fitness: 0.8739494950
Chromosome: [1 1 1 0 1 1 1 1 1 1 1 1 1 1 1 1 1 1 1 1 0 0 0 1 1 0 0 0 1 0 0 0 1 0 0 0 0 0 0 1 0 0 0 0 0 0 0 0 0 0 0 0 0 0 1]
Kernels: [0 1 2 4 5 6 7 8 9 10 11 12 13 14 15 16 17 18 19 23 24 28 32 39 54]
W: [0.3418061141 0.2658561101 0.1283103429 -0.1387085816 0.3498915062 0.2645343514 0.2068486990 0.1881483074 0.0788092088 0.2348215421 0.1881583717 0.1153521181 0.0535070915 0.1366423622 0.1024033541 0.0250023018 0.0635857008 -0.0124212723 -0.0277994681 0.0094469352 -0.0196754094 -0.0201125728 0.0075030402 -0.0095835222 0.0122808409]
Time: 00m58s