**** Best Individual - #gen:100 ****
ChromeSize: 55	Kernels: 25	Fitness: 0.8399664287
Chromosome: [1 1 1 0 1 1 1 1 1 1 1 1 1 1 1 1 1 1 0 1 1 0 0 0 1 0 0 0 1 1 0 0 0 0 0 0 0 0 0 0 1 0 0 0 0 0 0 0 1 0 1 0 0 0 0]
Kernels: [0 1 2 4 5 6 7 8 9 10 11 12 13 14 15 16 17 19 20 24 28 29 40 48 50]
W: [0.3828982725 0.2488490485 0.1080022449 -0.1129998535 0.3563828127 0.3028962431 0.2272823526 0.1556407967 0.0755827863 0.2455949639 0.1889642121 0.1346300745 0.0549872893 0.1438655449 0.1057039895 0.0243516205 0.0368666810 -0.0225878982 -0.0052838892 -0.0123256151 0.0301272857 0.0009069189 0.0102774814 0.0016396531 0.0246588047]
Time: 00m57s