**** Best Individual - #gen:100 ****
ChromeSize: 55	Kernels: 28	Fitness: 0.8590539304
Chromosome: [1 1 1 0 1 1 1 1 1 1 1 1 1 1 1 1 1 1 0 1 1 0 0 0 1 0 1 0 0 0 0 0 1 0 0 0 0 0 1 0 0 1 0 0 1 1 0 0 1 0 0 1 0 0 0]
Kernels: [0 1 2 4 5 6 7 8 9 10 11 12 13 14 15 16 17 19 20 24 26 32 38 41 44 45 48 51]
W: [0.3938378836 0.2573462020 0.0547855549 -0.0950117957 0.3257289307 0.2952425947 0.2319543395 0.1563376158 0.1193829919 0.2317279277 0.1674746669 0.1317125197 0.0538355348 0.1362524067 0.1093061433 0.0689292846 0.0690027818 0.0046250138 -0.0088800712 -0.0222611842 0.0532978280 -0.0104689250 -0.0077586076 0.0327425467 -0.0148789736 0.0150292933 0.0325196098 0.0027563393]
Time: 00m33s