**** Best Individual - #gen:100 ****
ChromeSize: 55	Kernels: 27	Fitness: 0.9000388268
Chromosome: [1 1 1 0 1 1 1 1 1 1 1 1 1 1 1 1 1 1 1 1 0 1 0 0 0 0 1 0 0 0 0 0 0 0 0 0 1 0 0 0 0 0 0 0 1 0 0 0 1 1 0 1 0 1 0]
Kernels: [0 1 2 4 5 6 7 8 9 10 11 12 13 14 15 16 17 18 19 21 26 36 44 48 49 51 53]
W: [0.3476988884 0.2800515507 0.1187488118 -0.1037909711 0.3501817804 0.3038883765 0.1827833621 0.1643442722 0.1096749665 0.2426921270 0.1684505481 0.1416572895 0.0534811884 0.1266315873 0.1052007197 0.0449741660 0.0470918972 0.0261964170 -0.0124527613 -0.0159706451 0.0222503025 0.0061031224 -0.0217266319 0.0116163069 -0.0173158130 0.0063052735 -0.0069887167]
Time: 00m30s