**** Best Individual - #gen:100 ****
ChromeSize: 55	Kernels: 27	Fitness: 0.9839998773
Chromosome: [1 1 1 0 1 1 1 1 1 1 1 1 1 1 1 1 1 1 1 1 1 0 1 0 0 0 0 0 1 0 0 0 0 1 0 0 0 1 0 0 0 0 0 1 0 0 0 0 1 0 0 0 0 0 1]
Kernels: [0 1 2 4 5 6 7 8 9 10 11 12 13 14 15 16 17 18 19 20 22 28 33 37 43 48 54]
W: [0.3635544320 0.2377166204 0.1170917900 -0.1253772997 0.3548196122 0.2967154230 0.2312463213 0.1699579293 0.1016066502 0.2470656343 0.1905855623 0.1256573816 0.0735281571 0.1452075773 0.0977511786 0.0340905824 0.0521323361 0.0120211992 -0.0194284942 -0.0047194270 -0.0054925417 0.0017735983 -0.0087762893 -0.0028060457 0.0063414450 0.0089453131 0.0015200858]
Time: 00m32s