**** Best Individual - #gen:100 ****
ChromeSize: 55	Kernels: 15	Fitness: 0.5566282034
Chromosome: [1 0 0 0 0 0 1 1 0 0 1 1 0 1 0 1 0 0 0 0 0 0 0 1 0 0 0 0 0 1 1 0 1 0 0 0 0 0 0 0 1 0 0 0 0 1 1 0 0 1 0 0 0 0 0]
Kernels: [0 6 7 10 11 13 15 23 29 30 32 40 45 46 49]
W: [0.6848966174 0.0047957838 0.0330572753 1.1935015542 0.8158822785 -0.0183668304 -0.0562938160 0.0289736757 -0.0231691089 -0.0393209710 -0.0217758102 0.0215583163 -0.0050709420 -0.0252214382 0.0262341824]
Time: 00m45s