**** Best Individual - #gen:100 ****
ChromeSize: 55	Kernels: 13	Fitness: 0.6352946072
Chromosome: [1 0 0 0 0 0 0 0 0 1 1 1 0 1 1 0 1 1 1 0 0 0 0 0 0 0 1 1 0 1 0 0 0 0 0 0 0 0 0 1 0 0 0 0 0 0 0 0 0 0 0 0 0 0 0]
Kernels: [0 9 10 11 13 14 16 17 18 26 27 29 39]
W: [0.6078915303 0.0350834437 1.1909507235 0.7945699507 -0.0311821963 -0.0176042495 0.0263701262 0.0364679052 0.0359633454 0.0285354074 -0.0339936117 -0.0205356240 0.0236454447]
Time: 00m43s