**** Best Individual - #gen:100 ****
ChromeSize: 55	Kernels: 11	Fitness: 0.9460909295
Chromosome: [1 0 0 0 0 1 1 0 0 0 1 1 0 0 1 0 0 0 0 0 0 0 1 0 0 0 0 0 1 0 0 0 0 0 0 0 0 1 0 0 0 1 0 0 0 0 0 0 1 0 0 0 0 0 0]
Kernels: [0 5 6 10 11 14 22 28 37 41 48]
W: [0.5917830559 0.0048686380 -0.0151597469 1.1961756137 0.7925822521 -0.0008732603 0.0029451134 0.0154801264 -0.0068624056 0.0235398731 0.0074809975]
Time: 00m38s