**** Best Individual - #gen:100 ****
ChromeSize: 55	Kernels: 15	Fitness: 0.9898896902
Chromosome: [0 0 1 0 1 1 0 0 0 1 0 0 1 0 1 0 0 0 1 0 0 0 1 0 0 1 0 0 0 0 1 0 0 0 0 1 0 0 0 0 0 0 0 0 1 0 0 0 0 1 0 0 1 0 1]
Kernels: [2 4 5 9 12 14 18 22 25 30 35 44 49 52 54]
W: [1.0025936783 0.0083070748 -0.0011561976 0.0031573102 -0.0036205177 0.0805658085 0.0014781594 -0.0015545527 -0.0010383781 -0.0021987764 -0.0404384791 0.0009911736 0.0027108563 -0.0018624064 -0.0024194023]
Time: 02m43s