**** Best Individual - #gen:100 ****
ChromeSize: 55	Kernels: 11	Fitness: 0.9057040066
Chromosome: [0 1 1 0 0 0 0 1 0 1 0 0 0 0 1 0 0 1 0 0 0 0 0 0 0 0 0 0 1 0 0 0 0 0 0 1 1 0 0 0 0 0 0 0 1 0 0 1 0 0 0 0 0 0 0]
Kernels: [1 2 7 9 14 17 28 35 36 44 47]
W: [-0.0194197959 0.9976640482 0.0083912757 -0.0101395164 0.0843345130 -0.0044123309 0.0084302020 -0.0356509587 -0.0044790513 0.0034593441 0.0054829472]
Time: 02m28s