**** Best Individual - #gen:10 ****
ChromeSize: 55	Kernels: 15	Fitness: 0.9018223725
Chromosome: [0 1 1 0 1 1 0 1 0 0 0 0 0 0 1 0 1 1 0 0 0 0 0 0 0 1 0 0 0 0 0 0 1 0 0 1 0 0 0 0 0 0 1 0 1 1 0 0 0 0 0 0 1 0 0]
Kernels: [1 2 4 5 7 14 16 17 25 32 35 42 44 45 52]
W: [0.0411536842 1.0032534257 -0.0165953727 0.0026921691 0.0146231261 0.0695751164 -0.0078081199 -0.0006082644 0.0026789036 0.0043746951 -0.0481682010 0.0026051892 -0.0111359104 0.0020491946 0.0127979019]
Time: 00m01s


**** Best Individual - #gen:20 ****
ChromeSize: 55	Kernels: 15	Fitness: 0.9025141448
Chromosome: [0 1 1 1 0 0 0 0 1 0 0 0 0 0 1 0 0 0 0 0 0 0 0 1 0 0 1 0 0 0 0 0 1 0 1 1 0 1 0 1 0 1 0 0 0 1 0 0 0 0 0 0 0 1 0]
Kernels: [1 2 3 8 14 23 26 32 34 35 37 39 41 45 53]
W: [0.0214176376 1.0072778467 0.0451037192 -0.0242608159 0.0801620597 -0.0182979360 0.0079019392 0.0031855432 0.0006465070 -0.0457829978 -0.0049453235 0.0024049521 -0.0192648080 -0.0025237760 0.0044657080]
Time: 00m04s


**** Best Individual - #gen:30 ****
ChromeSize: 55	Kernels: 15	Fitness: 0.9027317415
Chromosome: [0 0 1 0 1 0 0 0 0 0 1 0 1 0 1 0 0 0 0 0 0 0 0 0 0 1 1 0 0 0 0 0 1 0 0 1 0 0 0 0 1 0 1 0 0 0 0 0 0 0 0 1 1 1 1]
Kernels: [2 4 10 12 14 25 26 32 35 40 42 51 52 53 54]
W: [0.9873005324 -0.0000190256 -0.0138307821 0.0077104982 0.0812750897 -0.0079623431 0.0096526032 -0.0153632976 -0.0446149752 0.0036849391 0.0085650745 0.0009567677 -0.0112464699 -0.0063013218 0.0051529121]
Time: 00m05s


**** Best Individual - #gen:40 ****
ChromeSize: 55	Kernels: 15	Fitness: 0.9029975865
Chromosome: [0 1 1 1 0 0 0 0 0 0 1 0 0 1 1 0 0 0 0 0 0 1 0 0 0 1 1 0 0 0 0 0 1 0 0 1 0 1 0 0 1 0 0 0 0 0 0 1 0 0 0 0 0 0 1]
Kernels: [1 2 3 10 13 14 21 25 26 32 35 37 40 47 54]
W: [-0.0032981033 0.9950743905 0.0223068846 0.0088797813 0.0117870539 0.0753105974 0.0093098535 0.0091260504 -0.0024779559 0.0062780558 -0.0467893123 -0.0075728431 -0.0402963994 0.0019117664 -0.0038839430]
Time: 00m07s


**** Best Individual - #gen:50 ****
ChromeSize: 55	Kernels: 15	Fitness: 0.9022715325
Chromosome: [0 0 1 0 0 0 0 0 0 0 0 1 0 0 1 0 1 1 0 0 0 0 0 1 0 0 0 0 1 0 1 0 1 0 1 1 0 0 0 0 1 1 1 0 0 0 0 0 1 0 0 0 0 0 0]
Kernels: [2 11 14 16 17 23 28 30 32 34 35 40 41 42 48]
W: [1.0122755385 -0.0165015411 0.0785062164 0.0111899091 0.0097459845 0.0091341804 -0.0215430259 0.0032792119 0.0008960149 0.0083934137 -0.0386138282 -0.0111246153 0.0071080965 0.0085734998 -0.0142113353]
Time: 00m09s


**** Best Individual - #gen:60 ****
ChromeSize: 55	Kernels: 14	Fitness: 0.9024331587
Chromosome: [0 0 1 1 0 0 0 1 0 0 1 0 0 0 1 1 0 0 0 0 1 0 1 0 1 1 0 0 0 0 0 1 0 0 0 1 0 0 0 0 0 0 1 0 0 0 0 0 1 0 0 0 0 0 0]
Kernels: [2 3 7 10 14 15 20 22 24 25 31 35 42 48]
W: [1.0119469688 0.0050087568 -0.0137419223 -0.0052056332 0.0790897321 0.0151504630 -0.0016941505 0.0129550211 0.0013894000 -0.0130788780 -0.0122413252 -0.0407692478 0.0077426023 -0.0123035839]
Time: 00m11s


**** Best Individual - #gen:70 ****
ChromeSize: 55	Kernels: 15	Fitness: 0.9030341234
Chromosome: [0 0 1 0 0 0 1 0 1 0 0 0 0 0 1 1 1 0 0 0 0 0 1 1 0 1 1 0 0 0 0 0 0 0 0 1 0 0 1 1 1 0 0 0 0 0 0 0 0 0 0 0 1 0 0]
Kernels: [2 6 8 14 15 16 22 23 25 26 35 38 39 40 52]
W: [0.9935044559 0.0168055183 0.0222844224 0.0928839359 0.0083048110 0.0204867564 -0.0059431450 -0.0033401726 -0.0101787005 0.0015929527 -0.0420604562 -0.0090457016 0.0080494993 -0.0231637695 -0.0119395886]
Time: 00m13s


**** Best Individual - #gen:80 ****
ChromeSize: 55	Kernels: 15	Fitness: 0.9034076111
Chromosome: [0 0 1 0 0 0 0 0 1 0 0 1 0 0 1 0 1 0 0 0 0 1 1 1 0 0 0 0 0 0 0 0 0 0 0 1 1 0 0 0 1 0 1 0 0 0 1 0 1 0 1 0 0 0 0]
Kernels: [2 8 11 14 16 21 22 23 35 36 40 42 46 48 50]
W: [1.0059273057 -0.0249821280 -0.0158124284 0.0770851848 -0.0004202502 0.0155124674 0.0102177345 0.0087989756 -0.0457897633 0.0001541437 -0.0320215832 0.0181765387 -0.0085694789 -0.0032203607 -0.0065994173]
Time: 00m14s


**** Best Individual - #gen:90 ****
ChromeSize: 55	Kernels: 15	Fitness: 0.9033850378
Chromosome: [0 1 1 0 0 0 1 1 0 0 1 0 0 0 1 0 0 0 0 0 0 0 1 0 0 0 0 0 0 1 0 0 0 1 1 1 0 0 1 0 0 0 1 0 1 0 0 0 0 1 0 0 0 0 0]
Kernels: [1 2 6 7 10 14 22 29 33 34 35 38 42 44 49]
W: [0.0393547536 0.9609271310 -0.0194246246 -0.0111984307 -0.0013749975 0.0736298958 0.0219223977 0.0097699239 -0.0172773477 -0.0108659590 -0.0470728856 0.0086759025 -0.0117700926 -0.0008936395 0.0228409092]
Time: 00m19s


**** Best Individual - #gen:100 ****
ChromeSize: 55	Kernels: 14	Fitness: 0.9021665815
Chromosome: [1 0 1 0 0 1 0 1 0 0 0 0 0 0 1 0 0 0 1 0 0 1 0 0 0 0 0 1 0 0 0 0 0 0 1 1 1 1 0 1 0 0 0 0 0 0 0 0 0 1 0 0 0 0 0]
Kernels: [0 2 5 7 14 18 21 27 34 35 36 37 39 49]
W: [0.0059077708 1.0188927300 -0.0012515488 -0.0158032942 0.0820548380 0.0151488636 -0.0084428347 0.0157552683 -0.0132944760 -0.0365982657 -0.0177380809 -0.0050673081 -0.0075305544 -0.0155930018]
Time: 00m22s