**** Best Individual - #gen:100 ****
ChromeSize: 55	Kernels: 10	Fitness: 0.9073056624
Chromosome: [0 0 1 0 0 0 0 0 0 0 0 0 0 0 1 0 0 1 1 1 0 0 0 0 1 0 0 0 1 0 0 0 0 0 0 1 0 0 1 0 0 0 0 0 0 0 1 0 0 0 0 0 0 0 0]
Kernels: [2 14 17 18 19 24 28 35 38 46]
W: [0.9979623868 0.0764959235 -0.0095082542 -0.0159874201 0.0126558471 0.0063123717 -0.0207482628 -0.0359894651 -0.0057011333 -0.0142567281]
Time: 00m48s