**** Best Individual - #gen:100 ****
ChromeSize: 55	Kernels: 14	Fitness: 0.9034522496
Chromosome: [0 0 1 0 1 1 0 0 0 0 0 0 1 0 1 1 0 0 1 0 1 0 0 0 0 0 0 1 0 0 0 0 0 1 0 1 0 1 1 0 0 0 0 0 0 0 0 0 0 0 0 0 0 0 1]
Kernels: [2 4 5 12 14 15 18 20 27 33 35 37 38 54]
W: [1.0050850195 0.0036078130 -0.0087627595 -0.0094352783 0.0835265059 0.0082342068 -0.0095227863 0.0023672012 -0.0082303914 0.0145716388 -0.0438341061 0.0052385401 0.0097820066 0.0015003129]
Time: 00m51s