**** Best Individual - #gen:100 ****
ChromeSize: 55	Kernels: 12	Fitness: 0.9115893913
Chromosome: [0 0 1 0 1 1 0 0 0 0 1 0 0 0 1 0 0 0 0 1 0 0 0 0 0 0 1 0 0 0 1 0 0 0 0 1 0 0 0 0 0 0 0 0 0 1 0 1 0 1 0 0 0 0 0]
Kernels: [2 4 5 10 14 19 26 30 35 45 47 49]
W: [1.0562618542 -0.0078911402 0.0152496414 -0.0189303031 0.0782409000 0.0123199985 -0.0204124604 -0.0042143306 -0.0447150581 -0.0094963423 -0.0127659887 -0.0434273746]
Time: 00m21s