**** Best Individual - #gen:100 ****
ChromeSize: 55	Kernels: 13	Fitness: 0.9901413910
Chromosome: [0 0 1 0 0 0 0 0 0 1 0 1 1 1 1 0 0 0 0 0 1 0 0 0 0 0 0 0 0 0 1 0 0 1 0 1 0 1 0 1 0 0 0 0 0 0 1 0 0 0 0 0 0 0 0]
Kernels: [2 9 11 12 13 14 20 30 33 35 37 39 46]
W: [0.9955611768 0.0055876103 -0.0055456174 -0.0031451634 -0.0031931791 0.0805172386 -0.0002717220 0.0046956080 0.0039571003 -0.0398964247 -0.0010379477 0.0030353014 0.0023996775]
Time: 00m48s