**** Best Individual - #gen:100 ****
ChromeSize: 55	Kernels: 12	Fitness: 0.9901514737
Chromosome: [0 0 1 0 0 0 0 0 0 0 0 1 1 1 1 1 0 1 0 1 0 0 0 0 0 0 0 0 0 0 0 0 0 0 0 1 0 0 0 0 1 1 0 0 0 0 0 0 0 1 0 0 0 0 0]
Kernels: [2 11 12 13 14 15 17 19 35 40 41 49]
W: [1.0000511599 -0.0037725599 -0.0041934075 0.0039521185 0.0826045302 0.0032352495 -0.0030492090 0.0035339825 -0.0401784821 -0.0015580627 0.0033412980 0.0052331207]
Time: 00m48s