**** Best Individual - #gen:100 ****
ChromeSize: 55	Kernels: 10	Fitness: 0.9903350242
Chromosome: [0 0 1 0 1 0 0 0 1 0 0 0 0 0 1 0 0 0 0 0 0 0 0 0 0 0 1 0 0 1 0 0 0 1 0 1 0 1 0 0 0 0 0 0 0 0 1 0 0 0 0 0 0 0 0]
Kernels: [2 4 8 14 26 29 33 35 37 46]
W: [0.9980772883 -0.0079870057 0.0040170831 0.0800946126 -0.0025967213 -0.0039627928 0.0065320363 -0.0397457672 -0.0042649413 -0.0014718572]
Time: 00m46s