**** Best Individual - #gen:100 ****
ChromeSize: 55	Kernels: 13	Fitness: 0.9035220097
Chromosome: [0 1 1 0 0 0 0 0 0 0 0 0 0 0 1 1 0 0 1 0 0 0 0 0 0 0 0 1 0 0 0 0 0 0 0 1 0 0 1 0 0 0 0 1 0 0 1 0 1 0 1 0 0 1 0]
Kernels: [1 2 14 15 18 27 35 38 43 46 48 50 53]
W: [-0.0195049410 1.0287662303 0.0751874412 -0.0159470056 -0.0178684985 0.0166715723 -0.0351222482 -0.0022044089 0.0160130543 0.0053083108 -0.0104659342 -0.0147118251 0.0062842114]
Time: 00m47s