**** Best Individual - #gen:100 ****
ChromeSize: 55	Kernels: 15	Fitness: 0.9006894552
Chromosome: [1 0 1 0 0 1 0 1 1 0 1 0 1 0 1 0 0 1 0 0 0 1 0 0 0 0 0 0 0 1 0 1 1 0 0 1 1 0 0 0 0 0 0 0 0 0 0 0 0 0 0 0 0 0 0]
Kernels: [0 2 5 7 8 10 12 14 17 21 29 31 32 35 36]
W: [-0.0414225748 0.9955627191 -0.0158624105 0.0088310005 -0.0184958378 -0.0046890358 0.0067505909 0.0854677793 0.0112100750 0.0114667704 0.0098637233 0.0124473991 0.0136410484 -0.0383498479 0.0080201001]
Time: 00m51s