**** Best Individual - #gen:100 ****
ChromeSize: 55	Kernels: 25	Fitness: 0.9885472595
Chromosome: [1 1 1 0 1 1 1 1 1 1 1 1 1 1 1 1 1 1 1 1 1 0 0 1 0 1 0 0 0 1 0 0 0 0 0 1 0 0 0 0 0 0 0 0 0 0 1 0 0 0 0 0 0 0 0]
Kernels: [0 1 2 4 5 6 7 8 9 10 11 12 13 14 15 16 17 18 19 20 23 25 29 35 46]
W: [0.3458184017 0.2318947538 0.1179773505 -0.1250471754 0.3418302730 0.2846119064 0.2253309731 0.1530551131 0.0978544640 0.2469993908 0.1889725054 0.1275187278 0.0608463822 0.1449782856 0.0880587979 0.0376320908 0.0496660762 0.0095113292 -0.0264545607 -0.0007181082 -0.0051630471 -0.0007857289 0.0088374011 0.0034416077 0.0058065116]
Time: 00m30s