**** Best Individual - #gen:100 ****
ChromeSize: 55	Kernels: 27	Fitness: 0.9850181441
Chromosome: [1 1 1 0 1 1 1 1 1 1 1 1 1 1 1 1 1 1 0 1 0 0 1 0 0 0 0 0 0 1 0 1 0 0 1 0 0 1 0 0 0 1 0 0 0 1 1 0 0 0 0 0 0 1 0]
Kernels: [0 1 2 4 5 6 7 8 9 10 11 12 13 14 15 16 17 19 22 29 31 34 37 41 45 46 53]
W: [0.3554702434 0.2409881371 0.1432237343 -0.1185962651 0.3493985118 0.2927300623 0.2268850868 0.1614303088 0.0957199501 0.2401254892 0.1982686230 0.1222747974 0.0774702119 0.1372040211 0.0886437951 0.0448664406 0.0458332408 -0.0178446608 -0.0048383339 0.0049303790 -0.0094857548 -0.0066188996 0.0036085837 -0.0024997687 -0.0051679099 -0.0050749219 -0.0006926273]
Time: 00m32s