**** Best Individual - #gen:100 ****
ChromeSize: 55	Kernels: 28	Fitness: 0.8800098252
Chromosome: [1 1 1 1 1 1 1 1 1 1 1 1 1 1 1 1 0 1 0 0 0 1 0 0 0 0 1 0 0 0 0 0 1 0 1 0 0 1 0 0 0 0 0 1 1 0 1 0 0 0 0 1 0 1 1]
Kernels: [0 1 2 3 4 5 6 7 8 9 10 11 12 13 14 15 17 21 26 32 34 37 43 44 46 51 53 54]
W: [0.3528948011 0.1613584216 0.1305244968 -0.0902253166 -0.1337505101 0.3222667581 0.3015173470 0.2497573627 0.1638226202 0.0932121419 0.2379553109 0.1633020762 0.1185834140 0.0389822798 0.1407493769 0.1042759954 0.0444692574 0.0284264567 -0.0439091484 0.0073259554 -0.0095560910 0.0132958045 0.0224518426 0.0046823036 -0.0244536136 0.0232863107 0.0269701824 -0.0028109507]
Time: 00m34s