**** Best Individual - #gen:100 ****
ChromeSize: 55	Kernels: 12	Fitness: 0.9152131840
Chromosome: [0 0 1 0 0 0 1 0 1 0 0 1 0 0 1 1 0 0 1 1 0 0 0 0 0 0 0 0 0 0 1 0 1 0 1 1 0 0 0 0 0 0 0 0 0 0 0 0 0 0 0 0 0 0 0]
Kernels: [2 6 8 11 14 15 18 19 30 32 34 35]
W: [0.9599518437 0.0262245222 -0.0283306010 -0.0285353843 0.0913410272 -0.0253782000 0.0180120832 -0.0173797833 -0.0338511201 0.0328337490 -0.0155344114 -0.0403476777]
Time: 00m20s