**** Best Individual - #gen:100 ****
ChromeSize: 55	Kernels: 15	Fitness: 0.9035513513
Chromosome: [0 0 1 0 0 0 0 0 0 0 1 1 1 0 1 0 0 1 0 0 0 0 0 1 0 0 1 0 0 0 1 0 0 1 0 1 0 0 0 1 0 0 1 0 1 0 0 0 0 0 1 0 0 0 0]
Kernels: [2 10 11 12 14 17 23 26 30 33 35 39 42 44 50]
W: [0.9949315257 0.0059045413 0.0122215541 -0.0147721365 0.0735037527 -0.0063443647 -0.0074528923 -0.0218061614 0.0102863047 0.0136749576 -0.0394412087 0.0064929091 -0.0088610013 -0.0023018142 0.0088103862]
Time: 01m05s