**** Best Individual - #gen:100 ****
ChromeSize: 55	Kernels: 13	Fitness: 0.9035590094
Chromosome: [0 0 1 0 0 0 0 0 0 0 0 0 1 1 1 0 0 0 0 0 0 1 0 0 0 0 0 0 0 0 0 0 0 0 0 1 1 1 0 1 0 0 0 1 0 0 0 0 0 1 1 0 0 1 0]
Kernels: [2 12 13 14 21 35 36 37 39 43 49 50 53]
W: [0.9904442887 0.0027272146 -0.0115144164 0.0838265354 -0.0074322938 -0.0372031977 -0.0102035756 0.0111990653 -0.0148792028 -0.0133121407 -0.0161978263 0.0067313619 -0.0115537721]
Time: 01m04s