**** Best Individual - #gen:100 ****
ChromeSize: 55	Kernels: 14	Fitness: 0.8991819250
Chromosome: [0 0 1 0 0 0 0 0 0 1 0 1 1 1 1 0 0 0 0 0 0 0 0 0 0 0 0 0 1 0 0 1 0 0 0 1 0 0 0 1 0 0 1 1 0 0 0 0 0 1 1 0 0 0 0]
Kernels: [2 9 11 12 13 14 28 31 35 39 42 43 49 50]
W: [0.9990111840 0.0157790607 -0.0136010147 -0.0147846245 0.0140481021 0.0803614525 0.0136250046 -0.0066755388 -0.0434862961 0.0099460618 0.0071843189 -0.0095035117 -0.0121733099 0.0104356177]
Time: 01m04s