**** Best Individual - #gen:100 ****
ChromeSize: 55	Kernels: 10	Fitness: 0.6498463481
Chromosome: [1 0 0 0 0 0 0 0 0 0 1 1 0 0 0 0 0 0 0 0 0 0 1 0 0 0 0 0 0 0 0 1 0 1 0 0 0 0 0 0 0 0 1 0 0 0 0 1 0 1 0 0 1 0 0]
Kernels: [0 10 11 22 31 33 42 47 49 52]
W: [0.5753871185 1.1980569472 0.7972850326 0.0202566673 0.0510868468 -0.0501552998 0.0410147290 -0.0490533685 -0.0169873993 -0.0264242247]
Time: 00m25s