**** Best Individual - #gen:100 ****
ChromeSize: 55	Kernels: 8	Fitness: 0.6061740255
Chromosome: [1 0 0 0 0 0 1 0 1 0 1 1 0 0 0 0 0 0 0 0 0 0 0 0 1 0 0 0 0 0 0 0 0 0 0 0 0 0 0 1 0 0 1 0 0 0 0 0 0 0 0 0 0 0 0]
Kernels: [0 6 8 10 11 24 39 42]
W: [0.5894761491 0.0448462299 -0.0603680412 1.2181652086 0.8246884990 0.0221816523 -0.0384561351 0.0150553353]
Time: 00m28s