**** Best Individual - #gen:100 ****
ChromeSize: 55	Kernels: 15	Fitness: 0.6085142151
Chromosome: [1 0 1 1 0 0 1 1 0 0 1 1 0 0 0 0 0 0 0 0 0 0 0 0 0 0 0 0 1 0 0 0 0 0 0 0 0 0 1 0 0 0 1 1 0 1 1 0 1 0 0 0 0 1 0]
Kernels: [0 2 3 6 7 10 11 28 38 42 43 45 46 48 53]
W: [0.6377628586 -0.0019284660 0.0560001907 -0.0258685058 -0.0499151112 1.2072628555 0.7995825902 0.0338609600 0.0175294138 0.0180893664 -0.0387043656 -0.0087817377 0.0191800427 0.0333497438 -0.0336217030]
Time: 00m29s