**** Best Individual - #gen:10 ****
ChromeSize: 55	Kernels: 8	Fitness: 0.5956670339
Chromosome: [1 0 0 1 0 0 0 0 0 0 1 1 0 0 0 0 0 0 0 0 0 0 0 0 0 0 1 0 0 0 1 0 0 0 0 0 0 1 0 0 0 0 0 1 0 0 0 0 0 0 0 0 0 0 0]
Kernels: [0 3 10 11 26 30 37 43]
W: [0.5992326116 -0.0338616641 1.2157406886 0.8532462854 0.0139898633 0.0063308118 0.0241534291 0.0557478513]
Time: 00m00s


**** Best Individual - #gen:20 ****
ChromeSize: 55	Kernels: 10	Fitness: 0.5989514927
Chromosome: [1 0 0 0 0 1 0 1 0 0 1 1 0 0 0 0 0 1 0 0 0 0 1 0 0 0 0 0 0 0 0 0 0 1 0 1 0 0 0 0 0 0 0 0 0 0 0 0 0 0 1 0 0 0 0]
Kernels: [0 5 7 10 11 17 22 33 35 50]
W: [0.5744232949 -0.0286206600 -0.0347992676 1.2208797091 0.8069893497 0.0482210795 0.0339089888 -0.0332248181 -0.0041306301 -0.0014799730]
Time: 00m00s


**** Best Individual - #gen:30 ****
ChromeSize: 55	Kernels: 10	Fitness: 0.5961864789
Chromosome: [1 1 0 0 1 0 0 0 0 1 1 1 0 0 0 0 0 0 0 1 1 0 0 0 0 0 0 0 0 0 0 0 0 1 0 0 0 0 0 0 0 0 0 0 0 1 0 0 0 0 0 0 0 0 0]
Kernels: [0 1 4 9 10 11 19 20 33 45]
W: [0.5929211928 0.0515951776 0.0592694008 -0.0295677419 1.1700617071 0.7950983196 0.0071338881 0.0037289700 -0.0138586247 -0.0057658220]
Time: 00m00s


**** Best Individual - #gen:40 ****
ChromeSize: 55	Kernels: 10	Fitness: 0.5976664250
Chromosome: [1 1 1 0 0 0 0 0 0 0 1 1 0 0 0 0 0 0 0 0 0 0 0 1 0 0 0 0 0 0 1 0 0 0 1 0 0 0 0 0 0 1 0 0 0 0 0 0 0 0 0 0 1 0 0]
Kernels: [0 1 2 10 11 23 30 34 41 52]
W: [0.6079873055 -0.0423215290 0.0147807467 1.1984556479 0.7933891288 0.0008047448 -0.0644418291 -0.0337751594 -0.0482271884 0.0131239918]
Time: 00m00s


**** Best Individual - #gen:50 ****
ChromeSize: 55	Kernels: 10	Fitness: 0.5978976015
Chromosome: [1 0 0 0 0 0 0 0 0 1 1 1 0 1 0 1 0 0 0 0 1 0 0 1 0 0 0 0 0 0 0 0 0 0 0 1 0 0 0 0 0 0 1 0 0 0 0 0 0 0 0 0 0 0 0]
Kernels: [0 9 10 11 13 15 20 23 35 42]
W: [0.6226444093 0.0528210901 1.2162862182 0.7970800075 -0.0162455667 -0.0190008683 -0.0108806537 0.0452654238 -0.0039236209 0.0203085184]
Time: 00m00s


**** Best Individual - #gen:60 ****
ChromeSize: 55	Kernels: 10	Fitness: 0.5968782640
Chromosome: [1 0 0 0 0 0 0 0 0 1 1 1 0 0 1 0 0 0 0 0 1 0 0 0 0 0 0 1 0 1 1 0 0 0 0 0 0 0 0 0 0 0 0 0 0 0 1 0 0 0 0 0 0 0 0]
Kernels: [0 9 10 11 14 20 27 29 30 46]
W: [0.5458217395 0.0077621916 1.2189844407 0.8074242643 -0.0162002461 0.0134464805 0.0662054505 0.0232828450 0.0512665645 -0.0112511938]
Time: 00m00s


**** Best Individual - #gen:70 ****
ChromeSize: 55	Kernels: 9	Fitness: 0.5972676129
Chromosome: [1 0 0 0 0 0 0 0 0 1 1 1 0 0 0 0 1 1 0 0 0 0 0 1 1 0 0 0 0 0 0 0 0 0 0 0 0 1 0 0 0 0 0 0 0 0 0 0 0 0 0 0 0 0 0]
Kernels: [0 9 10 11 16 17 23 24 37]
W: [0.6359661805 0.0262871536 1.1962943583 0.8165296251 -0.0402216608 0.0323258526 -0.0082648266 -0.0319079877 0.0245586728]
Time: 00m00s


**** Best Individual - #gen:80 ****
ChromeSize: 55	Kernels: 10	Fitness: 0.5978442122
Chromosome: [1 0 1 0 0 0 0 0 0 0 1 1 0 0 0 0 0 0 0 0 0 0 0 0 0 0 0 0 1 1 0 0 1 0 0 0 1 0 0 0 0 0 0 0 0 0 0 1 0 0 0 0 0 0 1]
Kernels: [0 2 10 11 28 29 32 36 47 54]
W: [0.5757136149 0.0764083175 1.2092363251 0.8294346350 0.0147839154 -0.0145024314 0.0325984090 -0.0374333341 -0.0273802165 0.0205396238]
Time: 00m00s


**** Best Individual - #gen:90 ****
ChromeSize: 55	Kernels: 10	Fitness: 0.6011573739
Chromosome: [1 0 0 0 0 0 1 0 0 1 1 1 0 0 0 0 0 0 0 0 0 1 0 0 0 0 0 0 1 0 0 0 0 0 1 0 0 0 0 0 0 1 0 1 0 0 0 0 0 0 0 0 0 0 0]
Kernels: [0 6 9 10 11 21 28 34 41 43]
W: [0.6612626418 0.0806658132 0.0106208636 1.1845123962 0.7966000763 -0.0296520584 0.0498923685 -0.0360291083 0.0188552623 -0.0523909276]
Time: 00m00s


**** Best Individual - #gen:100 ****
ChromeSize: 55	Kernels: 10	Fitness: 0.5964574357
Chromosome: [1 0 0 0 1 0 0 0 0 0 1 1 0 0 0 0 0 0 0 0 0 0 1 0 0 0 1 0 0 1 1 0 0 0 0 0 0 0 0 0 0 1 1 0 0 0 0 0 0 0 0 0 0 0 0]
Kernels: [0 4 10 11 22 26 29 30 41 42]
W: [0.6044223302 -0.0384760229 1.2141375092 0.7877564965 -0.0253184575 -0.0420780489 -0.0149403794 0.0265180590 0.0490479274 -0.0185122530]
Time: 00m00s