**** Best Individual - #gen:100 ****
ChromeSize: 55	Kernels: 15	Fitness: 0.9023481088
Chromosome: [0 0 1 0 0 0 0 0 1 0 0 0 0 0 1 0 0 0 0 1 0 0 0 1 1 0 0 0 0 1 0 0 0 0 1 1 0 0 0 0 1 0 0 1 0 0 0 1 1 0 1 1 0 0 0]
Kernels: [2 8 14 19 23 24 29 34 35 40 43 47 48 50 51]
W: [1.0064723068 0.0162184995 0.0742435295 0.0150895149 0.0117978679 0.0205634247 0.0125885430 -0.0106750025 -0.0428955913 0.0164249032 0.0139151318 -0.0186764886 -0.0072408343 -0.0111020067 -0.0052904148]
Time: 10m00s