Generations = 100
Reset = 1
0.0016277519
0.0016277519
0.0016277519
0.0016277519
0.0016277519
0.0014375138
0.0014375138
0.0014375138
0.0014375138
0.0014375138
0.0014375138
0.0015673941
0.0015673941
0.0015673941
0.0020389130
0.0020389130
0.0020389130
0.0020389130
0.0025178721
0.0025178721
0.0025178721
0.0025178721
0.0025178721
0.0025178721
0.0025178721
0.0025178721
0.0025178721
0.0025178721
0.0025178721
0.0025178721
0.0028031401
0.0028031401
0.0028031401
0.0028031401
0.0028044199
0.0028044199
0.0028044199
0.0028044199
0.0028044199
0.0028044199
0.0028044199
0.0028044199
0.0028044199
0.0028044199
0.0028044199
0.0028044199
0.0028044199
0.0028044199
0.0028044199
0.0028044199
0.0028044199
0.0028044199
0.0028044199
0.0028044199
0.0028044199
0.0034583535
0.0034583535
0.0034583535
0.0034583535
0.0034583535
0.0034583535
0.0034583535
0.0034583535
0.0034583535
0.0034583535
0.0034583535
0.0034583535
0.0034583535
0.0019129024
0.0019129024
0.0019129024
0.0019129024
0.0019129024
0.0019129024
0.0019129024
0.0019129024
0.0029093224
0.0029093224
0.0029093224
0.0029093224
0.0029093224
0.0029093224
0.0029093224
0.0029093224
0.0029093224
0.0029093224
0.0029093224
0.0029093224
0.0029093224
0.0029093224
0.0029093224
0.0029093224
0.0029093224
0.0029093224
0.0029093224
0.0029093224
0.0029093224
0.0029093224
0.0029093224
0.0029093224

Reset = 2
0.0092127937
0.0092127937
0.0046061271
0.0046061271
0.0046061271
0.0046061271
0.0046061271
0.0046061271
0.0046061271
0.0046061271
0.0046061271
0.0047540046
0.0047540046
0.0047540046
0.0047540046
0.0047540046
0.0047540046
0.0047540046
0.0047540046
0.0047540046
0.0047540046
0.0047540046
0.0047540046
0.0047540046
0.0047540046
0.0047540046
0.0047540046
0.0047540046
0.0047540046
0.0047540046
0.0047540046
0.0047540046
0.0047540046
0.0047540046
0.0047540046
0.0047540046
0.0047540046
0.0047540046
0.0047540046
0.0047540046
0.0047540046
0.0047540046
0.0047540046
0.0047540046
0.0047540046
0.0047540046
0.0047540046
0.0047540046
0.0047540046
0.0047540046
0.0047540046
0.0047540046
0.0047540046
0.0047540046
0.0047540046
0.0047540046
0.0047540046
0.0047540046
0.0047540046
0.0047540046
0.0047540046
0.0041450929
0.0044841775
0.0044841775
0.0045475326
0.0045475326
0.0045475326
0.0045475326
0.0045475326
0.0045475326
0.0045475326
0.0045475326
0.0045475326
0.0045475326
0.0045475326
0.0045475326
0.0045475326
0.0045475326
0.0045475326
0.0047353528
0.0047911421
0.0047911421
0.0047911421
0.0047911421
0.0047911421
0.0047911421
0.0047911421
0.0047911421
0.0047911421
0.0043957178
0.0043957178
0.0043957178
0.0043957178
0.0043957178
0.0043957178
0.0043957178
0.0043957178
0.0043957178
0.0043957178
0.0043957178

Reset = 3
0.0099637709
0.0008258686
0.0008258686
0.0016547103
0.0016547103
0.0016547103
0.0016547103
0.0016547103
0.0016547103
0.0016547103
0.0016547103
0.0016547103
0.0016547103
0.0016547103
0.0016547103
0.0016547103
0.0016547103
0.0016547103
0.0016547103
0.0016547103
0.0016547103
0.0016547103
0.0014540194
0.0014540194
0.0014540194
0.0014540194
0.0014540194
0.0014540194
0.0014540194
0.0014540194
0.0014540194
0.0014540194
0.0014540194
0.0014540194
0.0014540194
0.0022529072
0.0022529072
0.0022529072
0.0022529072
0.0022529072
0.0022529072
0.0022529072
0.0022529072
0.0022529072
0.0022529072
0.0022529072
0.0022529072
0.0022529072
0.0022529072
0.0022529072
0.0022529072
0.0017517397
0.0017517397
0.0017517397
0.0017517397
0.0017517397
0.0017517397
0.0017517397
0.0017517397
0.0017517397
0.0017517397
0.0017517397
0.0017517397
0.0017517397
0.0017517397
0.0017517397
0.0017517397
0.0017517397
0.0017517397
0.0017517397
0.0017517397
0.0017517397
0.0017517397
0.0017517397
0.0017517397
0.0017517397
0.0018906009
0.0018400057
0.0018400057
0.0018400057
0.0018400057
0.0018400057
0.0018400057
0.0018400057
0.0018400057
0.0018400057
0.0018878345
0.0018878345
0.0019728518
0.0019728518
0.0019728518
0.0019728518
0.0019728518
0.0019728518
0.0019728518
0.0019728518
0.0019728518
0.0019728518
0.0019728518
0.0019728518

Reset = 4
0.0084244747
0.0084244747
0.0092337229
0.0092337229
0.0092337229
0.0092337229
0.0092337229
0.0092337229
0.0092337229
0.0092337229
0.0017257538
0.0017257538
0.0017257538
0.0017257538
0.0017257538
0.0017257538
0.0017257538
0.0019608165
0.0019608165
0.0019608165
0.0019608165
0.0019608165
0.0019608165
0.0019608165
0.0019608165
0.0019608165
0.0019608165
0.0019608165
0.0019608165
0.0019608165
0.0019608165
0.0019608165
0.0019608165
0.0021820304
0.0021820304
0.0021820304
0.0021820304
0.0021820304
0.0021820304
0.0021820304
0.0021820304
0.0021820304
0.0021820304
0.0021820304
0.0021820304
0.0021820304
0.0021820304
0.0021820304
0.0021820304
0.0021820304
0.0021820304
0.0021820304
0.0021820304
0.0021820304
0.0021820304
0.0021820304
0.0021820304
0.0021820304
0.0021820304
0.0021820304
0.0021820304
0.0021820304
0.0021820304
0.0021820304
0.0021820304
0.0021820304
0.0028385460
0.0028385460
0.0028385460
0.0028385460
0.0028385460
0.0028385460
0.0028385460
0.0028385460
0.0028385460
0.0028385460
0.0028385460
0.0028385460
0.0028385460
0.0028385460
0.0028385460
0.0028385460
0.0028385460
0.0028385460
0.0028385460
0.0028385460
0.0028385460
0.0028385460
0.0028385460
0.0020959954
0.0020959954
0.0020959954
0.0020959954
0.0020959954
0.0020959954
0.0020959954
0.0020959954
0.0020959954
0.0020959954
0.0020959954

Reset = 5
0.0056204065
0.0014543834
0.0014543834
0.0015484017
0.0015484017
0.0011074069
0.0011074069
0.0011074069
0.0011074069
0.0011074069
0.0011074069
0.0013053926
0.0013053926
0.0015724529
0.0015724529
0.0015724529
0.0015724529
0.0015724529
0.0013395050
0.0013395050
0.0015739904
0.0015739904
0.0015739904
0.0015739904
0.0015739904
0.0013089161
0.0013089161
0.0013089161
0.0013089161
0.0013089161
0.0013089161
0.0013089161
0.0013089161
0.0013089161
0.0013089161
0.0013089161
0.0013089161
0.0034339788
0.0034339788
0.0034339788
0.0034339788
0.0016351750
0.0016351750
0.0016351750
0.0016351750
0.0016351750
0.0016351750
0.0016351750
0.0016351750
0.0016351750
0.0016351750
0.0016351750
0.0016351750
0.0016351750
0.0016351750
0.0016351750
0.0016351750
0.0016351750
0.0016351750
0.0016351750
0.0016351750
0.0016351750
0.0016351750
0.0016351750
0.0016351750
0.0016351750
0.0016351750
0.0016351750
0.0016351750
0.0016351750
0.0016351750
0.0016351750
0.0016351750
0.0016351750
0.0016351750
0.0016351750
0.0016351750
0.0016351750
0.0016351750
0.0016351750
0.0016351750
0.0016351750
0.0016351750
0.0016351750
0.0018377026
0.0018377026
0.0018377026
0.0018377026
0.0018377026
0.0018377026
0.0018377026
0.0018377026
0.0018377026
0.0018377026
0.0018377026
0.0018377026
0.0018377026
0.0018377026
0.0018377026
0.0018377026

Reset = 6
0.0008767899
0.0009903269
0.0009903269
0.0009903269
0.0009822653
0.0009822653
0.0009822653
0.0014120697
0.0014120697
0.0014349854
0.0014349854
0.0014349854
0.0014349854
0.0014349854
0.0014349854
0.0014349854
0.0014349854
0.0016788540
0.0016788540
0.0016788540
0.0016788540
0.0016788540
0.0016788540
0.0016788540
0.0016788540
0.0016788540
0.0016788540
0.0016788540
0.0016788540
0.0016788540
0.0016788540
0.0016788540
0.0016788540
0.0016788540
0.0016788540
0.0016788540
0.0016788540
0.0016788540
0.0016788540
0.0016788540
0.0016788540
0.0016788540
0.0016788540
0.0016788540
0.0016788540
0.0016788540
0.0016788540
0.0016788540
0.0016788540
0.0016788540
0.0016788540
0.0016788540
0.0016788540
0.0025273627
0.0025273627
0.0025273627
0.0025273627
0.0025273627
0.0025273627
0.0028808861
0.0028808861
0.0028808861
0.0028808861
0.0028808861
0.0028808861
0.0028808861
0.0028808861
0.0028808861
0.0028808861
0.0028808861
0.0028808861
0.0028808861
0.0028808861
0.0028808861
0.0028808861
0.0028808861
0.0028808861
0.0029118380
0.0029118380
0.0029118380
0.0029118380
0.0029118380
0.0029118380
0.0029118380
0.0029118380
0.0029118380
0.0029118380
0.0032983351
0.0032983351
0.0032983351
0.0032983351
0.0032983351
0.0032983351
0.0032983351
0.0032983351
0.0032983351
0.0032983351
0.0032983351
0.0032983351
0.0032983351

Reset = 7
0.0006199069
0.0006199069
0.0006199069
0.0008718719
0.0008718719
0.0008718719
0.0008718719
0.0010507934
0.0018409512
0.0018409512
0.0018409512
0.0018409512
0.0018409512
0.0018409512
0.0018987888
0.0018987888
0.0018987888
0.0015390832
0.0015390832
0.0015390832
0.0015390832
0.0015358592
0.0015358592
0.0015358592
0.0015358592
0.0015358592
0.0015358592
0.0015358592
0.0015358592
0.0015358592
0.0015358592
0.0018083224
0.0018083224
0.0018083224
0.0018083224
0.0018083224
0.0018083224
0.0018083224
0.0018083224
0.0018083224
0.0018083224
0.0018083224
0.0018083224
0.0018083224
0.0018083224
0.0018083224
0.0018083224
0.0018083224
0.0018083224
0.0018083224
0.0018083224
0.0018083224
0.0026119507
0.0026119507
0.0026119507
0.0026119507
0.0026119507
0.0024331064
0.0024331064
0.0024331064
0.0024331064
0.0024331064
0.0024331064
0.0024331064
0.0024331064
0.0024331064
0.0024331064
0.0024331064
0.0024331064
0.0024331064
0.0024331064
0.0024331064
0.0024331064
0.0024331064
0.0024331064
0.0024331064
0.0024331064
0.0024331064
0.0024331064
0.0024331064
0.0024331064
0.0024331064
0.0024331064
0.0024331064
0.0028412390
0.0028412390
0.0028412390
0.0028412390
0.0028412390
0.0028412390
0.0028412390
0.0028412390
0.0028412390
0.0028412390
0.0028412390
0.0028412390
0.0028412390
0.0028412390
0.0028412390
0.0028412390

Reset = 8
0.0010399930
0.0010399930
0.0010399930
0.0010399930
0.0010399930
0.0010399930
0.0012947146
0.0012947146
0.0012947146
0.0017281080
0.0017281080
0.0017281080
0.0017281080
0.0017281080
0.0017281080
0.0017281080
0.0017281080
0.0017281080
0.0017281080
0.0017281080
0.0017281080
0.0017281080
0.0017281080
0.0017281080
0.0017281080
0.0017281080
0.0017281080
0.0017281080
0.0017281080
0.0017281080
0.0017281080
0.0017281080
0.0017281080
0.0017281080
0.0017281080
0.0017281080
0.0017281080
0.0017281080
0.0017281080
0.0017281080
0.0019959806
0.0036031751
0.0036031751
0.0036031751
0.0036031751
0.0036031751
0.0036031751
0.0044139497
0.0044139497
0.0044139497
0.0044139497
0.0044139497
0.0044139497
0.0044139497
0.0044139497
0.0044139497
0.0044139497
0.0044139497
0.0044139497
0.0044139497
0.0044139497
0.0044139497
0.0044139497
0.0044139497
0.0044139497
0.0044139497
0.0044139497
0.0044139497
0.0044139497
0.0044139497
0.0044139497
0.0044139497
0.0044139497
0.0044139497
0.0044139497
0.0044139497
0.0044139497
0.0044139497
0.0044139497
0.0044139497
0.0044139497
0.0044139497
0.0044139497
0.0044139497
0.0044139497
0.0044139497
0.0044139497
0.0044139497
0.0044139497
0.0044139497
0.0044139497
0.0044124848
0.0044124848
0.0044124848
0.0044124848
0.0044124848
0.0044124848
0.0044124848
0.0044124848
0.0044124848

Reset = 9
0.0105662637
0.0087061031
0.0105271899
0.0089464589
0.0089464589
0.0088288694
0.0090054644
0.0012973251
0.0012973251
0.0012973251
0.0012973251
0.0012973251
0.0012973251
0.0012973251
0.0019155168
0.0019155168
0.0019155168
0.0019155168
0.0019155168
0.0019155168
0.0019155168
0.0019155168
0.0019155168
0.0019155168
0.0019155168
0.0019155168
0.0019155168
0.0019155168
0.0019155168
0.0019155168
0.0019155168
0.0019155168
0.0019155168
0.0019155168
0.0015538764
0.0015538764
0.0015538764
0.0015538764
0.0015538764
0.0015538764
0.0015538764
0.0015538764
0.0015538764
0.0033465989
0.0028388033
0.0028388033
0.0028388033
0.0028388033
0.0028388033
0.0028388033
0.0028388033
0.0028388033
0.0028388033
0.0028388033
0.0028388033
0.0028388033
0.0028388033
0.0028388033
0.0028388033
0.0028388033
0.0028388033
0.0043377410
0.0043377410
0.0043377410
0.0043377410
0.0043377410
0.0043377410
0.0043377410
0.0043377410
0.0043377410
0.0043377410
0.0043377410
0.0043377410
0.0043377410
0.0043377410
0.0043377410
0.0043377410
0.0043377410
0.0043377410
0.0043377410
0.0043377410
0.0043377410
0.0043377410
0.0043377410
0.0043377410
0.0043377410
0.0043377410
0.0043377410
0.0043377410
0.0043377410
0.0043377410
0.0043377410
0.0043377410
0.0043377410
0.0043377410
0.0043377410
0.0043377410
0.0043377410
0.0043377410
0.0043377410

Reset = 10
0.0215522867
0.0010770246
0.0010770246
0.0010770246
0.0010770246
0.0011068250
0.0006560774
0.0009815410
0.0009815410
0.0009815410
0.0009815410
0.0009815410
0.0010415149
0.0012407303
0.0012407303
0.0012407303
0.0012407303
0.0012407303
0.0012407303
0.0012407303
0.0012407303
0.0015322531
0.0015322531
0.0017399544
0.0017399544
0.0017399544
0.0017399544
0.0017399544
0.0016870495
0.0016870495
0.0016870495
0.0016870495
0.0016870495
0.0016870495
0.0016870495
0.0016870495
0.0016870495
0.0017114549
0.0017114549
0.0019215789
0.0019215789
0.0019215789
0.0019215789
0.0019215789
0.0019215789
0.0019215789
0.0019215789
0.0023759235
0.0023759235
0.0023759235
0.0023759235
0.0023759235
0.0023759235
0.0023759235
0.0023759235
0.0023759235
0.0023759235
0.0023759235
0.0023759235
0.0023759235
0.0023759235
0.0023759235
0.0023759235
0.0023759235
0.0023759235
0.0023759235
0.0023759235
0.0023759235
0.0023759235
0.0023759235
0.0023759235
0.0023759235
0.0023759235
0.0023759235
0.0023759235
0.0023759235
0.0023759235
0.0023759235
0.0023759235
0.0023759235
0.0023759235
0.0023759235
0.0023759235
0.0023759235
0.0030725412
0.0030725412
0.0030725412
0.0030725412
0.0030725412
0.0030725412
0.0030725412
0.0030725412
0.0030725412
0.0030725412
0.0030725412
0.0030725412
0.0030725412
0.0030725412
0.0030725412
0.0030725412

Reset = 11
0.0126609757
0.0087092400
0.0087092400
0.0015619247
0.0015619247
0.0015619247
0.0021527327
0.0021527327
0.0021527327
0.0021527327
0.0022328581
0.0022328581
0.0022328581
0.0022328581
0.0022328581
0.0022328581
0.0022328581
0.0022328581
0.0022328581
0.0022328581
0.0022328581
0.0022328581
0.0022328581
0.0022328581
0.0022328581
0.0022328581
0.0022328581
0.0022328581
0.0026872869
0.0026872869
0.0026872869
0.0026872869
0.0026872869
0.0026872869
0.0022847588
0.0022847588
0.0022847588
0.0022847588
0.0022847588
0.0022847588
0.0022847588
0.0022847588
0.0022847588
0.0022847588
0.0022847588
0.0022847588
0.0022847588
0.0022847588
0.0022847588
0.0022847588
0.0022847588
0.0022847588
0.0022847588
0.0022847588
0.0022847588
0.0022847588
0.0022847588
0.0022847588
0.0022847588
0.0022847588
0.0022847588
0.0022847588
0.0022847588
0.0022847588
0.0022847588
0.0022847588
0.0022847588
0.0022847588
0.0022847588
0.0022847588
0.0022847588
0.0022847588
0.0022847588
0.0022847588
0.0022847588
0.0022847588
0.0022847588
0.0022847588
0.0022847588
0.0022847588
0.0022847588
0.0022847588
0.0022847588
0.0022847588
0.0022847588
0.0022847588
0.0022847588
0.0022847588
0.0022847588
0.0022847588
0.0022847588
0.0022847588
0.0022847588
0.0022847588
0.0022847588
0.0022847588
0.0022847588
0.0022847588
0.0022847588
0.0022847588

Reset = 12
0.0254439595
0.0013011350
0.0016730640
0.0016730640
0.0016730640
0.0016730640
0.0016730640
0.0016730640
0.0016730640
0.0016730640
0.0016730640
0.0016730640
0.0016730640
0.0016730640
0.0016730640
0.0016730640
0.0016730640
0.0017185053
0.0017185053
0.0017185053
0.0017185053
0.0017185053
0.0017185053
0.0017185053
0.0017185053
0.0017185053
0.0017185053
0.0017185053
0.0017185053
0.0017185053
0.0017185053
0.0017185053
0.0017185053
0.0017185053
0.0017185053
0.0017185053
0.0017185053
0.0017185053
0.0017185053
0.0017185053
0.0017185053
0.0017185053
0.0017185053
0.0017185053
0.0019561445
0.0024968462
0.0024968462
0.0024968462
0.0024968462
0.0024968462
0.0024968462
0.0024968462
0.0024968462
0.0024968462
0.0024968462
0.0024968462
0.0024968462
0.0024968462
0.0024968462
0.0024968462
0.0024968462
0.0024968462
0.0024968462
0.0024968462
0.0024968462
0.0024968462
0.0024968462
0.0024968462
0.0024968462
0.0024968462
0.0024968462
0.0024968462
0.0024968462
0.0024968462
0.0024968462
0.0024968462
0.0024968462
0.0024968462
0.0024968462
0.0024968462
0.0024968462
0.0024968462
0.0024968462
0.0024968462
0.0024968462
0.0024968462
0.0024968462
0.0024968462
0.0024968462
0.0024968462
0.0024968462
0.0024968462
0.0024968462
0.0024968462
0.0024968462
0.0024968462
0.0024968462
0.0024968462
0.0024968462
0.0024968462

Reset = 13
0.0212448329
0.0011768902
0.0011768902
0.0015171074
0.0012038265
0.0012038265
0.0012038265
0.0012038265
0.0012038265
0.0012038265
0.0012038265
0.0013093514
0.0013093514
0.0013093514
0.0016729290
0.0016729290
0.0016729290
0.0016729290
0.0016729290
0.0016729290
0.0016729290
0.0016729290
0.0016729290
0.0022782342
0.0022782342
0.0021445041
0.0021290919
0.0021290919
0.0021290919
0.0021290919
0.0021290919
0.0021290919
0.0021290919
0.0021290919
0.0021290919
0.0021290919
0.0021290919
0.0021290919
0.0021290919
0.0021290919
0.0021290919
0.0021290919
0.0021290919
0.0021290919
0.0021290919
0.0021290919
0.0021290919
0.0021290919
0.0021290919
0.0021290919
0.0021290919
0.0021290919
0.0021290919
0.0020029126
0.0020029126
0.0020029126
0.0020029126
0.0020029126
0.0020029126
0.0020029126
0.0020029126
0.0020029126
0.0020029126
0.0020029126
0.0020029126
0.0020029126
0.0020029126
0.0020029126
0.0020029126
0.0020029126
0.0020029126
0.0020029126
0.0020029126
0.0020029126
0.0020029126
0.0020029126
0.0020029126
0.0020029126
0.0020029126
0.0020029126
0.0020029126
0.0020029126
0.0020029126
0.0020029126
0.0020029126
0.0020029126
0.0020029126
0.0020029126
0.0020029126
0.0020029126
0.0020029126
0.0020029126
0.0020029126
0.0021886309
0.0021886309
0.0021886309
0.0021886309
0.0021886309
0.0021886309
0.0021886309

Reset = 14
0.0007667397
0.0007667397
0.0007667397
0.0007667397
0.0009728902
0.0009728902
0.0011990930
0.0011990930
0.0011990930
0.0015960026
0.0015960026
0.0015960026
0.0013864445
0.0013864445
0.0013864445
0.0013864445
0.0013864445
0.0013864445
0.0013864445
0.0013864445
0.0013864445
0.0013864445
0.0013864445
0.0013864445
0.0017265699
0.0017265699
0.0017265699
0.0017265699
0.0017265699
0.0017265699
0.0017265699
0.0016815643
0.0016815643
0.0016815643
0.0016815643
0.0016815643
0.0016815643
0.0016815643
0.0016815643
0.0016815643
0.0016815643
0.0020854005
0.0020854005
0.0020854005
0.0020854005
0.0020854005
0.0020854005
0.0020854005
0.0020854005
0.0020854005
0.0020854005
0.0020854005
0.0020854005
0.0020854005
0.0020854005
0.0020854005
0.0020854005
0.0020854005
0.0020854005
0.0020854005
0.0020854005
0.0020854005
0.0020854005
0.0020854005
0.0020854005
0.0020854005
0.0020854005
0.0020854005
0.0020854005
0.0020854005
0.0020854005
0.0020854005
0.0020854005
0.0020854005
0.0020854005
0.0020854005
0.0020854005
0.0020854005
0.0020854005
0.0020854005
0.0020854005
0.0020854005
0.0020854005
0.0020854005
0.0020854005
0.0020854005
0.0020854005
0.0020854005
0.0020854005
0.0020854005
0.0020854005
0.0020854005
0.0020854005
0.0020854005
0.0020854005
0.0020854005
0.0020854005
0.0020854005
0.0020854005
0.0020854005

Reset = 15
0.0088100038
0.0088100038
0.0088100038
0.0008484249
0.0008484249
0.0008484249
0.0008484249
0.0007883788
0.0013820113
0.0013820113
0.0013971259
0.0013971259
0.0013971259
0.0013971259
0.0013971259
0.0013356371
0.0013356371
0.0013356371
0.0013356371
0.0013356371
0.0013356371
0.0013356371
0.0013356371
0.0012446950
0.0012446950
0.0012446950
0.0012446950
0.0012446950
0.0012446950
0.0012446950
0.0012446950
0.0012446950
0.0012446950
0.0012446950
0.0012446950
0.0032469266
0.0032469266
0.0032469266
0.0032469266
0.0032469266
0.0032469266
0.0032469266
0.0032469266
0.0032469266
0.0032469266
0.0032469266
0.0032469266
0.0032469266
0.0032469266
0.0032469266
0.0032469266
0.0032469266
0.0032469266
0.0032469266
0.0032469266
0.0032469266
0.0018169768
0.0016690610
0.0016690610
0.0016690610
0.0016690610
0.0016690610
0.0016690610
0.0016690610
0.0016690610
0.0016690610
0.0016690610
0.0016690610
0.0016690610
0.0016690610
0.0016690610
0.0016690610
0.0016690610
0.0044488523
0.0044488523
0.0044488523
0.0044488523
0.0044488523
0.0044488523
0.0044488523
0.0044488523
0.0044488523
0.0044488523
0.0044488523
0.0044488523
0.0044488523
0.0044488523
0.0044488523
0.0044488523
0.0044488523
0.0044488523
0.0044488523
0.0044488523
0.0044488523
0.0044488523
0.0044488523
0.0044488523
0.0044488523
0.0044488523
0.0044488523

Reset = 16
0.0010534470
0.0010534470
0.0010534470
0.0010534470
0.0010534470
0.0010534470
0.0010534470
0.0014237700
0.0014237700
0.0014237700
0.0013454964
0.0013454964
0.0013454964
0.0018844225
0.0018844225
0.0018518983
0.0016859006
0.0016643982
0.0016643982
0.0016643982
0.0016643982
0.0016643982
0.0016643982
0.0016643982
0.0016643982
0.0021432929
0.0021432929
0.0021432929
0.0021432929
0.0021432929
0.0021432929
0.0021432929
0.0021158833
0.0021158833
0.0021158833
0.0021158833
0.0021158833
0.0021158833
0.0021158833
0.0021158833
0.0021158833
0.0021158833
0.0022011686
0.0022011686
0.0022011686
0.0022011686
0.0022011686
0.0022011686
0.0022011686
0.0022011686
0.0022011686
0.0022011686
0.0022011686
0.0022011686
0.0022011686
0.0022011686
0.0022011686
0.0022011686
0.0022011686
0.0022011686
0.0022011686
0.0022011686
0.0022011686
0.0022011686
0.0022011686
0.0022011686
0.0023100104
0.0023100104
0.0023100104
0.0023100104
0.0023100104
0.0023100104
0.0023100104
0.0023100104
0.0023100104
0.0023100104
0.0023100104
0.0023100104
0.0023100104
0.0023100104
0.0023100104
0.0023100104
0.0022290455
0.0022290455
0.0022290455
0.0022290455
0.0037280154
0.0037280154
0.0037280154
0.0037280154
0.0037280154
0.0037280154
0.0037280154
0.0037280154
0.0037280154
0.0037280154
0.0037280154
0.0037280154
0.0037280154
0.0037280154

Reset = 17
0.0245820285
0.0015439003
0.0015439003
0.0015439003
0.0015439003
0.0015439003
0.0015439003
0.0015439003
0.0015439003
0.0015439003
0.0015439003
0.0015439003
0.0015439003
0.0019070068
0.0019070068
0.0019070068
0.0019070068
0.0019070068
0.0019070068
0.0019070068
0.0019070068
0.0019070068
0.0019070068
0.0019070068
0.0019070068
0.0019070068
0.0019070068
0.0019070068
0.0019070068
0.0019070068
0.0019070068
0.0027283690
0.0027283690
0.0041117858
0.0038070548
0.0038070548
0.0038070548
0.0038070548
0.0038070548
0.0038070548
0.0038070548
0.0038070548
0.0038070548
0.0038070548
0.0038070548
0.0038070548
0.0038070548
0.0038070548
0.0038070548
0.0038070548
0.0038070548
0.0038070548
0.0038070548
0.0040194397
0.0040194397
0.0040194397
0.0040194397
0.0040194397
0.0040194397
0.0040194397
0.0040194397
0.0040194397
0.0040194397
0.0040194397
0.0040194397
0.0040194397
0.0040194397
0.0040194397
0.0040194397
0.0040194397
0.0040194397
0.0040194397
0.0040194397
0.0040194397
0.0040194397
0.0040194397
0.0040194397
0.0040194397
0.0040194397
0.0040194397
0.0040194397
0.0040194397
0.0040194397
0.0040194397
0.0040194397
0.0040194397
0.0040194397
0.0040194397
0.0040194397
0.0040194397
0.0040194397
0.0040194397
0.0040194397
0.0040194397
0.0036796701
0.0036796701
0.0036796701
0.0036796701
0.0036796701
0.0036796701

Reset = 18
0.0007346765
0.0007346765
0.0007346765
0.0013310887
0.0013310887
0.0013310887
0.0013310887
0.0013310887
0.0013310887
0.0013310887
0.0015735250
0.0017598715
0.0017598715
0.0017598715
0.0017598715
0.0017598715
0.0017598715
0.0042923524
0.0042923524
0.0042923524
0.0042923524
0.0042923524
0.0042923524
0.0042923524
0.0042923524
0.0042923524
0.0042923524
0.0042923524
0.0042923524
0.0042923524
0.0042923524
0.0042923524
0.0042923524
0.0043889858
0.0043889858
0.0043889858
0.0043889858
0.0043889858
0.0043889858
0.0043889858
0.0043889858
0.0043889858
0.0043889858
0.0043889858
0.0043889858
0.0043889858
0.0043889858
0.0043889858
0.0043889858
0.0043889858
0.0043889858
0.0043889858
0.0043889858
0.0043889858
0.0043889858
0.0043889858
0.0043889858
0.0043889858
0.0043889858
0.0043889858
0.0043889858
0.0043889858
0.0043889858
0.0043889858
0.0043889858
0.0043889858
0.0043889858
0.0043889858
0.0043889858
0.0043889858
0.0043889858
0.0043889858
0.0043889858
0.0043889858
0.0043889858
0.0043889858
0.0043889858
0.0043889858
0.0048775253
0.0048775253
0.0048775253
0.0048775253
0.0048775253
0.0048775253
0.0048775253
0.0048775253
0.0048775253
0.0048775253
0.0048775253
0.0048775253
0.0048775253
0.0048775253
0.0048775253
0.0048775253
0.0048775253
0.0048775253
0.0046251320
0.0046251320
0.0046251320
0.0046251320

Reset = 19
0.0082617737
0.0011609512
0.0011609512
0.0011609512
0.0011609512
0.0011609512
0.0011609512
0.0011609512
0.0011609512
0.0009990761
0.0009990761
0.0010496483
0.0014564082
0.0014564082
0.0014564082
0.0014564082
0.0018418875
0.0013246714
0.0013246714
0.0013246714
0.0013246714
0.0013246714
0.0013246714
0.0013246714
0.0013246714
0.0013246714
0.0013246714
0.0013246714
0.0015105057
0.0015105057
0.0015105057
0.0015105057
0.0036718122
0.0036718122
0.0036718122
0.0036718122
0.0036718122
0.0036718122
0.0036718122
0.0036718122
0.0036718122
0.0036718122
0.0036718122
0.0036718122
0.0036718122
0.0036718122
0.0036718122
0.0036718122
0.0036718122
0.0036718122
0.0036718122
0.0036718122
0.0036718122
0.0036718122
0.0036718122
0.0036718122
0.0036718122
0.0036718122
0.0036718122
0.0036718122
0.0036718122
0.0036718122
0.0036718122
0.0036718122
0.0036718122
0.0036718122
0.0036718122
0.0036718122
0.0036718122
0.0036718122
0.0036718122
0.0036718122
0.0036718122
0.0036718122
0.0036718122
0.0036718122
0.0036718122
0.0036718122
0.0036718122
0.0036718122
0.0029021354
0.0029021354
0.0029021354
0.0029021354
0.0029021354
0.0029021354
0.0029021354
0.0039443515
0.0039443515
0.0039443515
0.0039443515
0.0039443515
0.0039443515
0.0031960049
0.0031960049
0.0031960049
0.0042119609
0.0042119609
0.0042119609
0.0042119609

Reset = 20
0.0077795719
0.0090235254
0.0079957594
0.0079957594
0.0011158457
0.0016194856
0.0016194856
0.0016194856
0.0016194856
0.0016194856
0.0016194856
0.0016194856
0.0016194856
0.0015428047
0.0015428047
0.0015428047
0.0015428047
0.0015428047
0.0027205060
0.0027562311
0.0027562311
0.0027562311
0.0027562311
0.0029920818
0.0029920818
0.0029920818
0.0029920818
0.0029920818
0.0037649109
0.0037649109
0.0037649109
0.0037649109
0.0037649109
0.0037649109
0.0037649109
0.0037649109
0.0037649109
0.0037649109
0.0037649109
0.0037649109
0.0037649109
0.0037649109
0.0037649109
0.0037649109
0.0038677007
0.0038677007
0.0038677007
0.0038677007
0.0038677007
0.0038677007
0.0038677007
0.0038677007
0.0038677007
0.0038677007
0.0038677007
0.0038677007
0.0038677007
0.0038677007
0.0038677007
0.0038677007
0.0038677007
0.0038677007
0.0038677007
0.0038677007
0.0038677007
0.0038677007
0.0038677007
0.0038677007
0.0038677007
0.0038677007
0.0038677007
0.0038677007
0.0048393075
0.0048393075
0.0048393075
0.0048393075
0.0048393075
0.0048393075
0.0048393075
0.0048393075
0.0048393075
0.0052834327
0.0052834327
0.0052834327
0.0052834327
0.0052834327
0.0052834327
0.0052834327
0.0052834327
0.0052834327
0.0052834327
0.0052834327
0.0052834327
0.0052834327
0.0052834327
0.0052834327
0.0052834327
0.0052834327
0.0052834327
0.0052834327

Reset = 21
0.0012958804
0.0012958804
0.0012958804
0.0012958804
0.0012958804
0.0012958804
0.0012958804
0.0012958804
0.0012958804
0.0012958804
0.0012958804
0.0012958804
0.0012958804
0.0012958804
0.0012958804
0.0012958804
0.0012958804
0.0012958804
0.0012958804
0.0015685260
0.0015685260
0.0015685260
0.0015685260
0.0015685260
0.0015685260
0.0015685260
0.0015685260
0.0015685260
0.0015685260
0.0015685260
0.0015685260
0.0015685260
0.0014896083
0.0017404433
0.0017404433
0.0017404433
0.0017404433
0.0017404433
0.0017404433
0.0017404433
0.0017404433
0.0017404433
0.0017404433
0.0017404433
0.0017404433
0.0017404433
0.0017404433
0.0017404433
0.0017404433
0.0017404433
0.0017404433
0.0017404433
0.0017404433
0.0017404433
0.0017404433
0.0017404433
0.0017404433
0.0017404433
0.0017404433
0.0017404433
0.0017404433
0.0019866458
0.0019866458
0.0019866458
0.0019866458
0.0018181681
0.0018181681
0.0018181681
0.0018181681
0.0018181681
0.0018181681
0.0018181681
0.0018181681
0.0018181681
0.0018181681
0.0017825847
0.0017825847
0.0017825847
0.0017825847
0.0017825847
0.0017825847
0.0017825847
0.0017825847
0.0017825847
0.0017825847
0.0017825847
0.0017825847
0.0017825847
0.0017825847
0.0017825847
0.0017825847
0.0019018440
0.0018463430
0.0018463430
0.0018463430
0.0018463430
0.0018463430
0.0018463430
0.0018463430
0.0018463430

Reset = 22
0.0093620059
0.0091330735
0.0091330735
0.0091330735
0.0091330735
0.0091330735
0.0009884104
0.0009884104
0.0015855313
0.0015855313
0.0015855313
0.0023979514
0.0023979514
0.0023979514
0.0023979514
0.0023979514
0.0013014442
0.0013014442
0.0013014442
0.0013014442
0.0013014442
0.0013014442
0.0013014442
0.0013144240
0.0013144240
0.0013144240
0.0014771989
0.0014771989
0.0014771989
0.0014771989
0.0014771989
0.0014771989
0.0014771989
0.0014771989
0.0014771989
0.0014688207
0.0014688207
0.0014688207
0.0014688207
0.0014688207
0.0014688207
0.0014688207
0.0014688207
0.0014688207
0.0017363017
0.0017363017
0.0017363017
0.0017363017
0.0017363017
0.0017363017
0.0017363017
0.0017363017
0.0017363017
0.0026847641
0.0026847641
0.0026847641
0.0026847641
0.0026847641
0.0026847641
0.0026847641
0.0026847641
0.0026847641
0.0026847641
0.0026847641
0.0026847641
0.0026847641
0.0026847641
0.0026847641
0.0026847641
0.0026847641
0.0026847641
0.0026847641
0.0026847641
0.0026847641
0.0026847641
0.0026847641
0.0026847641
0.0026847641
0.0026847641
0.0026847641
0.0026847641
0.0026847641
0.0026847641
0.0026847641
0.0026847641
0.0026847641
0.0026847641
0.0025028422
0.0025028422
0.0025028422
0.0025028422
0.0025028422
0.0025028422
0.0025028422
0.0025028422
0.0025028422
0.0025028422
0.0033424165
0.0033424165
0.0033424165

Reset = 23
0.0009633857
0.0015834580
0.0015834580
0.0015834580
0.0015834580
0.0015834580
0.0015834580
0.0015834580
0.0015834580
0.0013114794
0.0013114794
0.0013114794
0.0013114794
0.0013114794
0.0013114794
0.0026203435
0.0026203435
0.0026203435
0.0026203435
0.0026203435
0.0023733384
0.0023733384
0.0023733384
0.0023733384
0.0023733384
0.0022720522
0.0022720522
0.0022720522
0.0022720522
0.0022720522
0.0022720522
0.0022720522
0.0022720522
0.0022720522
0.0022720522
0.0022720522
0.0022720522
0.0022720522
0.0022720522
0.0022597859
0.0022597859
0.0022597859
0.0022597859
0.0022597859
0.0022597859
0.0022597859
0.0022597859
0.0022597859
0.0022597859
0.0022597859
0.0022597859
0.0022597859
0.0022597859
0.0022597859
0.0022597859
0.0022597859
0.0022597859
0.0022597859
0.0022597859
0.0022597859
0.0022597859
0.0022597859
0.0022597859
0.0021429274
0.0021429274
0.0021429274
0.0021429274
0.0021429274
0.0021429274
0.0020017607
0.0020017607
0.0020017607
0.0020017607
0.0020017607
0.0020017607
0.0024079188
0.0024079188
0.0024079188
0.0024079188
0.0024079188
0.0024079188
0.0024079188
0.0024079188
0.0024079188
0.0024079188
0.0024079188
0.0024079188
0.0024079188
0.0024079188
0.0024079188
0.0024079188
0.0024079188
0.0024079188
0.0024079188
0.0024079188
0.0024079188
0.0024079188
0.0024079188
0.0024079188
0.0024079188

Reset = 24
0.0091860802
0.0091860802
0.0091860802
0.0016177471
0.0016177471
0.0016177471
0.0016177471
0.0016177471
0.0016177471
0.0016177471
0.0016177471
0.0016177471
0.0016177471
0.0016177471
0.0016018654
0.0016018654
0.0016018654
0.0039771499
0.0040414719
0.0040414719
0.0040414719
0.0040414719
0.0040414719
0.0040414719
0.0040414719
0.0040414719
0.0040414719
0.0040414719
0.0040414719
0.0040414719
0.0040414719
0.0040414719
0.0040414719
0.0040414719
0.0040414719
0.0040414719
0.0040414719
0.0040414719
0.0040414719
0.0040414719
0.0040414719
0.0040414719
0.0040414719
0.0040414719
0.0040414719
0.0040414719
0.0040414719
0.0040414719
0.0040414719
0.0040414719
0.0040414719
0.0037650596
0.0037650596
0.0037650596
0.0037650596
0.0037650596
0.0037650596
0.0037650596
0.0037650596
0.0037650596
0.0037650596
0.0037650596
0.0037650596
0.0037650596
0.0037650596
0.0037650596
0.0037650596
0.0037650596
0.0037650596
0.0037650596
0.0037650596
0.0037650596
0.0037650596
0.0037650596
0.0037650596
0.0037650596
0.0037650596
0.0037650596
0.0037650596
0.0037650596
0.0037650596
0.0037650596
0.0037650596
0.0037650596
0.0037650596
0.0037650596
0.0037650596
0.0037650596
0.0037650596
0.0037650596
0.0037650596
0.0037650596
0.0037650596
0.0037650596
0.0037650596
0.0037650596
0.0037650596
0.0037650596
0.0037650596
0.0036308424

Reset = 25
0.0256312020
0.0011813012
0.0011813012
0.0015887339
0.0015887339
0.0015887339
0.0015887339
0.0015950132
0.0015950132
0.0015950132
0.0015635873
0.0015635873
0.0015635873
0.0015635873
0.0015635873
0.0015635873
0.0015635873
0.0013665470
0.0016361917
0.0016361917
0.0032155741
0.0032155741
0.0032155741
0.0032155741
0.0032155741
0.0032155741
0.0032155741
0.0032155741
0.0032155741
0.0032155741
0.0032155741
0.0032155741
0.0032155741
0.0032155741
0.0032155741
0.0032155741
0.0032155741
0.0032155741
0.0032155741
0.0032155741
0.0032155741
0.0032155741
0.0041764675
0.0041764675
0.0041764675
0.0041764675
0.0041764675
0.0041764675
0.0041764675
0.0041764675
0.0041764675
0.0041764675
0.0041764675
0.0041764675
0.0041764675
0.0041764675
0.0041764675
0.0041764675
0.0041764675
0.0041764675
0.0041764675
0.0046251277
0.0046251277
0.0046251277
0.0046251277
0.0046251277
0.0046251277
0.0046251277
0.0046251277
0.0046251277
0.0046251277
0.0046251277
0.0046251277
0.0046251277
0.0046251277
0.0046251277
0.0046251277
0.0046251277
0.0046251277
0.0046251277
0.0046251277
0.0046251277
0.0046251277
0.0046251277
0.0046251277
0.0046251277
0.0046251277
0.0046251277
0.0046251277
0.0046251277
0.0046251277
0.0046251277
0.0046251277
0.0046251277
0.0045118127
0.0045118127
0.0045118127
0.0045118127
0.0045118127
0.0046344326

Reset = 26
0.0091462712
0.0091462712
0.0091462712
0.0091462712
0.0091462712
0.0007627470
0.0007627470
0.0006492386
0.0012901206
0.0017868078
0.0017868078
0.0017868078
0.0017868078
0.0017868078
0.0017868078
0.0017868078
0.0017868078
0.0014714812
0.0015304869
0.0014264027
0.0014264027
0.0016391501
0.0016391501
0.0016391501
0.0016391501
0.0016391501
0.0016680415
0.0024749346
0.0024749346
0.0024749346
0.0024749346
0.0024749346
0.0037061870
0.0037061870
0.0037061870
0.0037061870
0.0037061870
0.0037061870
0.0037061870
0.0037061870
0.0037061870
0.0037061870
0.0037061870
0.0037061870
0.0037061870
0.0037994736
0.0037994736
0.0037994736
0.0037994736
0.0037994736
0.0037994736
0.0037994736
0.0037994736
0.0037994736
0.0037994736
0.0037994736
0.0037994736
0.0037994736
0.0039389274
0.0039389274
0.0039389274
0.0039389274
0.0039389274
0.0039389274
0.0039389274
0.0039389274
0.0039389274
0.0039389274
0.0039389274
0.0039389274
0.0039956365
0.0039956365
0.0039956365
0.0039956365
0.0039956365
0.0039956365
0.0039956365
0.0039956365
0.0039956365
0.0039956365
0.0039956365
0.0039956365
0.0039956365
0.0039956365
0.0039956365
0.0039956365
0.0039956365
0.0038054694
0.0038054694
0.0040498215
0.0040498215
0.0040498215
0.0040498215
0.0040498215
0.0040498215
0.0040498215
0.0040498215
0.0040498215
0.0040498215
0.0040498215

Reset = 27
0.0126465323
0.0079920041
0.0079920041
0.0079920041
0.0081899414
0.0081899414
0.0081899414
0.0015798297
0.0015798297
0.0015798297
0.0010958402
0.0010958402
0.0010958402
0.0010958402
0.0011455601
0.0018810109
0.0018810109
0.0018810109
0.0018810109
0.0019438734
0.0019438734
0.0019438734
0.0019438734
0.0019438734
0.0019438734
0.0019438734
0.0019438734
0.0019438734
0.0019438734
0.0019438734
0.0019438734
0.0019438734
0.0019105302
0.0019105302
0.0019105302
0.0019105302
0.0019105302
0.0019105302
0.0019105302
0.0019105302
0.0019105302
0.0019105302
0.0019105302
0.0019105302
0.0019105302
0.0019105302
0.0019105302
0.0019105302
0.0019105302
0.0019105302
0.0019105302
0.0019105302
0.0019105302
0.0019105302
0.0019105302
0.0019105302
0.0019105302
0.0019105302
0.0019105302
0.0021005610
0.0021005610
0.0021005610
0.0021005610
0.0021005610
0.0021005610
0.0021005610
0.0021005610
0.0021005610
0.0021005610
0.0021005610
0.0021005610
0.0021005610
0.0021005610
0.0021005610
0.0021005610
0.0021005610
0.0021005610
0.0021005610
0.0021005610
0.0021005610
0.0021005610
0.0021005610
0.0021005610
0.0021005610
0.0021005610
0.0021005610
0.0021005610
0.0021005610
0.0021005610
0.0021005610
0.0021005610
0.0021005610
0.0021005610
0.0021005610
0.0021005610
0.0021005610
0.0021005610
0.0021005610
0.0021005610
0.0021005610

Reset = 28
0.0113243997
0.0113243997
0.0113243997
0.0113243997
0.0010805925
0.0013120203
0.0013120203
0.0016558677
0.0023796976
0.0038672677
0.0042998023
0.0042998023
0.0042998023
0.0042998023
0.0042998023
0.0042998023
0.0042998023
0.0042998023
0.0042998023
0.0042998023
0.0042998023
0.0042998023
0.0042998023
0.0042998023
0.0042998023
0.0042998023
0.0042998023
0.0042998023
0.0042998023
0.0042998023
0.0042998023
0.0042998023
0.0042998023
0.0037811012
0.0037811012
0.0037811012
0.0037811012
0.0037811012
0.0037811012
0.0037811012
0.0037811012
0.0037811012
0.0037811012
0.0037811012
0.0037811012
0.0037811012
0.0037811012
0.0037811012
0.0037811012
0.0037811012
0.0037811012
0.0037811012
0.0037811012
0.0037811012
0.0037811012
0.0037811012
0.0037811012
0.0037811012
0.0037811012
0.0037811012
0.0037811012
0.0037811012
0.0037811012
0.0037811012
0.0037811012
0.0037811012
0.0037811012
0.0037811012
0.0037811012
0.0037811012
0.0037811012
0.0037811012
0.0037811012
0.0037811012
0.0037811012
0.0037811012
0.0037811012
0.0037811012
0.0037811012
0.0037811012
0.0037811012
0.0037811012
0.0037811012
0.0037811012
0.0037811012
0.0037811012
0.0037811012
0.0037811012
0.0037811012
0.0037811012
0.0037811012
0.0037811012
0.0037811012
0.0037811012
0.0037811012
0.0037811012
0.0037811012
0.0037811012
0.0037811012
0.0037811012

Reset = 29
0.0090604588
0.0090604588
0.0090604588
0.0090604588
0.0090604588
0.0090604588
0.0087503526
0.0087503526
0.0015655867
0.0015655867
0.0015655867
0.0015655867
0.0015655867
0.0015655867
0.0015655867
0.0015655867
0.0015655867
0.0015655867
0.0015655867
0.0015655867
0.0015655867
0.0015655867
0.0015655867
0.0015655867
0.0015655867
0.0022378545
0.0019829495
0.0019829495
0.0019829495
0.0018120343
0.0018120343
0.0018120343
0.0018120343
0.0018120343
0.0016276754
0.0016276754
0.0016276754
0.0016276754
0.0016276754
0.0016276754
0.0016276754
0.0016276754
0.0016276754
0.0016276754
0.0016276754
0.0016276754
0.0016276754
0.0016276754
0.0016276754
0.0016276754
0.0016276754
0.0016276754
0.0016276754
0.0016276754
0.0016276754
0.0016276754
0.0016276754
0.0016276754
0.0036649833
0.0036649833
0.0036649833
0.0036649833
0.0036649833
0.0033441521
0.0033441521
0.0033441521
0.0033441521
0.0033441521
0.0033441521
0.0033441521
0.0033441521
0.0033441521
0.0033441521
0.0033441521
0.0033441521
0.0033441521
0.0033441521
0.0033441521
0.0033441521
0.0033441521
0.0033441521
0.0033441521
0.0033441521
0.0036852736
0.0036852736
0.0036852736
0.0036852736
0.0036852736
0.0039141179
0.0039141179
0.0039141179
0.0039141179
0.0039141179
0.0039141179
0.0039141179
0.0039141179
0.0039141179
0.0031916298
0.0031916298
0.0031916298

Reset = 30
0.0010371341
0.0011402251
0.0011402251
0.0011402251
0.0012981431
0.0012981431
0.0012981431
0.0012981431
0.0012981431
0.0012981431
0.0012981431
0.0012202631
0.0012202631
0.0016200249
0.0019367427
0.0019367427
0.0019367427
0.0019367427
0.0019367427
0.0019367427
0.0019367427
0.0019367427
0.0019367427
0.0019367427
0.0019367427
0.0016511931
0.0016511931
0.0017101036
0.0017101036
0.0017101036
0.0017101036
0.0017101036
0.0017101036
0.0017101036
0.0017101036
0.0017101036
0.0017101036
0.0017101036
0.0017101036
0.0017101036
0.0017101036
0.0017101036
0.0017101036
0.0017101036
0.0017101036
0.0017101036
0.0017101036
0.0017101036
0.0017101036
0.0017101036
0.0017101036
0.0017101036
0.0017101036
0.0017101036
0.0017101036
0.0017101036
0.0017101036
0.0015751473
0.0015751473
0.0015751473
0.0015751473
0.0015751473
0.0015751473
0.0015751473
0.0015751473
0.0015751473
0.0015751473
0.0015751473
0.0015751473
0.0015751473
0.0015751473
0.0015751473
0.0015751473
0.0015751473
0.0015751473
0.0015751473
0.0015751473
0.0015751473
0.0015751473
0.0015751473
0.0015751473
0.0029414596
0.0029414596
0.0029414596
0.0029414596
0.0029414596
0.0029414596
0.0029414596
0.0029414596
0.0029414596
0.0029414596
0.0029414596
0.0029414596
0.0029414596
0.0029414596
0.0029414596
0.0029414596
0.0029414596
0.0029414596
0.0029414596

Reset = 31
0.0019425354
0.0019425354
0.0019425354
0.0019425354
0.0019425354
0.0019425354
0.0019425354
0.0019425354
0.0019425354
0.0019425354
0.0019425354
0.0019425354
0.0019425354
0.0019425354
0.0019425354
0.0019425354
0.0019425354
0.0019425354
0.0019425354
0.0019425354
0.0019425354
0.0017186605
0.0017186605
0.0017186605
0.0017186605
0.0021720983
0.0021720983
0.0021720983
0.0021720983
0.0021720983
0.0021720983
0.0021720983
0.0015628093
0.0015628093
0.0015628093
0.0015628093
0.0015628093
0.0015628093
0.0015628093
0.0015628093
0.0015628093
0.0015628093
0.0015628093
0.0015628093
0.0017743861
0.0017743861
0.0017743861
0.0017743861
0.0017743861
0.0017743861
0.0019982039
0.0019982039
0.0019982039
0.0019982039
0.0019982039
0.0019982039
0.0019982039
0.0019982039
0.0019982039
0.0019982039
0.0019982039
0.0034270288
0.0034270288
0.0034270288
0.0034270288
0.0034270288
0.0034270288
0.0034270288
0.0034270288
0.0034270288
0.0032759192
0.0032759192
0.0032759192
0.0032759192
0.0032759192
0.0032759192
0.0032759192
0.0032759192
0.0032759192
0.0032759192
0.0032759192
0.0032759192
0.0032759192
0.0032759192
0.0032759192
0.0032759192
0.0032759192
0.0032759192
0.0032759192
0.0032759192
0.0032759192
0.0032759192
0.0032759192
0.0032759192
0.0032759192
0.0032759192
0.0032759192
0.0032759192
0.0032759192
0.0032759192

Reset = 32
0.0099915313
0.0099915313
0.0100578147
0.0008387824
0.0008387824
0.0008387824
0.0008387824
0.0009726208
0.0009531780
0.0009531780
0.0009339856
0.0009339856
0.0009339856
0.0009339856
0.0009339856
0.0009339856
0.0009339856
0.0009339856
0.0009339856
0.0009339856
0.0009339856
0.0009339856
0.0010917987
0.0014169198
0.0014169198
0.0014169198
0.0014169198
0.0014169198
0.0014169198
0.0014169198
0.0014169198
0.0014169198
0.0014169198
0.0014169198
0.0014169198
0.0014169198
0.0014169198
0.0014169198
0.0014169198
0.0014109127
0.0014109127
0.0014109127
0.0014109127
0.0014109127
0.0014109127
0.0014109127
0.0014109127
0.0014109127
0.0014109127
0.0014109127
0.0014109127
0.0014109127
0.0014109127
0.0014109127
0.0014109127
0.0014109127
0.0014109127
0.0014109127
0.0014109127
0.0014109127
0.0014109127
0.0014109127
0.0014109127
0.0014109127
0.0014109127
0.0014109127
0.0017400208
0.0017400208
0.0017400208
0.0017400208
0.0017400208
0.0017400208
0.0017400208
0.0017400208
0.0017400208
0.0017400208
0.0017400208
0.0017400208
0.0018821790
0.0018821790
0.0018821790
0.0018821790
0.0018821790
0.0020909363
0.0020909363
0.0020909363
0.0020192867
0.0020192867
0.0020192867
0.0020192867
0.0020192867
0.0020192867
0.0020192867
0.0020192867
0.0020192867
0.0020192867
0.0020192867
0.0020192867
0.0020192867
0.0020192867

Reset = 33
0.0228767068
0.0217300323
0.0217300323
0.0011422092
0.0011422092
0.0010029169
0.0010029169
0.0010029169
0.0010029169
0.0010029169
0.0010029169
0.0015074285
0.0015074285
0.0015074285
0.0015074285
0.0015074285
0.0015074285
0.0015074285
0.0015074285
0.0015074285
0.0015074285
0.0015074285
0.0015074285
0.0015074285
0.0015074285
0.0015074285
0.0015074285
0.0015074285
0.0015074285
0.0015074285
0.0015074285
0.0015074285
0.0015420813
0.0026145312
0.0026145312
0.0026145312
0.0026145312
0.0026145312
0.0026145312
0.0026145312
0.0026145312
0.0026145312
0.0026145312
0.0026145312
0.0026145312
0.0026145312
0.0026145312
0.0026145312
0.0026145312
0.0026145312
0.0026145312
0.0026145312
0.0026145312
0.0026145312
0.0026145312
0.0026145312
0.0026145312
0.0026145312
0.0026145312
0.0024223969
0.0026752683
0.0026752683
0.0026752683
0.0026752683
0.0026752683
0.0026752683
0.0026752683
0.0026752683
0.0026752683
0.0026752683
0.0026752683
0.0026752683
0.0026752683
0.0026752683
0.0026752683
0.0026752683
0.0026752683
0.0026752683
0.0026752683
0.0026752683
0.0021877055
0.0021877055
0.0021877055
0.0021877055
0.0021877055
0.0021877055
0.0021877055
0.0021877055
0.0021877055
0.0021877055
0.0021877055
0.0021877055
0.0021877055
0.0021877055
0.0021877055
0.0032246077
0.0032246077
0.0032246077
0.0032246077
0.0032246077

Reset = 34
0.0228052650
0.0234750417
0.0012277119
0.0012277119
0.0012277119
0.0012277119
0.0018169252
0.0018169252
0.0018169252
0.0018169252
0.0018169252
0.0018169252
0.0018169252
0.0018169252
0.0018169252
0.0018169252
0.0018169252
0.0018169252
0.0014310424
0.0014310424
0.0014310424
0.0014310424
0.0014310424
0.0014310424
0.0014310424
0.0014310424
0.0018808279
0.0023883944
0.0023883944
0.0023883944
0.0023883944
0.0023883944
0.0023477278
0.0023477278
0.0023477278
0.0023477278
0.0023477278
0.0019637587
0.0019637587
0.0019637587
0.0019637587
0.0019637587
0.0019637587
0.0019637587
0.0019637587
0.0019637587
0.0019637587
0.0019637587
0.0019637587
0.0019637587
0.0019637587
0.0019637587
0.0019637587
0.0019637587
0.0019637587
0.0019637587
0.0019637587
0.0019637587
0.0019637587
0.0019637587
0.0020129745
0.0020129745
0.0020129745
0.0020129745
0.0020129745
0.0020129745
0.0020129745
0.0020129745
0.0020129745
0.0020129745
0.0020129745
0.0020986270
0.0020986270
0.0020986270
0.0020986270
0.0020986270
0.0020986270
0.0020986270
0.0020986270
0.0020986270
0.0020986270
0.0020986270
0.0020986270
0.0020986270
0.0020986270
0.0020986270
0.0020986270
0.0020986270
0.0020986270
0.0020986270
0.0020986270
0.0020986270
0.0020986270
0.0020986270
0.0020986270
0.0020986270
0.0020986270
0.0020986270
0.0020986270
0.0020986270

Reset = 35
0.0078772595
0.0078772595
0.0085341893
0.0086832369
0.0009932366
0.0009932366
0.0016944030
0.0016944030
0.0016944030
0.0016944030
0.0016944030
0.0016944030
0.0016944030
0.0016944030
0.0016944030
0.0016944030
0.0016944030
0.0016944030
0.0019882453
0.0019882453
0.0019882453
0.0019882453
0.0019882453
0.0019882453
0.0017621111
0.0017621111
0.0017621111
0.0017621111
0.0017621111
0.0017621111
0.0017621111
0.0017621111
0.0017621111
0.0017621111
0.0017621111
0.0017621111
0.0017621111
0.0017621111
0.0020651559
0.0020651559
0.0017824573
0.0017824573
0.0017824573
0.0017824573
0.0017824573
0.0017824573
0.0017824573
0.0017824573
0.0017824573
0.0017824573
0.0017824573
0.0017824573
0.0017824573
0.0017824573
0.0017824573
0.0017824573
0.0017824573
0.0017824573
0.0017824573
0.0017824573
0.0020279380
0.0020279380
0.0020279380
0.0020279380
0.0044961549
0.0044961549
0.0044961549
0.0044961549
0.0044961549
0.0044961549
0.0044961549
0.0044961549
0.0044961549
0.0044961549
0.0044961549
0.0044961549
0.0044961549
0.0044961549
0.0044961549
0.0044961549
0.0044961549
0.0044961549
0.0044961549
0.0046694314
0.0046694314
0.0046694314
0.0046694314
0.0046694314
0.0046694314
0.0046694314
0.0046694314
0.0046694314
0.0046694314
0.0047171754
0.0047171754
0.0047171754
0.0047171754
0.0047171754
0.0047171754
0.0047171754

Reset = 36
0.0086187768
0.0006147764
0.0006147764
0.0018054663
0.0018054663
0.0024498553
0.0024498553
0.0024498553
0.0024498553
0.0024498553
0.0023048474
0.0023048474
0.0023048474
0.0023048474
0.0023048474
0.0023048474
0.0023048474
0.0023048474
0.0018788233
0.0036873056
0.0036873056
0.0036873056
0.0036873056
0.0036873056
0.0036873056
0.0036873056
0.0036873056
0.0036873056
0.0036873056
0.0036873056
0.0036873056
0.0036873056
0.0036873056
0.0036873056
0.0036873056
0.0036873056
0.0036873056
0.0036873056
0.0036873056
0.0036873056
0.0036873056
0.0036873056
0.0036873056
0.0036873056
0.0036873056
0.0036873056
0.0036873056
0.0036873056
0.0036873056
0.0036873056
0.0036873056
0.0036873056
0.0036873056
0.0036873056
0.0036873056
0.0036873056
0.0036873056
0.0036873056
0.0036873056
0.0036873056
0.0036873056
0.0036873056
0.0036873056
0.0036873056
0.0036873056
0.0036873056
0.0036873056
0.0036873056
0.0036873056
0.0036873056
0.0036873056
0.0036873056
0.0029064126
0.0029064126
0.0029064126
0.0029064126
0.0029064126
0.0029064126
0.0028770937
0.0028770937
0.0028770937
0.0028770937
0.0028770937
0.0028770937
0.0028770937
0.0028770937
0.0028770937
0.0028770937
0.0028770937
0.0028770937
0.0035295088
0.0035295088
0.0033688548
0.0033688548
0.0033688548
0.0034185012
0.0034185012
0.0034185012
0.0034185012
0.0034185012

Reset = 37
0.0082743891
0.0082743891
0.0090331198
0.0096044437
0.0017007202
0.0021252877
0.0021252877
0.0021252877
0.0016936176
0.0016936176
0.0016936176
0.0016936176
0.0016936176
0.0016936176
0.0016936176
0.0016936176
0.0016936176
0.0016936176
0.0016936176
0.0016936176
0.0016936176
0.0016936176
0.0016936176
0.0016936176
0.0016936176
0.0016936176
0.0016936176
0.0016936176
0.0016936176
0.0016936176
0.0016936176
0.0016936176
0.0016936176
0.0016936176
0.0016936176
0.0016936176
0.0016936176
0.0016936176
0.0016936176
0.0021494571
0.0026165802
0.0026165802
0.0026165802
0.0026165802
0.0026165802
0.0026165802
0.0026165802
0.0026165802
0.0026165802
0.0026165802
0.0015121023
0.0015121023
0.0015121023
0.0015121023
0.0015121023
0.0015121023
0.0015121023
0.0015121023
0.0015121023
0.0015121023
0.0024528272
0.0024528272
0.0024528272
0.0024528272
0.0024528272
0.0024528272
0.0024528272
0.0017772341
0.0017772341
0.0017772341
0.0017772341
0.0017772341
0.0017772341
0.0017772341
0.0017772341
0.0017772341
0.0017772341
0.0017772341
0.0017772341
0.0017772341
0.0017772341
0.0017772341
0.0017772341
0.0017772341
0.0017772341
0.0041209243
0.0041209243
0.0041209243
0.0041209243
0.0041209243
0.0041209243
0.0041209243
0.0041209243
0.0041209243
0.0041209243
0.0041209243
0.0041209243
0.0041209243
0.0041209243
0.0041209243

Reset = 38
0.0308363626
0.0012397878
0.0012397878
0.0012397878
0.0012397878
0.0012397878
0.0012397878
0.0018874682
0.0018874682
0.0018874682
0.0018874682
0.0018874682
0.0018874682
0.0018874682
0.0018874682
0.0018874682
0.0018874682
0.0018874682
0.0018874682
0.0018874682
0.0018874682
0.0018874682
0.0018874682
0.0018874682
0.0018874682
0.0018874682
0.0020916048
0.0020916048
0.0020916048
0.0020916048
0.0017744499
0.0017744499
0.0017744499
0.0017744499
0.0017744499
0.0017744499
0.0017744499
0.0017744499
0.0021093033
0.0021093033
0.0021093033
0.0021093033
0.0021093033
0.0021093033
0.0021093033
0.0021093033
0.0021093033
0.0021093033
0.0021093033
0.0021093033
0.0021093033
0.0021093033
0.0021093033
0.0021093033
0.0021093033
0.0021093033
0.0021093033
0.0021093033
0.0021093033
0.0021093033
0.0022758579
0.0023065050
0.0023065050
0.0023065050
0.0023065050
0.0023065050
0.0023065050
0.0023065050
0.0023065050
0.0023065050
0.0023065050
0.0023065050
0.0023065050
0.0023065050
0.0023065050
0.0023065050
0.0023065050
0.0023065050
0.0023065050
0.0023065050
0.0023065050
0.0023065050
0.0023065050
0.0023065050
0.0023065050
0.0023065050
0.0023065050
0.0023065050
0.0023065050
0.0023065050
0.0023065050
0.0023065050
0.0023065050
0.0023065050
0.0023065050
0.0023065050
0.0023065050
0.0023065050
0.0023065050
0.0023065050

Reset = 39
0.0079625873
0.0079625873
0.0079625873
0.0217504926
0.0217504926
0.0217504926
0.0217504926
0.0012412655
0.0012412655
0.0012412655
0.0012376358
0.0010956692
0.0010956692
0.0010956692
0.0010956692
0.0010956692
0.0010956692
0.0010956692
0.0010956692
0.0010956692
0.0010956692
0.0010170203
0.0010170203
0.0014907915
0.0016171538
0.0016171538
0.0016171538
0.0016171538
0.0012304469
0.0012304469
0.0013523891
0.0013523891
0.0013523891
0.0013523891
0.0013523891
0.0013523891
0.0013523891
0.0013523891
0.0013523891
0.0013523891
0.0013523891
0.0013523891
0.0031111054
0.0028363162
0.0028363162
0.0028363162
0.0028363162
0.0028363162
0.0028363162
0.0028363162
0.0028363162
0.0041856168
0.0041856168
0.0041856168
0.0041856168
0.0041856168
0.0041856168
0.0041856168
0.0041856168
0.0041856168
0.0041856168
0.0043210315
0.0043210315
0.0043210315
0.0043210315
0.0043210315
0.0039281309
0.0039281309
0.0039281309
0.0039281309
0.0039281309
0.0039281309
0.0039281309
0.0039281309
0.0039281309
0.0039281309
0.0039281309
0.0039281309
0.0039281309
0.0048137299
0.0048137299
0.0048137299
0.0048137299
0.0048137299
0.0037598470
0.0037598470
0.0037598470
0.0037598470
0.0047014219
0.0047014219
0.0047014219
0.0047014219
0.0047014219
0.0045794238
0.0045794238
0.0045794238
0.0045794238
0.0045794238
0.0045794238
0.0045794238

Reset = 40
0.0227151662
0.0014400189
0.0014400189
0.0014400189
0.0014400189
0.0014400189
0.0008097844
0.0010904556
0.0010904556
0.0010904556
0.0013346683
0.0013346683
0.0021273380
0.0021273380
0.0021273380
0.0021273380
0.0021273380
0.0021273380
0.0021273380
0.0021273380
0.0021273380
0.0021273380
0.0021273380
0.0021273380
0.0021273380
0.0021273380
0.0021273380
0.0021273380
0.0019900965
0.0017165765
0.0017165765
0.0017165765
0.0025781147
0.0025781147
0.0025781147
0.0025781147
0.0025781147
0.0025781147
0.0025781147
0.0020085564
0.0020085564
0.0020085564
0.0020085564
0.0020085564
0.0020085564
0.0020085564
0.0020085564
0.0020085564
0.0020085564
0.0020085564
0.0020085564
0.0020085564
0.0020085564
0.0020085564
0.0020085564
0.0020085564
0.0020085564
0.0020085564
0.0020085564
0.0020085564
0.0020085564
0.0020085564
0.0020085564
0.0020085564
0.0016354227
0.0016354227
0.0016354227
0.0016354227
0.0016354227
0.0016354227
0.0016354227
0.0016354227
0.0016354227
0.0016354227
0.0016354227
0.0016354227
0.0016354227
0.0016354227
0.0016354227
0.0016354227
0.0016354227
0.0016354227
0.0016354227
0.0016354227
0.0016354227
0.0016354227
0.0016354227
0.0016354227
0.0016354227
0.0016354227
0.0016354227
0.0016354227
0.0016354227
0.0016354227
0.0016354227
0.0016354227
0.0016354227
0.0016354227
0.0016354227
0.0016354227

Reset = 41
0.0230477114
0.0230477114
0.0230477114
0.0087529793
0.0087529793
0.0090101677
0.0090101677
0.0014773706
0.0014773706
0.0014773706
0.0014773706
0.0014773706
0.0014773706
0.0014773706
0.0014773706
0.0014773706
0.0014773706
0.0014773706
0.0014773706
0.0014773706
0.0014773706
0.0014773706
0.0022269668
0.0022269668
0.0022269668
0.0027956921
0.0027956921
0.0027956921
0.0027956921
0.0027958977
0.0027958977
0.0027958977
0.0027958977
0.0027958977
0.0027958977
0.0027958977
0.0027958977
0.0027958977
0.0027958977
0.0027958977
0.0027958977
0.0027958977
0.0027958977
0.0027958977
0.0030577715
0.0030577715
0.0030577715
0.0030577715
0.0030577715
0.0030577715
0.0030577715
0.0030577715
0.0030577715
0.0030577715
0.0030577715
0.0030577715
0.0030577715
0.0030577715
0.0030577715
0.0030577715
0.0030577715
0.0030577715
0.0041213087
0.0041213087
0.0041213087
0.0041213087
0.0041213087
0.0041213087
0.0041213087
0.0041213087
0.0041213087
0.0041213087
0.0041213087
0.0041213087
0.0041213087
0.0041213087
0.0041213087
0.0045214449
0.0045214449
0.0045214449
0.0045214449
0.0045214449
0.0045214449
0.0045214449
0.0045214449
0.0045214449
0.0045214449
0.0045214449
0.0045214449
0.0045214449
0.0045214449
0.0045214449
0.0045214449
0.0045214449
0.0045214449
0.0045214449
0.0045214449
0.0045214449
0.0045214449
0.0045214449

Reset = 42
0.0090595793
0.0008017389
0.0008017389
0.0008017389
0.0008017389
0.0008017389
0.0008017389
0.0015664964
0.0015664964
0.0014437334
0.0014437334
0.0014437334
0.0014437334
0.0014437334
0.0013245450
0.0013245450
0.0013245450
0.0013245450
0.0013245450
0.0013245450
0.0013245450
0.0013245450
0.0013245450
0.0013245450
0.0013245450
0.0013245450
0.0013245450
0.0013245450
0.0013245450
0.0013245450
0.0013245450
0.0013245450
0.0013245450
0.0013245450
0.0013245450
0.0013245450
0.0013245450
0.0013245450
0.0013245450
0.0018562349
0.0018562349
0.0018562349
0.0018562349
0.0018562349
0.0018562349
0.0018562349
0.0018562349
0.0018562349
0.0018562349
0.0018562349
0.0018562349
0.0018562349
0.0018562349
0.0018562349
0.0018562349
0.0018562349
0.0018562349
0.0021558506
0.0021558506
0.0021558506
0.0021558506
0.0021558506
0.0021558506
0.0021558506
0.0021558506
0.0021558506
0.0021558506
0.0021558506
0.0021558506
0.0021558506
0.0019647707
0.0019647707
0.0019647707
0.0019647707
0.0019647707
0.0019647707
0.0019647707
0.0019647707
0.0019647707
0.0019647707
0.0019647707
0.0019647707
0.0019647707
0.0019647707
0.0019647707
0.0019647707
0.0019647707
0.0019647707
0.0019647707
0.0019647707
0.0019647707
0.0019647707
0.0019647707
0.0019647707
0.0019647707
0.0019647707
0.0019647707
0.0019647707
0.0019647707
0.0019647707

Reset = 43
0.0055242183
0.0053204520
0.0011191203
0.0014332076
0.0018110491
0.0018110491
0.0018110491
0.0018110491
0.0018110491
0.0018110491
0.0018110491
0.0018110491
0.0018110491
0.0018110491
0.0018110491
0.0018110491
0.0016709581
0.0014722875
0.0014722875
0.0015679757
0.0015679757
0.0015679757
0.0015679757
0.0015679757
0.0017507597
0.0017507597
0.0017507597
0.0017507597
0.0017507597
0.0017507597
0.0017507597
0.0017507597
0.0017507597
0.0017507597
0.0017507597
0.0017507597
0.0017507597
0.0017507597
0.0017507597
0.0017507597
0.0017507597
0.0017507597
0.0017507597
0.0017507597
0.0017507597
0.0017507597
0.0017507597
0.0017507597
0.0017507597
0.0017507597
0.0017507597
0.0017507597
0.0017507597
0.0021084008
0.0021084008
0.0021084008
0.0021084008
0.0021084008
0.0019642967
0.0019642967
0.0019642967
0.0019642967
0.0019642967
0.0019642967
0.0019642967
0.0019642967
0.0019642967
0.0019642967
0.0019642967
0.0019642967
0.0019642967
0.0019642967
0.0019642967
0.0019642967
0.0019642967
0.0019642967
0.0019642967
0.0019642967
0.0019642967
0.0019642967
0.0019642967
0.0019642967
0.0019642967
0.0019642967
0.0019642967
0.0019642967
0.0019642967
0.0019642967
0.0019642967
0.0019642967
0.0026933516
0.0026933516
0.0026933516
0.0020885007
0.0020885007
0.0034825433
0.0034825433
0.0034825433
0.0034825433
0.0034825433

Reset = 44
0.0328455515
0.0012594911
0.0012594911
0.0012594911
0.0012594911
0.0012594911
0.0012594911
0.0012594911
0.0012594911
0.0008816744
0.0008816744
0.0008816744
0.0011354599
0.0011354599
0.0011095058
0.0016920485
0.0016920485
0.0016920485
0.0016920485
0.0016920485
0.0016920485
0.0016920485
0.0016920485
0.0016084251
0.0016084251
0.0016084251
0.0016084251
0.0016084251
0.0016084251
0.0016084251
0.0016084251
0.0016084251
0.0021629162
0.0021629162
0.0021629162
0.0021629162
0.0021629162
0.0040458789
0.0040458789
0.0040458789
0.0040458789
0.0042620528
0.0045196420
0.0045196420
0.0045196420
0.0045196420
0.0045196420
0.0045196420
0.0045196420
0.0045196420
0.0045196420
0.0045196420
0.0041271572
0.0041271572
0.0041271572
0.0041271572
0.0041271572
0.0041271572
0.0041271572
0.0041271572
0.0041271572
0.0041271572
0.0041271572
0.0041271572
0.0041271572
0.0041271572
0.0041271572
0.0041271572
0.0041271572
0.0041271572
0.0041271572
0.0041271572
0.0041271572
0.0041271572
0.0041271572
0.0041271572
0.0041271572
0.0041271572
0.0041271572
0.0041271572
0.0041271572
0.0041271572
0.0041271572
0.0041271572
0.0041271572
0.0041271572
0.0041271572
0.0041271572
0.0041271572
0.0041271572
0.0041271572
0.0041271572
0.0041271572
0.0041271572
0.0041271572
0.0041271572
0.0041271572
0.0041271572
0.0041271572
0.0041271572

Reset = 45
0.0086445192
0.0022412729
0.0022412729
0.0022412729
0.0022412729
0.0022412729
0.0022412729
0.0022412729
0.0022412729
0.0022412729
0.0022412729
0.0022412729
0.0014233941
0.0014233941
0.0014233941
0.0014233941
0.0014233941
0.0014233941
0.0014233941
0.0014233941
0.0014233941
0.0014233941
0.0014233941
0.0014233941
0.0014233941
0.0014233941
0.0014233941
0.0014233941
0.0014233941
0.0014233941
0.0014233941
0.0014233941
0.0014233941
0.0014233941
0.0014233941
0.0017330250
0.0017330250
0.0017330250
0.0017330250
0.0017330250
0.0017330250
0.0017330250
0.0017330250
0.0017330250
0.0031696836
0.0031696836
0.0031696836
0.0031696836
0.0031696836
0.0031696836
0.0031696836
0.0031696836
0.0031696836
0.0031696836
0.0031696836
0.0031696836
0.0031696836
0.0021043095
0.0030266174
0.0030266174
0.0030266174
0.0030266174
0.0030266174
0.0030266174
0.0030266174
0.0030266174
0.0030266174
0.0030266174
0.0030266174
0.0030266174
0.0030266174
0.0030266174
0.0030266174
0.0030266174
0.0030266174
0.0030266174
0.0030266174
0.0030266174
0.0030266174
0.0030266174
0.0030266174
0.0030266174
0.0030266174
0.0030266174
0.0030266174
0.0030266174
0.0030266174
0.0030266174
0.0030266174
0.0030266174
0.0030266174
0.0030266174
0.0030266174
0.0030266174
0.0030266174
0.0030266174
0.0030266174
0.0030266174
0.0033889674
0.0033889674

Reset = 46
0.0066681429
0.0079277466
0.0079277466
0.0017809498
0.0008615498
0.0008615498
0.0008615498
0.0016553987
0.0016553987
0.0016553987
0.0016553987
0.0016553987
0.0016553987
0.0016553987
0.0016553987
0.0016553987
0.0016553987
0.0016553987
0.0016553987
0.0016553987
0.0016553987
0.0016553987
0.0016553987
0.0016553987
0.0016553987
0.0016553987
0.0016553987
0.0016553987
0.0016553987
0.0016553987
0.0016553987
0.0016553987
0.0016553987
0.0016553987
0.0035303395
0.0035303395
0.0035303395
0.0035303395
0.0035303395
0.0035303395
0.0035303395
0.0035303395
0.0035303395
0.0045587262
0.0029899149
0.0029899149
0.0029899149
0.0029899149
0.0029899149
0.0029899149
0.0029899149
0.0029899149
0.0029899149
0.0029899149
0.0029899149
0.0029899149
0.0029899149
0.0029899149
0.0029899149
0.0029899149
0.0029899149
0.0029899149
0.0029899149
0.0029899149
0.0029899149
0.0029899149
0.0029899149
0.0029899149
0.0029899149
0.0029899149
0.0029899149
0.0029899149
0.0029899149
0.0029899149
0.0029899149
0.0052634916
0.0052634916
0.0052634916
0.0052634916
0.0052634916
0.0052634916
0.0052634916
0.0052634916
0.0052634916
0.0050260717
0.0050260717
0.0050260717
0.0050260717
0.0050260717
0.0050260717
0.0050260717
0.0050260717
0.0050260717
0.0050260717
0.0050260717
0.0050260717
0.0050260717
0.0050260717
0.0050260717
0.0050260717

Reset = 47
0.0208923867
0.0101367426
0.0101367426
0.0101367426
0.0101367426
0.0101367426
0.0101367426
0.0101367426
0.0101367426
0.0014002769
0.0013504976
0.0013504976
0.0013504976
0.0013504976
0.0013504976
0.0016419319
0.0026349940
0.0026349940
0.0026349940
0.0026349940
0.0026349940
0.0026976681
0.0026976681
0.0026976681
0.0026976681
0.0026976681
0.0026976681
0.0026976681
0.0026976681
0.0026976681
0.0026976681
0.0026976681
0.0026976681
0.0026976681
0.0026976681
0.0026976681
0.0026976681
0.0026976681
0.0026976681
0.0026976681
0.0026976681
0.0026976681
0.0026976681
0.0026976681
0.0026976681
0.0026976681
0.0026976681
0.0026976681
0.0026976681
0.0025792429
0.0025792429
0.0025792429
0.0025792429
0.0025792429
0.0025792429
0.0025792429
0.0025792429
0.0025792429
0.0025792429
0.0025792429
0.0021145173
0.0021145173
0.0021145173
0.0021145173
0.0021145173
0.0021145173
0.0021145173
0.0021145173
0.0021145173
0.0021145173
0.0021145173
0.0021145173
0.0021145173
0.0021145173
0.0021145173
0.0021145173
0.0021145173
0.0021145173
0.0021145173
0.0021145173
0.0021145173
0.0021145173
0.0021145173
0.0021145173
0.0021145173
0.0021145173
0.0021145173
0.0021145173
0.0021145173
0.0021145173
0.0021145173
0.0021145173
0.0021145173
0.0025911920
0.0025911920
0.0025911920
0.0025911920
0.0025911920
0.0025911920
0.0025911920

Reset = 48
0.0246366789
0.0091783863
0.0091783863
0.0091783863
0.0091783863
0.0091783863
0.0091783863
0.0016532524
0.0016532524
0.0017930588
0.0017930588
0.0017930588
0.0017930588
0.0017930588
0.0017930588
0.0017930588
0.0017930588
0.0015422692
0.0015422692
0.0015422692
0.0015422692
0.0015422692
0.0015422692
0.0015888609
0.0015888609
0.0015888609
0.0015888609
0.0015888609
0.0015888609
0.0015888609
0.0015888609
0.0015888609
0.0015888609
0.0015888609
0.0015888609
0.0015888609
0.0015888609
0.0021524941
0.0021524941
0.0021524941
0.0021524941
0.0021524941
0.0021524941
0.0021524941
0.0017017394
0.0020052487
0.0020052487
0.0020052487
0.0020052487
0.0020052487
0.0020052487
0.0020052487
0.0020052487
0.0020052487
0.0020052487
0.0020052487
0.0020052487
0.0020052487
0.0020052487
0.0020052487
0.0020052487
0.0020052487
0.0020052487
0.0020052487
0.0020052487
0.0020052487
0.0020052487
0.0020052487
0.0020052487
0.0020052487
0.0020052487
0.0020052487
0.0020052487
0.0020052487
0.0020052487
0.0020052487
0.0020052487
0.0020052487
0.0020052487
0.0020052487
0.0020052487
0.0020052487
0.0020052487
0.0018789249
0.0018789249
0.0018789249
0.0018789249
0.0018789249
0.0018789249
0.0018789249
0.0018789249
0.0050369877
0.0050369877
0.0050369877
0.0050369877
0.0050369877
0.0050369877
0.0050369877
0.0050369877
0.0050369877

Reset = 49
0.0095977296
0.0095977296
0.0095977296
0.0015939707
0.0015939707
0.0015939707
0.0013324686
0.0020096143
0.0020096143
0.0020096143
0.0020096143
0.0020096143
0.0020096143
0.0020096143
0.0020096143
0.0020096143
0.0020096143
0.0013810702
0.0023630764
0.0023630764
0.0023630764
0.0045389911
0.0045389911
0.0045389911
0.0045389911
0.0045389911
0.0045389911
0.0045389911
0.0045389911
0.0045389911
0.0045389911
0.0045389911
0.0045389911
0.0045389911
0.0045389911
0.0045389911
0.0045389911
0.0045389911
0.0045389911
0.0045389911
0.0045389911
0.0045389911
0.0045389911
0.0045389911
0.0045389911
0.0045389911
0.0045389911
0.0045389911
0.0045389911
0.0045389911
0.0045389911
0.0045389911
0.0045389911
0.0045389911
0.0045389911
0.0045389911
0.0045389911
0.0045389911
0.0045389911
0.0045389911
0.0045389911
0.0045389911
0.0045389911
0.0045389911
0.0045389911
0.0045389911
0.0045389911
0.0045389911
0.0045389911
0.0045389911
0.0045389911
0.0045389911
0.0045389911
0.0049423923
0.0049423923
0.0049423923
0.0049423923
0.0049423923
0.0049423923
0.0049423923
0.0049423923
0.0049423923
0.0049423923
0.0049423923
0.0049423923
0.0049423923
0.0049423923
0.0049423923
0.0049423923
0.0049423923
0.0049423923
0.0049423923
0.0049423923
0.0049423923
0.0049423923
0.0049423923
0.0049423923
0.0049423923
0.0049423923
0.0049423923

Reset = 50
0.0094056900
0.0094056900
0.0012506416
0.0012506416
0.0010327804
0.0010327804
0.0010327804
0.0010327804
0.0010327804
0.0014065721
0.0014065721
0.0014065721
0.0014065721
0.0014065721
0.0023103064
0.0023103064
0.0023103064
0.0023103064
0.0023103064
0.0023103064
0.0023103064
0.0022744971
0.0022744971
0.0022744971
0.0022744971
0.0022744971
0.0022744971
0.0017155575
0.0017155575
0.0017155575
0.0017155575
0.0017155575
0.0017155575
0.0017155575
0.0017155575
0.0017155575
0.0017155575
0.0018272095
0.0018272095
0.0018272095
0.0018272095
0.0018272095
0.0018272095
0.0018272095
0.0018272095
0.0018272095
0.0018272095
0.0018272095
0.0018272095
0.0018272095
0.0018272095
0.0018272095
0.0018272095
0.0018272095
0.0018272095
0.0018272095
0.0018272095
0.0018272095
0.0018272095
0.0018272095
0.0018272095
0.0018272095
0.0018272095
0.0018272095
0.0018272095
0.0018272095
0.0018272095
0.0018272095
0.0018272095
0.0018272095
0.0018272095
0.0018272095
0.0018272095
0.0018272095
0.0018272095
0.0045143347
0.0045143347
0.0045143347
0.0045143347
0.0045143347
0.0045143347
0.0045143347
0.0045143347
0.0045143347
0.0045143347
0.0045143347
0.0045143347
0.0040527100
0.0040527100
0.0040527100
0.0040527100
0.0040527100
0.0040527100
0.0040527100
0.0040527100
0.0040527100
0.0040527100
0.0040527100
0.0040527100
0.0040527100

Reset = 51
0.0101292678
0.0101292678
0.0101292678
0.0101292678
0.0082878056
0.0082878056
0.0082878056
0.0006341335
0.0006341335
0.0006341335
0.0006341335
0.0006341335
0.0011701345
0.0021476857
0.0021476857
0.0021476857
0.0029509493
0.0029509493
0.0029509493
0.0029509493
0.0029509493
0.0029509493
0.0026539365
0.0026539365
0.0026539365
0.0026539365
0.0026539365
0.0026539365
0.0026539365
0.0026539365
0.0026539365
0.0026539365
0.0026539365
0.0026539365
0.0026539365
0.0026539365
0.0026539365
0.0026539365
0.0026539365
0.0026539365
0.0026539365
0.0026539365
0.0026539365
0.0032517381
0.0032517381
0.0032517381
0.0032517381
0.0032517381
0.0032517381
0.0032517381
0.0032517381
0.0032517381
0.0032517381
0.0032517381
0.0032517381
0.0032517381
0.0032517381
0.0032517381
0.0032517381
0.0032517381
0.0032517381
0.0032517381
0.0032517381
0.0032517381
0.0032517381
0.0032517381
0.0032517381
0.0032517381
0.0046645588
0.0046645588
0.0046645588
0.0046645588
0.0046645588
0.0046645588
0.0046645588
0.0046645588
0.0046645588
0.0046645588
0.0046645588
0.0046645588
0.0046645588
0.0046645588
0.0046645588
0.0046645588
0.0046645588
0.0046645588
0.0046645588
0.0046645588
0.0046645588
0.0046645588
0.0046645588
0.0046645588
0.0046645588
0.0046645588
0.0046645588
0.0046645588
0.0046645588
0.0046645588
0.0046645588
0.0046645588

Reset = 52
0.0083497989
0.0085340568
0.0087696322
0.0087696322
0.0094544339
0.0094544339
0.0094544339
0.0094544339
0.0011749768
0.0011749768
0.0011749768
0.0011749768
0.0011749768
0.0011749768
0.0011749768
0.0011749768
0.0011749768
0.0011749768
0.0011749768
0.0011749768
0.0011749768
0.0011749768
0.0011749768
0.0011749768
0.0011749768
0.0011749768
0.0011749768
0.0011749768
0.0011550468
0.0010739468
0.0010739468
0.0015133510
0.0015133510
0.0015133510
0.0015133510
0.0011753469
0.0011753469
0.0011753469
0.0011753469
0.0011753469
0.0011753469
0.0011753469
0.0011753469
0.0011753469
0.0011753469
0.0011753469
0.0011753469
0.0011753469
0.0011753469
0.0011753469
0.0011753469
0.0011753469
0.0011753469
0.0011753469
0.0011753469
0.0011753469
0.0011753469
0.0011753469
0.0011753469
0.0011753469
0.0018558245
0.0018558245
0.0018558245
0.0018558245
0.0018558245
0.0018558245
0.0018558245
0.0013384653
0.0013384653
0.0013384653
0.0013384653
0.0013384653
0.0013384653
0.0013384653
0.0020630168
0.0020630168
0.0020630168
0.0020630168
0.0020630168
0.0020630168
0.0020630168
0.0020630168
0.0020630168
0.0020630168
0.0020630168
0.0020630168
0.0020630168
0.0020630168
0.0020630168
0.0020630168
0.0020630168
0.0020630168
0.0020630168
0.0020630168
0.0020630168
0.0017278384
0.0017278384
0.0017278384
0.0017278384
0.0017278384

Reset = 53
0.0086475015
0.0086475015
0.0086475015
0.0086475015
0.0011299863
0.0011299863
0.0011299863
0.0011299863
0.0011299863
0.0020436654
0.0020436654
0.0020436654
0.0020436654
0.0020436654
0.0032123107
0.0032123107
0.0032123107
0.0032123107
0.0033300151
0.0033300151
0.0033300151
0.0033300151
0.0033300151
0.0033300151
0.0039225829
0.0044327680
0.0044327680
0.0044327680
0.0044327680
0.0044327680
0.0044327680
0.0044327680
0.0044327680
0.0044327680
0.0044327680
0.0044327680
0.0044327680
0.0044327680
0.0044327680
0.0044327680
0.0044327680
0.0044327680
0.0044327680
0.0044327680
0.0044327680
0.0044327680
0.0044327680
0.0044327680
0.0044327680
0.0044327680
0.0044327680
0.0039278459
0.0039278459
0.0039278459
0.0039278459
0.0039278459
0.0039278459
0.0039278459
0.0039278459
0.0039278459
0.0039278459
0.0039278459
0.0039278459
0.0039278459
0.0039278459
0.0039278459
0.0039278459
0.0039278459
0.0039278459
0.0039278459
0.0039278459
0.0039278459
0.0039278459
0.0039278459
0.0039278459
0.0039278459
0.0039278459
0.0039278459
0.0039278459
0.0039278459
0.0039278459
0.0043108571
0.0043108571
0.0043108571
0.0043108571
0.0043108571
0.0043108571
0.0043108571
0.0043108571
0.0043108571
0.0043108571
0.0049569022
0.0049569022
0.0049569022
0.0049569022
0.0049569022
0.0049569022
0.0049569022
0.0049569022
0.0049569022

Reset = 54
0.0079569680
0.0075806496
0.0109178061
0.0109178061
0.0109178061
0.0109178061
0.0109178061
0.0010283297
0.0010283297
0.0010283297
0.0016805170
0.0016805170
0.0016805170
0.0016805170
0.0016805170
0.0012749053
0.0012749053
0.0012749053
0.0015750754
0.0015750754
0.0015750754
0.0015750754
0.0015750754
0.0018363785
0.0018363785
0.0018363785
0.0018363785
0.0018363785
0.0018363785
0.0018363785
0.0018363785
0.0018363785
0.0018363785
0.0018363785
0.0018363785
0.0018363785
0.0018363785
0.0018363785
0.0018363785
0.0018363785
0.0018363785
0.0018015288
0.0018015288
0.0018015288
0.0018015288
0.0018015288
0.0018015288
0.0018015288
0.0018015288
0.0018015288
0.0018015288
0.0018015288
0.0018015288
0.0018015288
0.0018015288
0.0018015288
0.0016156183
0.0016156183
0.0016156183
0.0016156183
0.0016156183
0.0016156183
0.0016156183
0.0016156183
0.0016156183
0.0016156183
0.0018259826
0.0018259826
0.0018259826
0.0018259826
0.0018259826
0.0018259826
0.0018259826
0.0018259826
0.0018259826
0.0018259826
0.0018259826
0.0016527348
0.0016527348
0.0016527348
0.0016527348
0.0016527348
0.0016527348
0.0016527348
0.0016527348
0.0016527348
0.0016527348
0.0016527348
0.0016527348
0.0016527348
0.0016527348
0.0016527348
0.0016527348
0.0016527348
0.0016527348
0.0016527348
0.0016527348
0.0026648535
0.0026648535
0.0026648535

Reset = 55
0.0010604265
0.0013436734
0.0013436734
0.0013436734
0.0013109110
0.0013109110
0.0013109110
0.0013109110
0.0013109110
0.0013109110
0.0013109110
0.0017354785
0.0017354785
0.0017354785
0.0017354785
0.0017354785
0.0017354785
0.0017354785
0.0017354785
0.0017354785
0.0017354785
0.0017354785
0.0017354785
0.0017354785
0.0017354785
0.0017354785
0.0017354785
0.0017354785
0.0017354785
0.0017354785
0.0017354785
0.0017354785
0.0017354785
0.0017354785
0.0017354785
0.0016078915
0.0016078915
0.0016078915
0.0016078915
0.0016078915
0.0016078915
0.0016078915
0.0016078915
0.0038419025
0.0047755540
0.0047755540
0.0047755540
0.0047755540
0.0047755540
0.0047755540
0.0047755540
0.0047755540
0.0047755540
0.0047755540
0.0047755540
0.0047755540
0.0047755540
0.0047755540
0.0048927676
0.0048927676
0.0048927676
0.0048927676
0.0048927676
0.0048927676
0.0048927676
0.0048927676
0.0048927676
0.0048927676
0.0048927676
0.0048927676
0.0048927676
0.0048927676
0.0048927676
0.0048927676
0.0048927676
0.0048927676
0.0048927676
0.0048927676
0.0048927676
0.0048927676
0.0048927676
0.0048927676
0.0048927676
0.0048927676
0.0048927676
0.0048927676
0.0051624672
0.0051624672
0.0051624672
0.0051624672
0.0051624672
0.0051624672
0.0051624672
0.0051624672
0.0051624672
0.0051624672
0.0051624672
0.0051624672
0.0051624672
0.0051624672

Reset = 56
0.0013363165
0.0016994828
0.0016994828
0.0016994828
0.0029644858
0.0029644858
0.0029644858
0.0029644858
0.0029644858
0.0029644858
0.0029644858
0.0029644858
0.0029644858
0.0028097069
0.0028097069
0.0037879437
0.0037879437
0.0037879437
0.0037879437
0.0028680792
0.0028680792
0.0028680792
0.0028680792
0.0028680792
0.0028680792
0.0028680792
0.0028680792
0.0028680792
0.0028680792
0.0028680792
0.0028680792
0.0028680792
0.0040756278
0.0040756278
0.0040756278
0.0040756278
0.0040756278
0.0040756278
0.0040756278
0.0040756278
0.0040756278
0.0040756278
0.0040756278
0.0040756278
0.0040756278
0.0040756278
0.0040756278
0.0040756278
0.0040756278
0.0040756278
0.0040756278
0.0040756278
0.0040756278
0.0033302039
0.0033302039
0.0033302039
0.0033302039
0.0033302039
0.0033302039
0.0033302039
0.0033302039
0.0033302039
0.0033302039
0.0033302039
0.0033302039
0.0033302039
0.0033302039
0.0033302039
0.0033302039
0.0033302039
0.0033302039
0.0033302039
0.0033302039
0.0033302039
0.0033302039
0.0033302039
0.0033302039
0.0033302039
0.0033302039
0.0033302039
0.0033302039
0.0033302039
0.0033302039
0.0033302039
0.0033302039
0.0033302039
0.0033302039
0.0033302039
0.0033302039
0.0033302039
0.0033302039
0.0033302039
0.0033302039
0.0033302039
0.0033302039
0.0052604488
0.0052604488
0.0052604488
0.0052604488
0.0052604488

Reset = 57
0.0086594535
0.0224967763
0.0224967763
0.0208844285
0.0208844285
0.0092976419
0.0011339635
0.0011339635
0.0011339635
0.0011339635
0.0011339635
0.0011339635
0.0011339635
0.0011339635
0.0011339635
0.0011921690
0.0011921690
0.0011921690
0.0013126975
0.0013126975
0.0013894087
0.0013894087
0.0013894087
0.0013894087
0.0013894087
0.0013894087
0.0013894087
0.0013894087
0.0013894087
0.0013894087
0.0013894087
0.0013894087
0.0013894087
0.0013894087
0.0013894087
0.0013894087
0.0013894087
0.0013894087
0.0013894087
0.0013894087
0.0013894087
0.0013894087
0.0013894087
0.0014217562
0.0014217562
0.0018317154
0.0018317154
0.0018317154
0.0018317154
0.0018317154
0.0018317154
0.0018317154
0.0018317154
0.0018317154
0.0018317154
0.0018317154
0.0018317154
0.0037049325
0.0037049325
0.0040640923
0.0040640923
0.0040640923
0.0040640923
0.0040640923
0.0044472794
0.0044472794
0.0044472794
0.0044472794
0.0044472794
0.0044472794
0.0044472794
0.0044472794
0.0044472794
0.0044472794
0.0044472794
0.0044472794
0.0044472794
0.0052663925
0.0052663925
0.0052663925
0.0052663925
0.0052663925
0.0052663925
0.0052663925
0.0049523681
0.0049523681
0.0049523681
0.0049523681
0.0049523681
0.0049523681
0.0049523681
0.0049523681
0.0049523681
0.0049523681
0.0049523681
0.0049523681
0.0049523681
0.0049523681
0.0047542341
0.0047542341

Reset = 58
0.0012842655
0.0012842655
0.0012842655
0.0012842655
0.0012842655
0.0012842655
0.0012842655
0.0014034038
0.0014034038
0.0014034038
0.0014034038
0.0014034038
0.0014034038
0.0014034038
0.0014034038
0.0014034038
0.0014034038
0.0014034038
0.0018022165
0.0018022165
0.0018022165
0.0018022165
0.0018022165
0.0018022165
0.0018022165
0.0018022165
0.0018022165
0.0018022165
0.0018022165
0.0018022165
0.0018022165
0.0018022165
0.0018022165
0.0018022165
0.0018022165
0.0018022165
0.0018022165
0.0018022165
0.0018022165
0.0018022165
0.0018022165
0.0018022165
0.0018022165
0.0018022165
0.0018679680
0.0018679680
0.0018679680
0.0018679680
0.0019816584
0.0019816584
0.0019816584
0.0019816584
0.0019816584
0.0018337159
0.0018337159
0.0018337159
0.0018337159
0.0018337159
0.0018337159
0.0018337159
0.0018337159
0.0018337159
0.0018337159
0.0018337159
0.0018337159
0.0018337159
0.0018337159
0.0018337159
0.0018337159
0.0018337159
0.0018337159
0.0018337159
0.0018337159
0.0018337159
0.0018337159
0.0018337159
0.0018337159
0.0018337159
0.0032758873
0.0032758873
0.0032758873
0.0032758873
0.0032758873
0.0032758873
0.0032758873
0.0032758873
0.0039261268
0.0039261268
0.0039261268
0.0039261268
0.0039261268
0.0039261268
0.0039261268
0.0039261268
0.0039261268
0.0039261268
0.0039261268
0.0039261268
0.0039261268
0.0039261268

Reset = 59
0.0091616972
0.0091616972
0.0091616972
0.0091616972
0.0091616972
0.0091616972
0.0091616972
0.0091616972
0.0018004318
0.0018004318
0.0018004318
0.0018004318
0.0018004318
0.0020098803
0.0020098803
0.0018492237
0.0018492237
0.0018492237
0.0018492237
0.0018492237
0.0018492237
0.0018492237
0.0018492237
0.0018492237
0.0018492237
0.0018492237
0.0018492237
0.0018492237
0.0018492237
0.0018492237
0.0018492237
0.0018492237
0.0018492237
0.0018492237
0.0018492237
0.0018492237
0.0017000737
0.0017000737
0.0018712558
0.0018712558
0.0019833551
0.0019833551
0.0019833551
0.0019833551
0.0019833551
0.0019833551
0.0019833551
0.0019833551
0.0019833551
0.0019833551
0.0019833551
0.0019833551
0.0019833551
0.0019833551
0.0019833551
0.0019833551
0.0019833551
0.0019833551
0.0019833551
0.0019833551
0.0019833551
0.0019833551
0.0019833551
0.0019833551
0.0019833551
0.0019833551
0.0019833551
0.0019833551
0.0019833551
0.0019833551
0.0019833551
0.0019833551
0.0019833551
0.0019833551
0.0019833551
0.0020478058
0.0020478058
0.0020478058
0.0020478058
0.0020478058
0.0020478058
0.0020478058
0.0020478058
0.0020478058
0.0020478058
0.0020478058
0.0020478058
0.0020478058
0.0020478058
0.0020478058
0.0020478058
0.0020478058
0.0020478058
0.0020478058
0.0020478058
0.0021871251
0.0021871251
0.0021577133
0.0021577133
0.0021577133

Reset = 60
0.0043144533
0.0089847397
0.0008217125
0.0010739091
0.0010739091
0.0012756310
0.0011148733
0.0014295026
0.0014295026
0.0014295026
0.0016446498
0.0016446498
0.0016446498
0.0034412738
0.0034412738
0.0034412738
0.0034412738
0.0034412738
0.0034412738
0.0034412738
0.0034412738
0.0034412738
0.0034412738
0.0034412738
0.0034412738
0.0034412738
0.0034412738
0.0032006799
0.0032006799
0.0032006799
0.0032006799
0.0032006799
0.0032006799
0.0032006799
0.0032006799
0.0032006799
0.0032006799
0.0032006799
0.0032006799
0.0032006799
0.0032006799
0.0032006799
0.0032006799
0.0032006799
0.0032006799
0.0032006799
0.0032006799
0.0032006799
0.0032006799
0.0032006799
0.0032006799
0.0042225688
0.0042225688
0.0042225688
0.0042225688
0.0042225688
0.0042225688
0.0042225688
0.0042225688
0.0042225688
0.0042225688
0.0042225688
0.0042225688
0.0042225688
0.0042225688
0.0042225688
0.0042225688
0.0042225688
0.0042225688
0.0042225688
0.0042225688
0.0042225688
0.0042225688
0.0042225688
0.0042225688
0.0042225688
0.0042225688
0.0042225688
0.0042225688
0.0036019080
0.0036019080
0.0036019080
0.0035760429
0.0035760429
0.0035760429
0.0035760429
0.0035760429
0.0035760429
0.0035760429
0.0035760429
0.0035760429
0.0035760429
0.0035760429
0.0035760429
0.0035760429
0.0035653020
0.0035653020
0.0035653020
0.0035653020
0.0034526127

Reset = 61
0.0007050511
0.0007050511
0.0007050511
0.0020264973
0.0020264973
0.0020264973
0.0020264973
0.0013155319
0.0013155319
0.0021154717
0.0021154717
0.0021154717
0.0021154717
0.0017032854
0.0017032854
0.0021878499
0.0020558845
0.0020558845
0.0020558845
0.0020558845
0.0020558845
0.0020558845
0.0020558845
0.0020558845
0.0020558845
0.0020558845
0.0020558845
0.0020558845
0.0020558845
0.0020558845
0.0020558845
0.0020558845
0.0020558845
0.0020558845
0.0020558845
0.0020558845
0.0020558845
0.0020558845
0.0020558845
0.0020558845
0.0020558845
0.0020558845
0.0020558845
0.0020558845
0.0020558845
0.0020558845
0.0020558845
0.0020558845
0.0020558845
0.0020558845
0.0020558845
0.0020558845
0.0020558845
0.0020558845
0.0045714268
0.0045714268
0.0045714268
0.0045714268
0.0045714268
0.0045714268
0.0045714268
0.0045714268
0.0045714268
0.0045714268
0.0045714268
0.0045714268
0.0045714268
0.0045714268
0.0045714268
0.0045714268
0.0045714268
0.0045714268
0.0045714268
0.0045714268
0.0045714268
0.0045714268
0.0045714268
0.0045714268
0.0045714268
0.0045714268
0.0045714268
0.0045714268
0.0045714268
0.0045714268
0.0045714268
0.0045714268
0.0045714268
0.0045714268
0.0045714268
0.0045714268
0.0045714268
0.0045714268
0.0045714268
0.0045714268
0.0045714268
0.0045714268
0.0045714268
0.0045714268
0.0045714268
0.0045714268

Reset = 62
0.0061783282
0.0303770022
0.0294937951
0.0294937951
0.0011599578
0.0011599578
0.0011599578
0.0011599578
0.0021677834
0.0021677834
0.0021677834
0.0021677834
0.0019534460
0.0019534460
0.0019534460
0.0019534460
0.0019534460
0.0019534460
0.0019534460
0.0019534460
0.0019534460
0.0019534460
0.0019534460
0.0019534460
0.0023819487
0.0023819487
0.0023819487
0.0023819487
0.0029768615
0.0029768615
0.0029768615
0.0029768615
0.0029768615
0.0029768615
0.0029768615
0.0029768615
0.0029768615
0.0029768615
0.0029768615
0.0029768615
0.0029768615
0.0029768615
0.0029768615
0.0029768615
0.0029768615
0.0029768615
0.0029768615
0.0029768615
0.0029768615
0.0029768615
0.0029768615
0.0029768615
0.0029768615
0.0029768615
0.0031833659
0.0031833659
0.0031833659
0.0031833659
0.0031833659
0.0031833659
0.0031833659
0.0031833659
0.0031833659
0.0031833659
0.0031833659
0.0031833659
0.0031833659
0.0031833659
0.0031833659
0.0031833659
0.0031663435
0.0031663435
0.0031663435
0.0031663435
0.0031663435
0.0031567758
0.0031567758
0.0031567758
0.0031567758
0.0031567758
0.0031567758
0.0031567758
0.0031567758
0.0034834368
0.0034834368
0.0034834368
0.0034834368
0.0034834368
0.0034834368
0.0034834368
0.0034834368
0.0034834368
0.0034834368
0.0034834368
0.0034834368
0.0034834368
0.0034834368
0.0034834368
0.0034834368
0.0034834368

Reset = 63
0.0008892669
0.0008892669
0.0008892669
0.0008892669
0.0011616000
0.0011616000
0.0010088250
0.0010088250
0.0010088250
0.0010088250
0.0010088250
0.0010088250
0.0010088250
0.0010088250
0.0010088250
0.0022577290
0.0022577290
0.0016209162
0.0019289093
0.0019289093
0.0019289093
0.0019289093
0.0016540465
0.0016540465
0.0016540465
0.0015339512
0.0015339512
0.0016933800
0.0016933800
0.0016933800
0.0016933800
0.0016933800
0.0016933800
0.0016933800
0.0016933800
0.0016933800
0.0016933800
0.0016933800
0.0016933800
0.0016933800
0.0016933800
0.0016933800
0.0016933800
0.0016933800
0.0021681738
0.0021681738
0.0021681738
0.0021681738
0.0021681738
0.0021681738
0.0021681738
0.0021681738
0.0021681738
0.0021681738
0.0021681738
0.0021681738
0.0021681738
0.0021681738
0.0021681738
0.0021681738
0.0021681738
0.0021681738
0.0021681738
0.0021681738
0.0021681738
0.0021681738
0.0021681738
0.0021681738
0.0021681738
0.0021681738
0.0021681738
0.0021681738
0.0021681738
0.0026288739
0.0026288739
0.0026288739
0.0026288739
0.0035078090
0.0038593795
0.0038593795
0.0038593795
0.0038593795
0.0038593795
0.0038593795
0.0038593795
0.0038593795
0.0038593795
0.0046605218
0.0046605218
0.0046605218
0.0046605218
0.0046605218
0.0046605218
0.0046605218
0.0046605218
0.0046605218
0.0046605218
0.0046605218
0.0046605218
0.0046605218

Reset = 64
0.0089980887
0.0089980887
0.0086347209
0.0086347209
0.0086347209
0.0086347209
0.0086347209
0.0088243292
0.0088243292
0.0088243292
0.0006123746
0.0014488796
0.0014488796
0.0014488796
0.0010995357
0.0010995357
0.0015337153
0.0015337153
0.0015337153
0.0015337153
0.0016574131
0.0016574131
0.0016574131
0.0016574131
0.0016574131
0.0016574131
0.0016574131
0.0016574131
0.0016574131
0.0016574131
0.0016574131
0.0016574131
0.0016574131
0.0016574131
0.0016574131
0.0016574131
0.0016574131
0.0016574131
0.0016574131