**** Best Individual - #gen:100 ****
ChromeSize: 55	Kernels: 13	Fitness: 0.9088514437
Chromosome: [0 0 1 1 0 0 0 0 0 0 1 0 0 0 1 0 0 0 0 0 1 1 0 0 0 0 0 0 0 0 0 0 0 0 0 1 1 1 1 0 1 1 1 0 0 0 0 0 0 0 0 0 0 0 0]
Kernels: [2 3 10 14 20 21 35 36 37 38 40 41 42]
W: [0.9822412306 0.0122166405 -0.0111421258 0.0824918988 -0.0038054876 -0.0140218754 -0.0396479574 0.0132896506 -0.0171568795 0.0041356949 -0.0263387690 -0.0195655993 -0.0116026748]
Time: 10m00s