**** Best Individual - #gen:100 ****
ChromeSize: 55	Kernels: 13	Fitness: 0.9013463707
Chromosome: [0 0 1 0 1 0 1 0 0 0 0 0 0 1 1 0 0 0 0 0 0 1 0 0 1 1 0 0 0 0 0 0 0 0 0 1 0 0 0 0 1 1 0 0 1 0 0 0 0 0 1 0 0 0 0]
Kernels: [2 4 6 13 14 21 24 25 35 40 41 44 50]
W: [0.9908672695 0.0257410398 0.0089352546 -0.0096156779 0.0679369290 -0.0200155453 -0.0153864027 -0.0040681207 -0.0309637776 -0.0255105580 0.0198976718 -0.0075939163 0.0044450891]
Time: 10m00s