**** Best Individual - #gen:100 ****
ChromeSize: 55	Kernels: 10	Fitness: 0.5702632530
Chromosome: [1 0 0 0 0 0 1 1 0 0 1 1 0 0 0 1 0 0 1 0 0 0 0 0 0 0 0 1 0 0 0 0 1 1 0 0 0 0 0 0 0 0 0 0 0 0 0 0 0 0 0 0 0 0 0]
Kernels: [0 6 7 10 11 15 18 27 32 33]
W: [0.6072494781 -0.0259080684 0.0233609626 1.1991081662 0.7948246448 0.0164611554 0.0142355530 0.0218068476 0.0202157696 0.0131958985]
Time: 01m58s