**** Best Individual - #gen:100 ****
ChromeSize: 55	Kernels: 10	Fitness: 0.6050968218
Chromosome: [1 0 0 0 0 0 0 0 0 0 1 1 0 0 0 0 0 0 0 0 0 1 0 0 0 0 0 0 1 1 1 0 0 1 0 0 0 0 0 0 0 0 1 0 0 0 0 0 0 0 0 0 1 0 0]
Kernels: [0 10 11 21 28 29 30 33 42 52]
W: [0.5933400652 1.1981285412 0.7851256728 0.0087713891 0.0206349867 0.0106309679 0.0247512544 0.0284015057 0.0089216520 -0.0042210898]
Time: 01m56s