**** Best Individual - #gen:100 ****
ChromeSize: 55	Kernels: 32	Fitness: 0.8615930996
Chromosome: [1 1 1 0 1 1 1 1 1 1 1 1 1 1 1 1 1 1 1 1 0 0 0 0 1 0 1 1 1 0 1 0 0 1 0 0 0 0 0 1 1 0 0 0 0 1 1 0 1 0 1 0 0 0 1]
Kernels: [0 1 2 4 5 6 7 8 9 10 11 12 13 14 15 16 17 18 19 24 26 27 28 30 33 39 40 45 46 48 50 54]
W: [0.3517192940 0.2363069238 0.1306929494 -0.1105560313 0.3442682401 0.2894616029 0.2321766554 0.1645264238 0.0905439984 0.2472731809 0.1878369837 0.1236483077 0.0633037915 0.1392585744 0.0959638231 0.0427993340 0.0507113030 0.0111028802 -0.0173483353 -0.0013856249 0.0015322739 -0.0063087198 0.0056415349 0.0011231911 0.0050967340 0.0087249683 -0.0056220901 -0.0037771978 -0.0037261770 0.0022376938 -0.0024487561 -0.0034522645]
Time: 07m18s