**** Best Individual - #gen:100 ****
ChromeSize: 55	Kernels: 27	Fitness: 0.9858113394
Chromosome: [1 1 1 1 1 1 1 1 1 1 1 1 1 1 1 1 1 1 1 1 1 0 0 0 0 0 0 0 0 0 0 1 0 0 0 0 1 0 0 0 0 0 0 0 0 0 0 0 0 0 1 0 1 1 1]
Kernels: [0 1 2 3 4 5 6 7 8 9 10 11 12 13 14 15 16 17 18 19 20 31 36 50 52 53 54]
W: [0.3460921369 0.2374817017 0.1180841306 -0.0045666263 -0.1254746300 0.3454354369 0.2943116085 0.2297517941 0.1646355988 0.0927686751 0.2433197473 0.1902039773 0.1299026880 0.0654092157 0.1415447052 0.0906508991 0.0356473859 0.0495582950 0.0090839463 -0.0225340599 0.0015678545 0.0018821054 0.0011576046 0.0015670058 0.0005746462 0.0030370956 0.0005525889]
Time: 05m46s