**** Best Individual - #gen:100 ****
ChromeSize: 55	Kernels: 28	Fitness: 0.9861800647
Chromosome: [1 1 1 1 1 1 1 1 1 1 1 1 1 1 1 1 1 1 1 1 0 0 0 0 0 0 1 0 0 0 0 0 0 0 0 0 1 0 0 0 0 1 1 1 0 1 1 1 0 0 0 0 0 0 0]
Kernels: [0 1 2 3 4 5 6 7 8 9 10 11 12 13 14 15 16 17 18 19 26 36 41 42 43 45 46 47]
W: [0.3539690305 0.2436200007 0.1217561608 -0.0062237779 -0.1257568462 0.3460175812 0.2885596655 0.2323136964 0.1659706504 0.0961871043 0.2441773982 0.1878285718 0.1293567157 0.0673174965 0.1412260004 0.0889879661 0.0357734207 0.0490183423 0.0097494848 -0.0217813644 -0.0013317972 0.0012090712 -0.0010782938 -0.0017923128 0.0025850791 -0.0007007337 0.0017249323 0.0005221839]
Time: 05m21s