**** Best Individual - #gen:100 ****
ChromeSize: 55	Kernels: 25	Fitness: 0.9859053945
Chromosome: [1 1 1 0 1 1 1 1 1 1 1 1 1 1 1 1 1 1 1 1 0 0 0 0 0 0 0 1 0 0 0 0 0 0 0 0 1 0 0 1 0 0 0 0 0 0 0 1 0 0 1 0 0 0 1]
Kernels: [0 1 2 4 5 6 7 8 9 10 11 12 13 14 15 16 17 18 19 27 36 39 47 50 54]
W: [0.3529580773 0.2393578697 0.1228057234 -0.1219018345 0.3451558333 0.2893624312 0.2270574985 0.1633664405 0.0929105222 0.2450974335 0.1892690425 0.1276059991 0.0675423424 0.1420068407 0.0890706366 0.0391036143 0.0487078860 0.0065731401 -0.0229821249 0.0019966904 -0.0012705403 0.0003689005 -0.0007361340 -0.0016515097 -0.0003580375]
Time: 04m37s