Generations   Fitness        Kernels <= 25   Time
10            0.9255987983   21              00m00s
20            0.9388937295   25              00m00s
30            0.9476936593   25              00m00s
40            0.9406104164   24              00m00s
50            0.9480458587   25              00m00s
60            0.9543476563   25              00m00s
70            0.9536505160   25              00m00s
80            0.9544129076   25              00m00s
90            0.9545010933   23              00m01s
100           0.9538737580   25              00m01s