Generations   Fitness        Kernels <= 10   Time
10            0.5260319854    9              10m13s
20            0.5247862026    9              10m35s
30            0.5243590391   10              10m26s
40            0.5248640399   10              10m53s
50            0.5249194664   10              10m18s
60            0.4448256222   10              10m21s
70            0.4301864458   10              10m11s
80            0.5226060629   10              10m37s
90            0.4423915467   10              10m19s
100           0.4545202954   10              10m14s