**** Best Individual - #gen:10 ****
ChromeSize: 55	Kernels: 8	Fitness: 0.4184407016
Chromosome: [0 0 1 0 0 1 0 0 0 0 1 1 1 0 0 0 0 0 0 0 0 1 0 0 1 0 0 0 0 0 0 0 0 0 0 0 0 0 0 0 0 0 0 0 0 0 0 1 0 0 0 0 0 0 0]
Kernels: [2 5 10 11 12 21 24 47]
W: [0.0017837861 -0.0123482728 1.2315245215 0.7353744432 -0.0297255927 -0.0074462755 -0.0336818363 0.0394184151]
Time: 53m31s


**** Best Individual - #gen:20 ****
ChromeSize: 55	Kernels: 8	Fitness: 0.2555179450
Chromosome: [0 0 1 0 0 0 0 0 0 0 1 0 0 0 0 0 0 0 1 0 0 0 1 0 0 0 0 0 0 0 0 0 1 0 0 0 0 0 0 0 0 1 0 0 1 0 0 0 1 0 0 0 0 0 0]
Kernels: [2 10 18 22 32 41 44 48]
W: [0.0167488791 1.2055784410 0.0084666219 -0.0549148738 0.1912392816 0.1058335525 0.0083506273 0.0398126647]
Time: 44m34s


**** Best Individual - #gen:30 ****
ChromeSize: 55	Kernels: 8	Fitness: 0.4917418101
Chromosome: [0 1 0 0 0 0 0 0 0 0 1 1 0 1 0 0 0 0 0 0 0 0 1 0 0 1 0 1 0 0 0 0 0 0 0 0 0 0 0 0 0 0 0 0 0 0 0 0 0 1 0 0 0 0 0]
Kernels: [1 10 11 13 22 25 27 49]
W: [-0.0061414127 1.1939264579 0.7944195701 0.0047830955 0.0089474413 0.2202087872 -0.0167211271 0.0517525609]
Time: 36m21s


**** Best Individual - #gen:40 ****
ChromeSize: 55	Kernels: 8	Fitness: 0.4071597348
Chromosome: [0 0 1 0 0 0 0 0 0 0 1 1 0 0 0 1 0 0 0 0 0 0 1 0 0 0 0 0 0 0 0 0 0 0 0 0 0 0 0 0 0 1 0 0 0 0 1 0 0 0 0 0 1 0 0]
Kernels: [2 10 11 15 22 41 46 52]
W: [0.0427054718 1.1980422441 0.7372137492 0.0314938690 -0.0342296681 -0.0098367664 -0.0088891547 -0.0053218798]
Time: 51m45s


**** Best Individual - #gen:50 ****
ChromeSize: 55	Kernels: 8	Fitness: 0.3328500523
Chromosome: [1 0 0 0 0 0 0 0 0 1 1 0 0 0 0 0 0 0 0 0 0 0 0 0 0 1 0 0 0 0 0 1 1 0 0 0 0 0 0 0 0 1 1 0 0 0 0 0 0 0 0 0 0 0 0]
Kernels: [0 9 10 25 31 32 41 42]
W: [0.6042417241 0.0128062859 1.2125246246 -0.0673229161 -0.0171787010 0.0077463681 0.0826341625 -0.0059953083]
Time: 70m08s


**** Best Individual - #gen:60 ****
ChromeSize: 55	Kernels: 8	Fitness: 0.2416727099
Chromosome: [0 1 0 0 0 0 0 0 0 0 1 0 0 0 0 0 0 0 0 0 0 0 0 0 0 0 0 0 1 0 0 0 0 0 0 0 0 1 0 0 1 0 0 0 0 0 0 1 0 0 0 1 0 1 0]
Kernels: [1 10 28 37 40 47 51 53]
W: [0.0065082735 1.2134595093 0.0957267383 -0.0578486064 -0.0009440942 -0.0205642839 0.0014692810 -0.0276102903]
Time: 64m08s


**** Best Individual - #gen:70 ****
ChromeSize: 55	Kernels: 8	Fitness: 0.2518825681
Chromosome: [0 0 0 0 0 1 1 0 0 0 1 0 0 0 0 0 0 1 0 0 0 0 0 0 0 0 0 1 0 0 0 0 1 1 0 0 0 0 0 0 0 0 0 0 0 0 0 0 1 0 0 0 0 0 0]
Kernels: [5 6 10 17 27 32 33 48]
W: [-0.0018289067 -0.0029094767 1.1964848506 -0.0329060349 0.0004070444 0.1955843851 0.0579608633 0.0348806472]
Time: 47m48s


**** Best Individual - #gen:80 ****
ChromeSize: 55	Kernels: 8	Fitness: 0.2593872924
Chromosome: [0 0 0 0 0 0 0 0 0 0 1 0 0 0 0 0 1 0 0 0 1 0 0 0 0 0 0 0 1 0 0 0 0 0 0 0 0 0 0 0 0 0 0 0 0 1 1 1 0 0 0 0 1 0 0]
Kernels: [10 16 20 28 45 46 47 52]
W: [1.1883697065 -0.0002592985 0.1239770369 0.0481426317 0.0137828866 -0.0603408336 -0.0323260370 0.0046126599]
Time: 46m13s


**** Best Individual - #gen:90 ****
ChromeSize: 55	Kernels: 8	Fitness: 0.5149703455
Chromosome: [0 0 0 0 0 0 0 0 0 0 1 1 0 0 1 0 0 0 0 0 0 0 0 0 0 0 0 0 0 0 0 0 1 0 1 0 0 0 1 0 0 0 0 0 0 0 0 1 0 0 0 1 0 0 0]
Kernels: [10 11 14 32 34 38 47 51]
W: [1.2252273868 0.7775094116 -0.0111379538 0.1212317602 0.1977920357 -0.0076164017 0.0075241522 0.0078772005]
Time: 58m05s


**** Best Individual - #gen:100 ****
ChromeSize: 55	Kernels: 7	Fitness: 0.2539951043
Chromosome: [0 0 1 0 0 0 0 0 0 0 1 0 0 0 0 0 0 0 0 0 0 1 0 0 0 1 0 0 0 0 0 0 0 0 1 0 0 0 0 0 0 1 0 0 0 0 1 0 0 0 0 0 0 0 0]
Kernels: [2 10 21 25 34 41 46]
W: [0.0372112829 1.2039454022 0.0171975012 0.0589744778 0.2190484167 0.0520138055 -0.0748112288]
Time: 46m24s