**** Best Individual - #gen:10 ****
ChromeSize: 55	Kernels: 9	Fitness: 0.5260319854
Chromosome: [1 0 0 0 0 0 0 1 0 0 1 1 0 0 0 0 0 0 0 0 0 0 0 0 0 0 0 1 0 0 0 0 0 0 1 0 1 0 0 0 0 0 0 0 0 0 0 0 0 0 0 1 0 1 0]
Kernels: [0 7 10 11 27 34 36 51 53]
W: [0.6156166422 0.0153004015 1.1857957325 0.8382760888 0.0303946886 0.0071157857 -0.0133648826 -0.0085871321 -0.0081379921]
Time: 10m13s


**** Best Individual - #gen:20 ****
ChromeSize: 55	Kernels: 9	Fitness: 0.5247862026
Chromosome: [1 0 0 0 0 0 1 0 1 0 1 1 1 0 0 0 0 0 0 0 0 0 0 0 1 0 0 0 0 0 0 0 0 0 0 0 0 1 0 0 0 0 1 0 0 0 0 0 0 0 0 0 0 0 0]
Kernels: [0 6 8 10 11 12 24 37 42]
W: [0.6464477814 0.0301854497 0.0038770017 1.1815825862 0.8306134534 0.0205079574 0.0064034765 0.0033850148 0.0133200700]
Time: 10m35s


**** Best Individual - #gen:30 ****
ChromeSize: 55	Kernels: 10	Fitness: 0.5243590391
Chromosome: [1 0 0 0 0 0 0 0 1 1 1 1 0 0 0 0 0 0 0 0 0 0 0 0 0 0 0 0 0 0 0 0 0 1 1 0 0 1 0 0 0 0 1 0 0 0 0 0 0 0 0 0 0 1 0]
Kernels: [0 8 9 10 11 33 34 37 42 53]
W: [0.6394715241 0.0150685851 -0.0190361553 1.1982070213 0.7915840338 0.0027077828 -0.0283435338 0.0091782677 -0.0216061244 -0.0170561655]
Time: 10m26s


**** Best Individual - #gen:40 ****
ChromeSize: 55	Kernels: 10	Fitness: 0.5248640399
Chromosome: [1 0 0 1 0 0 0 0 1 0 1 1 0 1 0 0 0 0 0 0 0 0 0 0 0 0 0 0 0 0 0 0 0 0 0 0 0 0 0 0 0 0 0 1 0 1 1 0 0 0 0 0 0 1 0]
Kernels: [0 3 8 10 11 13 43 45 46 53]
W: [0.6423239042 -0.0151117576 0.0026607794 1.1927250236 0.7761270067 -0.0216637017 0.0024751081 0.0109250704 -0.0082154471 0.0101220508]
Time: 10m53s


**** Best Individual - #gen:50 ****
ChromeSize: 55	Kernels: 10	Fitness: 0.5249194664
Chromosome: [1 0 1 1 0 1 0 0 0 0 1 1 0 0 0 0 0 0 1 0 0 0 0 0 0 0 0 0 0 0 0 1 0 0 0 0 0 0 0 0 0 0 0 0 0 0 0 0 1 0 0 0 0 0 1]
Kernels: [0 2 3 5 10 11 18 31 48 54]
W: [0.6114236836 -0.0301790904 0.0113679161 0.0135909914 1.1927608502 0.7768968100 -0.0087344577 -0.0416365797 0.0066827578 0.0113169315]
Time: 10m18s


**** Best Individual - #gen:60 ****
ChromeSize: 55	Kernels: 10	Fitness: 0.4448256222
Chromosome: [0 0 0 0 0 0 0 0 0 0 1 1 0 0 0 0 0 0 0 0 1 0 1 0 0 0 0 0 0 0 1 0 0 1 1 0 1 0 0 0 0 0 1 0 0 0 0 0 0 0 1 0 0 0 0]
Kernels: [10 11 20 22 30 33 34 36 42 50]
W: [1.2025631053 0.8844530502 0.0816795539 -0.0641288116 0.0359549283 0.0521467448 0.0836629159 0.0312687815 0.0001281138 -0.0041231477]
Time: 10m21s


**** Best Individual - #gen:70 ****
ChromeSize: 55	Kernels: 10	Fitness: 0.4301864458
Chromosome: [0 1 0 0 1 0 0 0 1 0 1 1 0 0 0 0 0 0 0 0 0 0 0 0 0 1 0 0 0 0 0 0 1 0 0 0 0 1 0 0 1 0 0 0 0 0 0 0 0 0 0 0 0 0 1]
Kernels: [1 4 8 10 11 25 32 37 40 54]
W: [-0.0074934292 -0.0489474949 0.0232829919 1.1662797404 0.8186954916 0.1298574451 0.1021947243 -0.0158199964 0.0569622620 0.0185505298]
Time: 10m11s


**** Best Individual - #gen:80 ****
ChromeSize: 55	Kernels: 10	Fitness: 0.5226060629
Chromosome: [1 0 0 0 1 1 0 1 0 0 1 1 0 0 0 0 0 0 1 0 0 0 0 0 0 1 0 0 0 1 0 0 0 0 0 0 0 0 0 0 0 0 0 1 0 0 0 0 0 0 0 0 0 0 0]
Kernels: [0 4 5 7 10 11 18 25 29 43]
W: [0.5718843678 0.0020836871 -0.0079551177 0.0114512536 1.2093675085 0.7717430402 0.0059414336 0.0195041218 -0.0045548064 -0.0043922295]
Time: 10m37s


**** Best Individual - #gen:90 ****
ChromeSize: 55	Kernels: 10	Fitness: 0.4423915467
Chromosome: [0 1 1 0 0 0 1 0 0 0 1 1 0 0 1 0 0 0 0 0 1 0 0 1 0 0 0 0 0 0 0 1 0 0 0 0 0 0 0 0 0 0 0 0 0 0 0 0 0 0 0 0 0 0 1]
Kernels: [1 2 6 10 11 14 20 23 31 54]
W: [-0.0147575986 -0.0073883343 0.0401003997 1.2159331178 0.8186924164 -0.0111796160 0.0916502545 -0.0066927758 0.0178652297 0.0006754742]
Time: 10m19s


**** Best Individual - #gen:100 ****
ChromeSize: 55	Kernels: 10	Fitness: 0.4545202954
Chromosome: [0 0 0 1 0 0 0 1 0 0 1 1 0 0 0 0 0 0 0 0 1 0 0 0 0 0 0 0 0 0 0 0 0 1 0 0 0 0 0 0 0 0 0 0 0 0 1 1 0 1 0 1 0 0 0]
Kernels: [3 7 10 11 20 33 46 47 49 51]
W: [-0.0465725087 0.0228582716 1.1879378783 0.7878610795 0.1013542342 0.0763236650 0.0144927880 -0.0188576870 0.0033329612 0.0054149293]
Time: 10m14s