**** Best Individual - #gen:100 ****
ChromeSize: 55	Kernels: 32	Fitness: 0.8866414139
Chromosome: [1 1 1 0 1 1 1 1 1 1 1 1 1 1 1 1 1 1 0 1 1 0 1 1 1 0 0 0 1 0 0 1 0 1 0 1 0 0 0 1 0 1 0 1 1 0 0 1 0 1 0 0 0 0 0]
Kernels: [0 1 2 4 5 6 7 8 9 10 11 12 13 14 15 16 17 19 20 22 23 24 28 31 33 35 39 41 43 44 47 49]
W: [0.3329726664 0.3003629117 0.1251156509 -0.1271033457 0.3470250585 0.2748026968 0.2240728373 0.1700543790 0.0934086275 0.2584121348 0.2018173998 0.1278432272 0.0589204320 0.1458884833 0.0957462964 0.0453847349 0.0377074946 -0.0136882591 0.0084719931 -0.0018266161 -0.0131080205 -0.0170807807 0.0108707734 -0.0292183202 0.0331597335 -0.0122363467 -0.0103843229 0.0001887326 0.0135242427 -0.0075862421 0.0111333291 0.0048691780]
Time: 01m45s