**** Best Individual - #gen:100 ****
ChromeSize: 55	Kernels: 27	Fitness: 0.8751361449
Chromosome: [1 1 1 0 1 1 1 1 1 1 1 1 1 1 1 1 1 1 0 1 0 0 0 0 0 0 0 0 0 0 1 0 0 0 0 1 0 1 0 0 1 0 1 0 0 0 0 0 1 0 1 0 1 1 0]
Kernels: [0 1 2 4 5 6 7 8 9 10 11 12 13 14 15 16 17 19 30 35 37 40 42 48 50 52 53]
W: [0.3467372975 0.2122457860 0.1241943346 -0.1462746843 0.3514269932 0.2920748509 0.2504969933 0.1654251863 0.0992778234 0.2424829546 0.1762316112 0.1159060074 0.0668223805 0.1295025161 0.0895914620 0.0322635319 0.0536391547 -0.0191617461 0.0191661579 0.0073720335 -0.0150482293 -0.0097992481 0.0174424601 -0.0156372780 0.0048131185 0.0223064623 -0.0025531973]
Time: 01m42s