**** Best Individual - #gen:100 ****
ChromeSize: 55	Kernels: 30	Fitness: 0.9868790926
Chromosome: [1 1 1 0 1 1 1 1 1 1 1 1 1 1 1 1 1 1 1 1 0 0 1 1 0 0 1 1 1 0 0 0 0 0 1 1 0 0 0 0 0 0 1 0 0 1 1 0 0 0 0 1 0 0 0]
Kernels: [0 1 2 4 5 6 7 8 9 10 11 12 13 14 15 16 17 18 19 22 23 26 27 28 34 35 42 45 46 51]
W: [0.3452477677 0.2435017634 0.1280734117 -0.1247726886 0.3431277328 0.2896242609 0.2285173647 0.1656758863 0.0918329979 0.2433627744 0.1827322585 0.1283154519 0.0614969710 0.1433883466 0.0901166460 0.0423940100 0.0533328166 0.0109015952 -0.0223439713 -0.0041307809 -0.0029983226 0.0070954676 -0.0099314591 -0.0039322691 0.0040819445 -0.0011433476 -0.0028098307 -0.0022199034 0.0080738891 -0.0030792913]
Time: 02m04s