**** Best Individual - #gen:100 ****
ChromeSize: 55	Kernels: 28	Fitness: 0.8734493455
Chromosome: [1 1 1 1 1 1 1 1 1 1 1 1 1 1 1 1 1 1 0 1 0 0 0 0 0 0 1 0 1 0 1 0 0 0 0 1 0 0 1 0 0 0 0 0 1 0 1 0 0 1 0 0 0 1 0]
Kernels: [0 1 2 3 4 5 6 7 8 9 10 11 12 13 14 15 16 17 19 26 28 30 35 38 44 46 49 53]
W: [0.3602981973 0.2549052552 0.1173392783 -0.0140745775 -0.1225259969 0.3466491363 0.2808216644 0.2307505117 0.1630214393 0.1028714999 0.2433231231 0.1870266982 0.1293920059 0.0630104726 0.1462014145 0.0954486501 0.0386428261 0.0463035718 -0.0241309078 0.0093389458 0.0072506270 -0.0011314779 -0.0050706573 -0.0006500493 0.0027653701 0.0077004114 -0.0090719891 0.0078666776]
Time: 05m28s