**** Best Individual - #gen:100 ****
ChromeSize: 55	Kernels: 28	Fitness: 0.8777134715
Chromosome: [1 1 1 0 1 1 1 1 1 1 1 1 1 1 1 1 1 1 1 1 0 0 1 0 1 0 0 0 1 0 0 1 0 0 1 0 1 0 1 0 0 0 1 0 1 0 0 0 0 0 0 0 0 0 0]
Kernels: [0 1 2 4 5 6 7 8 9 10 11 12 13 14 15 16 17 18 19 22 24 28 31 34 36 38 42 44]
W: [0.3512068576 0.2272124781 0.1348293572 -0.1267643460 0.3450137131 0.3005477368 0.2244656887 0.1683832704 0.0989849473 0.2432779109 0.1891099378 0.1281142390 0.0636258223 0.1466808056 0.0931199915 0.0299099266 0.0447571975 0.0098336520 -0.0275768132 -0.0035080522 0.0047596750 0.0059481394 0.0079885089 -0.0056431606 -0.0012303161 -0.0025174563 0.0048880347 0.0024154648]
Time: 05m22s