**** Best Individual - #gen:100 ****
ChromeSize: 55	Kernels: 31	Fitness: 0.8684195502
Chromosome: [1 1 1 0 1 1 1 1 1 1 1 1 1 1 1 1 1 1 0 1 0 1 0 0 1 0 1 1 0 0 0 0 0 0 0 1 1 0 0 1 0 0 0 0 0 0 1 0 1 1 0 1 1 1 0]
Kernels: [0 1 2 4 5 6 7 8 9 10 11 12 13 14 15 16 17 19 21 24 26 27 35 36 39 46 48 49 51 52 53]
W: [0.3481692658 0.2504872293 0.1150116723 -0.1253313695 0.3461568951 0.2981735308 0.2282236173 0.1642928891 0.0955790895 0.2386034271 0.1886222359 0.1188083983 0.0658523463 0.1436708595 0.0862872120 0.0456229981 0.0445040524 -0.0204122008 0.0069496069 0.0054010534 0.0088129688 -0.0102008548 -0.0048474277 0.0104039100 -0.0051288613 0.0004536484 -0.0055824041 0.0079272101 -0.0004578156 0.0031245097 0.0000930370]
Time: 06m26s