**** Best Individual - #gen:100 ****
ChromeSize: 55	Kernels: 13	Fitness: 0.5979291120
Chromosome: [1 0 0 1 0 0 1 0 0 0 1 1 1 0 1 0 0 0 0 1 0 0 1 0 1 0 0 0 0 0 0 1 0 0 0 0 0 0 0 0 0 0 0 0 0 0 0 0 0 1 0 1 0 0 0]
Kernels: [0 3 6 10 11 12 14 19 22 24 31 49 51]
W: [0.6084360256 -0.0297671012 0.0196467542 1.1974713136 0.7912308470 0.0259751159 0.0052814016 0.0153046254 -0.0097147128 0.0005305178 0.0136110772 0.0116298955 0.0090892099]
Time: 02m06s