**** Best Individual - #gen:100 ****
ChromeSize: 55	Kernels: 11	Fitness: 0.9485575798
Chromosome: [1 0 0 0 0 0 0 0 0 0 1 1 0 0 0 0 0 1 0 0 0 1 0 0 0 0 1 0 1 0 0 1 0 0 0 0 0 1 0 0 0 0 0 1 0 0 0 0 1 0 0 0 0 0 0]
Kernels: [0 10 11 17 21 26 28 31 37 43 48]
W: [0.5922355019 1.2020302060 0.7968226922 -0.0028976405 0.0039221721 0.0053500078 0.0038670534 0.0087632601 0.0025168631 0.0045661197 -0.0030778932]
Time: 02m00s