**** Best Individual - #gen:10 ****
ChromeSize: 55	Kernels: 27	Fitness: 0.9608289180
Chromosome: [1 1 0 1 1 1 1 1 1 0 1 1 1 0 1 1 0 0 1 1 0 0 0 0 0 0 1 0 0 0 1 0 1 1 1 0 0 0 1 0 1 0 0 1 1 1 0 0 0 0 1 0 1 0 0]
Kernels: [0 1 3 4 5 6 7 8 10 11 12 14 15 18 19 26 30 32 33 34 38 40 43 44 45 50 52]
W: [0.3391104050 0.2522661747 -0.0048101005 -0.1236689515 0.3578463522 0.2912261409 0.2351245649 0.1668480923 0.2489668615 0.1871047749 0.1286203996 0.1443326310 0.0842842289 0.0186926517 -0.0033241577 0.0199212048 0.0093922415 -0.0000510483 -0.0160757039 0.0076289599 -0.0050778506 0.0089396955 0.0076603543 0.0000868838 0.0183806044 0.0134713045 0.0009470946]
Time: 00m00s


**** Best Individual - #gen:20 ****
ChromeSize: 55	Kernels: 27	Fitness: 0.9792606307
Chromosome: [1 1 1 0 1 1 1 1 1 1 1 1 1 0 1 1 0 1 0 0 0 1 0 0 1 0 0 0 1 1 0 0 0 1 0 1 1 0 1 0 0 0 0 1 0 0 0 1 0 0 1 1 0 0 0]
Kernels: [0 1 2 4 5 6 7 8 9 10 11 12 14 15 17 21 24 28 29 33 35 36 38 43 47 50 51]
W: [0.3508710695 0.2417975559 0.1225052802 -0.1061792579 0.3448386181 0.2945682754 0.2353084719 0.1643672636 0.0911230267 0.2383080500 0.1786922194 0.1339294897 0.1345223897 0.0876952656 0.0459727070 -0.0001380173 -0.0064686639 -0.0003778946 0.0016110592 -0.0038746547 -0.0016735233 -0.0044055986 -0.0053337074 0.0046897973 -0.0011487890 -0.0053147466 -0.0006024111]
Time: 00m00s


**** Best Individual - #gen:30 ****
ChromeSize: 55	Kernels: 26	Fitness: 0.9761974783
Chromosome: [1 1 1 0 1 1 1 1 1 1 1 1 1 1 1 1 0 0 1 1 0 1 0 0 0 1 0 1 0 0 0 0 0 0 0 0 0 0 0 0 1 0 0 0 0 0 0 1 1 0 1 0 1 0 1]
Kernels: [0 1 2 4 5 6 7 8 9 10 11 12 13 14 15 18 19 21 25 27 40 47 48 50 52 54]
W: [0.3472511243 0.2392248203 0.1202617049 -0.1277611729 0.3632693618 0.2805271150 0.2379735226 0.1745131087 0.0882627751 0.2507264802 0.1870435992 0.1249433283 0.0578588191 0.1438804286 0.0878556730 0.0142240259 -0.0136332009 0.0088426577 -0.0008233931 -0.0025485175 0.0080119333 0.0038127055 0.0042336647 -0.0044670704 -0.0060728032 0.0024871567]
Time: 00m00s


**** Best Individual - #gen:40 ****
ChromeSize: 55	Kernels: 27	Fitness: 0.9795630444
Chromosome: [1 1 1 0 1 1 1 1 1 1 1 1 1 1 1 1 1 0 0 0 0 0 0 0 0 0 0 1 0 1 0 0 0 0 0 0 1 1 1 0 1 0 0 0 1 0 1 1 0 0 1 0 1 0 0]
Kernels: [0 1 2 4 5 6 7 8 9 10 11 12 13 14 15 16 27 29 36 37 38 40 44 46 47 50 52]
W: [0.3429006391 0.2361347966 0.1222886739 -0.1287430066 0.3538871123 0.2960634199 0.2352028796 0.1674616481 0.0908503020 0.2514398468 0.1840449357 0.1305803073 0.0624246130 0.1454239285 0.0869773016 0.0459564032 -0.0085478679 0.0012990267 -0.0022569926 -0.0042078463 0.0012630340 0.0078212157 0.0031210218 0.0013751590 0.0029115002 -0.0016355751 -0.0041704078]
Time: 00m00s


**** Best Individual - #gen:50 ****
ChromeSize: 55	Kernels: 26	Fitness: 0.9856512300
Chromosome: [1 1 1 1 1 1 1 1 1 1 1 1 1 1 1 1 1 1 0 1 0 0 0 1 0 0 0 0 0 0 0 0 0 1 0 1 1 1 0 1 0 0 0 0 0 0 0 0 0 1 0 0 0 0 0]
Kernels: [0 1 2 3 4 5 6 7 8 9 10 11 12 13 14 15 16 17 19 23 33 35 36 37 39 49]
W: [0.3510310451 0.2354204575 0.1173965462 -0.0040406785 -0.1191784349 0.3460620981 0.2903992624 0.2326410575 0.1639662946 0.0916305944 0.2393284982 0.1910652636 0.1265779562 0.0679139717 0.1429877916 0.0934801563 0.0343514754 0.0489952596 -0.0217733386 -0.0004966617 -0.0023099641 0.0009673692 -0.0015392146 -0.0043217598 -0.0015994056 0.0004342321]
Time: 00m00s


**** Best Individual - #gen:60 ****
ChromeSize: 55	Kernels: 27	Fitness: 0.9811831417
Chromosome: [1 1 0 0 1 1 1 1 1 1 1 1 1 1 1 1 1 1 1 0 0 0 1 1 0 0 1 0 0 0 0 1 1 0 1 0 0 0 0 0 1 0 0 0 0 1 0 0 0 0 1 1 0 0 0]
Kernels: [0 1 4 5 6 7 8 9 10 11 12 13 14 15 16 17 18 22 23 26 31 32 34 40 45 50 51]
W: [0.3470036548 0.2414317396 -0.1244337809 0.3435901543 0.2901472486 0.2291572966 0.1629691829 0.0942150984 0.2408818377 0.1914231595 0.1229252794 0.0619217692 0.1392969793 0.0923977362 0.0417752945 0.0449276216 0.0061966923 0.0122514717 -0.0006389888 0.0050513194 -0.0060993067 -0.0003020219 0.0055964587 -0.0083709707 0.0176762770 0.0140709303 -0.0008415047]
Time: 00m00s


**** Best Individual - #gen:70 ****
ChromeSize: 55	Kernels: 26	Fitness: 0.9858868381
Chromosome: [1 1 1 0 1 1 1 1 1 1 1 1 1 1 1 1 1 1 1 1 1 0 0 0 0 0 0 1 0 0 0 1 0 0 0 1 1 1 0 0 0 0 1 0 0 0 0 0 0 0 0 0 0 0 0]
Kernels: [0 1 2 4 5 6 7 8 9 10 11 12 13 14 15 16 17 18 19 20 27 31 35 36 37 42]
W: [0.3469258975 0.2319183857 0.1110651287 -0.1283617564 0.3471335365 0.2972764642 0.2275434641 0.1657637378 0.0900485912 0.2470347314 0.1903904246 0.1304224443 0.0719299821 0.1442198878 0.0825265177 0.0440435973 0.0475573523 0.0061872463 -0.0215645405 0.0007007734 -0.0068940951 -0.0029243904 0.0031502121 0.0056445268 0.0010560548 0.0013143587]
Time: 00m00s


**** Best Individual - #gen:80 ****
ChromeSize: 55	Kernels: 25	Fitness: 0.9858123457
Chromosome: [1 1 1 0 1 1 1 1 1 1 1 1 1 1 1 1 1 1 0 1 0 0 0 0 0 0 0 0 1 0 0 0 0 0 1 0 0 0 0 1 0 1 1 0 0 0 0 0 0 1 0 0 0 0 1]
Kernels: [0 1 2 4 5 6 7 8 9 10 11 12 13 14 15 16 17 19 28 34 39 41 42 49 54]
W: [0.3617227020 0.2350839086 0.1237426314 -0.1367651666 0.3454132974 0.2920315130 0.2322198004 0.1604956611 0.0943461236 0.2454038389 0.1947837865 0.1246087865 0.0698765286 0.1428957198 0.0925733845 0.0419955364 0.0492152784 -0.0224396795 -0.0004712570 -0.0040660584 0.0032954682 -0.0050229244 0.0008662952 -0.0018033685 0.0030351533]
Time: 00m01s


**** Best Individual - #gen:90 ****
ChromeSize: 55	Kernels: 26	Fitness: 0.9848914465
Chromosome: [1 1 1 1 1 1 1 1 1 1 1 1 1 1 1 1 1 1 0 0 1 0 0 0 0 0 0 0 0 0 1 0 1 1 0 0 0 0 1 0 1 0 0 0 0 0 0 1 0 0 0 0 0 1 0]
Kernels: [0 1 2 3 4 5 6 7 8 9 10 11 12 13 14 15 16 17 20 30 32 33 38 40 47 53]
W: [0.3587310117 0.2408670263 0.1142863057 0.0031314177 -0.1143151823 0.3422485546 0.2946889794 0.2322922773 0.1630620054 0.0895818573 0.2403805308 0.1865448909 0.1272215511 0.0617037384 0.1345254888 0.0875015985 0.0375882858 0.0474055434 -0.0008521983 -0.0086606437 -0.0023554584 0.0045487508 -0.0070586043 0.0029026170 0.0018653761 -0.0089392841]
Time: 00m01s


**** Best Individual - #gen:100 ****
ChromeSize: 55	Kernels: 27	Fitness: 0.9856382577
Chromosome: [1 1 1 1 1 1 1 1 1 1 1 1 1 1 1 1 1 1 0 1 0 0 0 1 1 0 0 0 0 1 0 1 0 0 0 1 0 0 0 0 0 1 0 0 1 1 0 0 0 0 0 0 0 0 0]
Kernels: [0 1 2 3 4 5 6 7 8 9 10 11 12 13 14 15 16 17 19 23 24 29 31 35 41 44 45]
W: [0.3509602460 0.2513144959 0.1206209241 0.0005058500 -0.1220581097 0.3506606656 0.2924449913 0.2387300565 0.1650338376 0.0977192456 0.2402848727 0.1929575913 0.1243674566 0.0648418015 0.1394561639 0.0885419297 0.0367660866 0.0469077746 -0.0170431185 -0.0016166828 -0.0008127993 -0.0013882245 0.0020453446 -0.0022893591 0.0058365181 0.0004053657 -0.0003160235]
Time: 00m01s