**** Best Individual - #gen:10 ****
ChromeSize: 55	Kernels: 26	Fitness: 0.9637856174
Chromosome: [1 1 1 1 0 1 1 1 1 1 1 1 1 0 1 0 1 1 1 0 1 1 0 0 0 1 1 0 0 1 0 0 0 0 1 1 0 1 1 0 0 0 1 0 0 0 0 0 0 0 0 0 0 0 0]
Kernels: [0 1 2 3 5 6 7 8 9 10 11 12 14 16 17 18 20 21 25 26 29 34 35 37 38 42]
W: [0.3507103613 0.2334785183 0.1253760965 0.0140461876 0.3350999592 0.3032377179 0.2466118442 0.1724922999 0.0839582588 0.2447630271 0.1847012880 0.1308202862 0.1377479715 0.0319736195 0.0502280892 0.0042648039 -0.0008879801 0.0020801086 -0.0042152788 -0.0053053329 0.0001619830 0.0013136837 0.0017809013 -0.0161108847 -0.0366639797 -0.0047135657]
Time: 00m00s


**** Best Individual - #gen:20 ****
ChromeSize: 55	Kernels: 30	Fitness: 0.9777898661
Chromosome: [1 1 1 0 1 1 1 1 1 1 1 1 1 1 1 1 0 0 0 1 1 0 0 1 1 0 0 0 0 1 1 0 1 0 0 0 0 1 0 1 0 1 0 1 0 0 0 1 1 0 0 1 0 0 1]
Kernels: [0 1 2 4 5 6 7 8 9 10 11 12 13 14 15 19 20 23 24 29 30 32 37 39 41 43 47 48 51 54]
W: [0.3524876465 0.2469509321 0.1175897231 -0.1262611751 0.3544888437 0.2898374485 0.2253667291 0.1728921193 0.0934444922 0.2556609137 0.1891510898 0.1254701393 0.0665443501 0.1435425229 0.0967634289 -0.0171266647 -0.0008995235 -0.0011971124 -0.0035795381 -0.0005466631 -0.0140170148 0.0010863178 0.0010906709 -0.0048340310 0.0009035943 0.0010432161 0.0030126472 0.0072666601 -0.0028801633 0.0025062201]
Time: 00m00s


**** Best Individual - #gen:30 ****
ChromeSize: 55	Kernels: 30	Fitness: 0.9807595388
Chromosome: [1 1 0 0 1 1 1 1 1 1 1 1 1 1 1 1 1 1 0 0 0 1 0 1 0 0 0 0 0 1 0 1 0 0 1 0 1 0 0 1 0 0 0 1 0 1 0 1 1 0 0 1 1 0 1]
Kernels: [0 1 4 5 6 7 8 9 10 11 12 13 14 15 16 17 21 23 29 31 34 36 39 43 45 47 48 51 52 54]
W: [0.3462932820 0.2374176678 -0.1331574302 0.3416140746 0.2956682823 0.2298008145 0.1616539373 0.0908995867 0.2383634726 0.1841755028 0.1294309372 0.0622748745 0.1412273663 0.0961768056 0.0416558537 0.0454473709 -0.0008993251 -0.0007716389 0.0036659956 0.0058455262 -0.0005852609 0.0189668590 -0.0032955039 0.0060562584 0.0178117114 0.0011729267 0.0193655856 -0.0012473147 -0.0011151060 0.0025886591]
Time: 00m00s


**** Best Individual - #gen:40 ****
ChromeSize: 55	Kernels: 28	Fitness: 0.9844370546
Chromosome: [1 1 1 0 1 1 1 1 1 1 1 1 1 1 1 1 1 1 1 0 0 1 0 0 0 0 0 0 0 1 0 1 0 1 0 0 1 1 0 0 0 0 1 0 0 0 0 0 0 0 0 0 1 1 1]
Kernels: [0 1 2 4 5 6 7 8 9 10 11 12 13 14 15 16 17 18 21 29 31 33 36 37 42 52 53 54]
W: [0.3524548164 0.2407814453 0.1208673492 -0.1380075790 0.3398134254 0.2975713890 0.2268566778 0.1627338442 0.0884970912 0.2367886171 0.1885214048 0.1252942938 0.0616871809 0.1359786692 0.0898069987 0.0342298072 0.0495649982 0.0114873840 -0.0022598257 -0.0009934263 0.0078558904 -0.0086528089 -0.0061106042 -0.0033350004 -0.0007331969 0.0064070766 -0.0013077306 0.0042894549]
Time: 00m00s


**** Best Individual - #gen:50 ****
ChromeSize: 55	Kernels: 30	Fitness: 0.9858843203
Chromosome: [1 1 1 0 1 1 1 1 1 1 1 1 1 1 1 1 1 1 0 1 1 1 1 0 1 0 0 0 0 0 0 0 0 1 0 0 1 1 0 0 1 1 0 0 0 0 0 1 0 0 1 0 0 0 1]
Kernels: [0 1 2 4 5 6 7 8 9 10 11 12 13 14 15 16 17 19 20 21 22 24 33 36 37 40 41 47 50 54]
W: [0.3475181180 0.2419744213 0.1268908189 -0.1349503636 0.3496928001 0.2924841993 0.2296540752 0.1626833415 0.1006202266 0.2426875682 0.1853187138 0.1271878042 0.0628847240 0.1407745570 0.0956259808 0.0334984974 0.0530451135 -0.0228889308 0.0007223150 -0.0041588542 0.0013107393 0.0035598919 0.0069558610 -0.0039104992 0.0047174224 -0.0062760019 -0.0020877140 -0.0031415505 0.0007064059 0.0003259032]
Time: 00m00s


**** Best Individual - #gen:60 ****
ChromeSize: 55	Kernels: 28	Fitness: 0.9857636162
Chromosome: [1 1 1 0 1 1 1 1 1 1 1 1 1 1 1 1 1 1 0 1 0 0 1 1 0 0 0 1 0 0 1 0 0 1 0 0 0 1 0 0 0 0 0 1 0 1 0 1 0 1 0 0 0 0 0]
Kernels: [0 1 2 4 5 6 7 8 9 10 11 12 13 14 15 16 17 19 22 23 27 30 33 37 43 45 47 49]
W: [0.3464049148 0.2426733915 0.1244324400 -0.1224727375 0.3432324257 0.2952651664 0.2383858851 0.1587992955 0.0969709379 0.2412972009 0.1915988487 0.1270927360 0.0639634859 0.1409262248 0.0923510484 0.0407394850 0.0542901110 -0.0176806889 -0.0022876219 -0.0002875037 -0.0063104784 0.0029613434 -0.0033138546 -0.0005738342 0.0063823888 -0.0007045771 0.0008853591 -0.0048906674]
Time: 00m00s


**** Best Individual - #gen:70 ****
ChromeSize: 55	Kernels: 29	Fitness: 0.9859625846
Chromosome: [1 1 1 0 1 1 1 1 1 1 1 1 1 1 1 1 1 1 1 1 1 1 0 0 1 0 1 0 0 0 1 1 0 0 0 0 1 0 0 0 0 0 0 1 0 0 1 0 1 0 0 0 0 0 0]
Kernels: [0 1 2 4 5 6 7 8 9 10 11 12 13 14 15 16 17 18 19 20 21 24 26 30 31 36 43 46 48]
W: [0.3553055023 0.2434072402 0.1260780094 -0.1238735072 0.3438630854 0.2889049410 0.2316021405 0.1690870641 0.0965267247 0.2459670448 0.1947737915 0.1260010533 0.0678446641 0.1421988984 0.0912479038 0.0461798144 0.0485214818 0.0168980918 -0.0247377923 -0.0007468891 -0.0040560926 0.0018535996 -0.0092941395 -0.0076502620 -0.0064600080 0.0020195037 0.0076581429 0.0017626706 -0.0041247459]
Time: 00m01s


**** Best Individual - #gen:80 ****
ChromeSize: 55	Kernels: 28	Fitness: 0.9859184427
Chromosome: [1 1 1 1 1 1 1 1 1 1 1 1 1 1 1 1 1 1 0 1 0 1 1 0 0 0 0 0 1 1 0 0 0 0 0 0 0 0 0 1 1 0 0 0 1 0 0 1 0 0 0 0 0 0 1]
Kernels: [0 1 2 3 4 5 6 7 8 9 10 11 12 13 14 15 16 17 19 21 22 28 29 39 40 44 47 54]
W: [0.3620558358 0.2445382848 0.1167446762 -0.0058764726 -0.1412611410 0.3461636198 0.2869130604 0.2215802598 0.1633905997 0.0963941980 0.2444564507 0.1833254204 0.1337631136 0.0673311907 0.1418868414 0.0911892081 0.0438666932 0.0468911385 -0.0248591747 0.0038891734 0.0004446864 -0.0018014166 -0.0053988572 -0.0035242796 0.0094166100 -0.0028451902 0.0004987313 0.0046526848]
Time: 00m01s


**** Best Individual - #gen:90 ****
ChromeSize: 55	Kernels: 29	Fitness: 0.9857318769
Chromosome: [1 1 1 0 1 1 1 1 1 1 1 1 1 1 1 1 1 1 1 1 0 0 0 1 0 0 0 1 1 0 1 0 1 0 0 0 1 0 1 0 0 1 0 0 1 1 0 0 0 0 0 0 0 0 0]
Kernels: [0 1 2 4 5 6 7 8 9 10 11 12 13 14 15 16 17 18 19 23 27 28 30 32 36 38 41 44 45]
W: [0.3502712660 0.2410559158 0.1319005755 -0.1277588825 0.3455857247 0.2888781243 0.2350334867 0.1608976280 0.0933711087 0.2426386699 0.1878147659 0.1279115947 0.0692065556 0.1440224728 0.0835998881 0.0350788997 0.0508753524 0.0080281495 -0.0218020527 0.0028859478 -0.0043461489 0.0058514373 0.0063401424 -0.0009740660 -0.0021127344 0.0051990226 0.0032305419 -0.0019111684 -0.0028521393]
Time: 00m01s


**** Best Individual - #gen:100 ****
ChromeSize: 55	Kernels: 30	Fitness: 0.9859307584
Chromosome: [1 1 1 0 1 1 1 1 1 1 1 1 1 1 1 1 1 1 0 1 1 0 0 0 1 0 0 1 0 0 1 1 0 1 1 0 1 0 0 0 0 0 1 0 1 0 0 0 0 0 0 0 1 1 0]
Kernels: [0 1 2 4 5 6 7 8 9 10 11 12 13 14 15 16 17 19 20 24 27 30 31 33 34 36 42 44 52 53]
W: [0.3452838242 0.2359222186 0.1162660348 -0.1263120807 0.3450678831 0.2838792459 0.2338168662 0.1671273242 0.0978385980 0.2418262965 0.1879206061 0.1317014779 0.0691169132 0.1440146804 0.0963573652 0.0337281722 0.0481344280 -0.0198975694 0.0012764090 -0.0003442980 0.0056937640 0.0032382529 0.0008335196 -0.0056380874 -0.0032359411 0.0017966141 0.0001814838 0.0022895081 0.0100973364 -0.0049041735]
Time: 00m01s