**** Best Individual - #gen:10 ****
ChromeSize: 55	Kernels: 25	Fitness: 0.9579462088
Chromosome: [1 1 0 1 0 1 1 1 1 1 1 1 1 0 1 0 0 0 1 1 1 1 0 0 1 0 0 0 0 0 0 1 0 0 0 1 0 0 0 1 1 0 1 0 0 1 0 1 1 0 0 0 0 0 0]
Kernels: [0 1 3 5 6 7 8 9 10 11 12 14 18 19 20 21 24 31 35 39 40 42 45 47 48]
W: [0.3438732606 0.2139782114 -0.0097264059 0.3536618876 0.2965460446 0.2451707247 0.1639927933 0.0826147955 0.2520821545 0.1948871740 0.1310500456 0.1457311704 0.0087471412 -0.0033473191 -0.0000874970 0.0014229930 -0.0353697961 -0.0117424982 -0.0022605090 0.0122563788 0.0107750387 0.0163423883 0.0163854964 -0.0207744945 0.0231626713]
Time: 00m00s


**** Best Individual - #gen:20 ****
ChromeSize: 55	Kernels: 25	Fitness: 0.9596850462
Chromosome: [1 0 1 0 0 1 1 1 1 1 1 1 1 0 1 1 0 0 0 1 0 1 0 0 1 0 1 1 0 0 0 0 0 0 0 1 0 1 1 0 1 0 1 0 0 0 0 0 0 0 0 0 1 1 1]
Kernels: [0 2 5 6 7 8 9 10 11 12 14 15 19 21 24 26 27 35 37 38 40 42 52 53 54]
W: [0.3479436388 0.1173681908 0.3605570639 0.2940851800 0.2345290944 0.1681899453 0.0839386755 0.2589800302 0.1841013689 0.1429134933 0.1412269603 0.0920863435 -0.0153620651 0.0410752381 -0.0235229923 0.0059209148 0.0010171017 0.0334943895 -0.0006059609 -0.0206136876 -0.0084934762 0.0424934360 -0.0191948940 -0.0036221929 -0.0112455793]
Time: 00m00s


**** Best Individual - #gen:30 ****
ChromeSize: 55	Kernels: 24	Fitness: 0.9750396203
Chromosome: [1 1 0 0 1 1 1 1 1 1 1 1 1 1 1 1 1 0 0 1 0 0 1 0 0 0 0 0 0 1 0 0 0 1 0 0 1 0 1 1 0 0 0 0 0 0 0 0 0 0 1 0 0 0 1]
Kernels: [0 1 4 5 6 7 8 9 10 11 12 13 14 15 16 19 22 29 33 36 38 39 50 54]
W: [0.3531183220 0.2474295737 -0.1408976636 0.3555490569 0.2858680498 0.2384558183 0.1697458223 0.0940838821 0.2591746448 0.1927254840 0.1345755950 0.0709149838 0.1455314495 0.0926190133 0.0485077667 -0.0190059523 0.0253690959 0.0049123576 -0.0123995614 0.0255950109 0.0067045256 -0.0053027699 0.0290384715 0.0009023145]
Time: 00m00s


**** Best Individual - #gen:40 ****
ChromeSize: 55	Kernels: 25	Fitness: 0.9778381840
Chromosome: [1 1 1 0 0 1 1 1 1 1 1 1 1 1 1 1 0 1 1 0 1 0 0 0 1 0 0 0 0 1 0 0 0 0 0 0 0 0 1 0 0 1 1 0 1 0 0 0 0 0 0 0 1 1 0]
Kernels: [0 1 2 5 6 7 8 9 10 11 12 13 14 15 17 18 20 24 29 38 41 42 44 52 53]
W: [0.3499862690 0.2295867356 0.1220122296 0.3382959458 0.2903881686 0.2269920150 0.1618580240 0.0918216848 0.2324311230 0.1916259314 0.1211800348 0.0565622119 0.1372911716 0.0948595841 0.0470406778 0.0082825409 0.0009993714 -0.0336571676 -0.0011498131 -0.0234335727 0.0033117279 0.0047576636 0.0037968730 -0.0219983592 -0.0050473842]
Time: 00m00s


**** Best Individual - #gen:50 ****
ChromeSize: 55	Kernels: 25	Fitness: 0.9799413789
Chromosome: [1 1 1 0 1 1 1 1 1 1 1 1 1 0 1 1 0 1 1 0 0 0 0 0 1 0 0 0 1 1 1 1 0 0 0 0 0 0 1 0 0 1 1 0 1 0 0 0 0 0 0 0 0 0 0]
Kernels: [0 1 2 4 5 6 7 8 9 10 11 12 14 15 17 18 24 28 29 30 31 38 41 42 44]
W: [0.3504625654 0.2245103197 0.1210766665 -0.1020413448 0.3378617540 0.2941737716 0.2360427647 0.1661326719 0.0853089837 0.2427669097 0.1860855207 0.1236257368 0.1356434810 0.0892036225 0.0485512110 0.0095167399 -0.0080471290 0.0056673591 0.0056232715 0.0016061815 -0.0099200116 -0.0075386711 0.0018916766 0.0046406322 0.0015156232]
Time: 00m00s


**** Best Individual - #gen:60 ****
ChromeSize: 55	Kernels: 24	Fitness: 0.9833987003
Chromosome: [1 1 1 1 1 1 1 1 1 1 1 1 1 1 1 1 0 1 1 0 0 0 0 0 0 0 0 0 0 0 1 0 0 0 1 0 0 0 0 0 0 0 0 0 0 1 1 1 0 0 0 0 0 0 1]
Kernels: [0 1 2 3 4 5 6 7 8 9 10 11 12 13 14 15 17 18 30 34 45 46 47 54]
W: [0.3548218327 0.2443585824 0.1216144293 0.0025890964 -0.1251473406 0.3426290733 0.2959075492 0.2317106629 0.1639427971 0.0892776121 0.2406845348 0.1914918145 0.1259312667 0.0673686694 0.1342070019 0.0836406727 0.0502598516 0.0069965314 -0.0044926486 -0.0029211498 -0.0005250472 0.0028401296 0.0030192614 0.0025037124]
Time: 00m00s


**** Best Individual - #gen:70 ****
ChromeSize: 55	Kernels: 24	Fitness: 0.9834684984
Chromosome: [1 1 1 0 1 1 1 1 1 1 1 1 1 1 1 1 0 1 0 0 0 0 0 1 1 0 0 0 1 0 0 0 0 0 0 0 1 0 1 0 0 1 0 0 0 0 1 0 0 0 0 0 0 0 1]
Kernels: [0 1 2 4 5 6 7 8 9 10 11 12 13 14 15 17 23 24 28 36 38 41 46 54]
W: [0.3493857368 0.2356153013 0.1277987637 -0.1247807619 0.3438382927 0.2976620785 0.2298678289 0.1648383874 0.0873117466 0.2362512010 0.1889543338 0.1308128548 0.0578727713 0.1358791467 0.0946210286 0.0470983541 0.0004136481 -0.0049808914 0.0037037212 -0.0121849207 -0.0040790795 0.0004479653 -0.0013841448 0.0054867324]
Time: 00m00s


**** Best Individual - #gen:80 ****
ChromeSize: 55	Kernels: 25	Fitness: 0.9799573261
Chromosome: [1 1 1 0 1 1 1 1 1 1 1 1 1 1 1 0 1 1 0 1 0 0 1 1 0 0 0 1 0 1 0 0 0 0 1 0 0 0 0 1 0 0 0 1 0 0 0 0 1 0 0 0 0 0 0]
Kernels: [0 1 2 4 5 6 7 8 9 10 11 12 13 14 16 17 19 22 23 27 29 34 39 43 48]
W: [0.3527020546 0.2275118655 0.1296095247 -0.1252920705 0.3471860487 0.2931958728 0.2356165674 0.1640329143 0.0996919427 0.2402837414 0.1978766504 0.1317967610 0.0671897705 0.1451891549 0.0453519921 0.0522961770 -0.0224005902 0.0001542749 0.0022637661 0.0099156764 -0.0016245034 -0.0003730930 0.0126531453 0.0050499518 -0.0072027970]
Time: 00m00s


**** Best Individual - #gen:90 ****
ChromeSize: 55	Kernels: 25	Fitness: 0.9857240068
Chromosome: [1 1 1 1 1 1 1 1 1 1 1 1 1 1 1 1 1 1 1 1 0 0 0 0 0 0 0 0 1 0 1 0 0 0 0 0 1 0 0 0 0 0 0 0 0 1 0 0 0 0 0 0 0 1 0]
Kernels: [0 1 2 3 4 5 6 7 8 9 10 11 12 13 14 15 16 17 18 19 28 30 36 45 53]
W: [0.3463181122 0.2383460218 0.1096286521 -0.0064732151 -0.1254994781 0.3461494362 0.2908056505 0.2358729216 0.1601277986 0.1001577974 0.2427277090 0.1861587539 0.1316250120 0.0644282664 0.1394078530 0.0932957882 0.0395645629 0.0503065291 -0.0002116904 -0.0213575386 -0.0003603078 -0.0037009608 0.0013663512 0.0032544928 -0.0000417857]
Time: 00m01s


**** Best Individual - #gen:100 ****
ChromeSize: 55	Kernels: 25	Fitness: 0.9841897560
Chromosome: [1 1 1 1 1 1 1 1 1 1 1 1 1 1 1 1 0 1 0 1 0 0 0 0 0 0 1 0 0 0 0 0 0 0 1 0 0 1 0 1 0 0 0 0 0 0 0 0 0 1 1 0 1 0 0]
Kernels: [0 1 2 3 4 5 6 7 8 9 10 11 12 13 14 15 17 19 26 34 37 39 49 50 52]
W: [0.3448156021 0.2304946622 0.1262330040 0.0012486012 -0.1234986743 0.3411888086 0.2902705514 0.2206295086 0.1675825127 0.0918453904 0.2404936500 0.1990686558 0.1296497050 0.0665505230 0.1394214357 0.0918806616 0.0522078714 -0.0253371400 -0.0016902156 -0.0016334798 -0.0025351674 0.0110189734 -0.0035614630 -0.0048613716 0.0051722242]
Time: 00m01s