Generations   Fitness        Kernels <= 27   Time
10            0.9608289180   27              00m00s
20            0.9792606307   27              00m00s
30            0.9761974783   26              00m00s
40            0.9795630444   27              00m00s
50            0.9856512300   26              00m00s
60            0.9811831417   27              00m00s
70            0.9858868381   26              00m00s
80            0.9858123457   25              00m01s
90            0.9848914465   26              00m01s
100           0.9856382577   27              00m01s