**** Best Individual - #gen:100 ****
ChromeSize: 55	Kernels: 14	Fitness: 0.9002756734
Chromosome: [0 0 1 0 0 0 1 0 0 0 1 0 0 1 1 0 1 0 0 1 0 0 0 1 0 1 0 0 1 0 0 0 0 0 0 1 0 0 0 0 1 0 0 1 0 0 0 0 0 0 0 0 1 0 0]
Kernels: [2 6 10 13 14 16 19 23 25 28 35 40 43 52]
W: [0.9924055817 -0.0016340719 -0.0036526273 -0.0077637818 0.0768283558 -0.0056439239 0.0039324680 -0.0033280074 0.0028636830 -0.0048933841 -0.0419537067 0.0054103505 -0.0063959182 0.0003369397]
Time: 05m35s