**** Best Individual - #gen:100 ****
ChromeSize: 55	Kernels: 15	Fitness: 0.8986367711
Chromosome: [0 0 1 0 1 1 0 0 0 0 1 1 1 0 1 0 0 0 0 0 0 0 1 0 1 1 1 0 0 0 0 0 0 0 0 1 0 0 0 0 0 1 0 1 0 0 0 0 1 0 0 0 0 0 0]
Kernels: [2 4 5 10 11 12 14 22 24 25 26 35 41 43 48]
W: [0.9857012687 -0.0044127496 -0.0046644233 0.0028319073 -0.0000780594 -0.0053394088 0.0809941887 0.0054422055 -0.0027425154 -0.0028342703 -0.0064579766 -0.0412633975 -0.0034207342 -0.0045134705 0.0036820556]
Time: 05m54s