**** Best Individual - #gen:100 ****
ChromeSize: 55	Kernels: 13	Fitness: 0.8982413419
Chromosome: [0 1 1 0 0 0 0 0 0 1 0 0 0 0 1 1 0 0 0 1 0 0 0 0 0 0 0 0 0 0 0 1 0 1 0 1 0 0 0 0 1 0 0 0 0 0 1 0 1 1 0 0 0 0 0]
Kernels: [1 2 9 14 15 19 31 33 35 40 46 48 49]
W: [-0.0049542606 1.0039172484 0.0015646026 0.0798291485 0.0034694831 0.0038703790 0.0051696588 -0.0041402854 -0.0390931688 -0.0032172889 -0.0027451126 -0.0033014243 -0.0049095979]
Time: 05m41s