**** Best Individual - #gen:100 ****
ChromeSize: 55	Kernels: 11	Fitness: 0.9023392198
Chromosome: [0 0 1 1 0 0 0 1 1 0 0 1 0 0 1 0 0 0 0 0 1 0 0 0 1 0 0 1 1 0 0 0 0 0 0 1 0 0 0 0 0 0 0 0 0 0 0 0 0 0 0 0 0 0 0]
Kernels: [2 3 7 8 11 14 20 24 27 28 35]
W: [1.0008877413 -0.0050312896 0.0060392969 -0.0071859204 -0.0082963379 0.0828461071 0.0021917166 -0.0027799716 0.0084501766 0.0061154730 -0.0403414385]
Time: 05m29s