**** Best Individual - #gen:100 ****
ChromeSize: 55	Kernels: 9	Fitness: 0.6197896396
Chromosome: [1 0 0 0 0 0 0 0 0 0 1 1 0 1 0 0 0 0 0 0 0 0 1 0 1 0 0 0 0 0 0 0 0 1 0 1 0 0 1 0 0 0 0 0 0 0 0 0 0 0 0 0 0 0 0]
Kernels: [0 10 11 13 22 24 33 35 38]
W: [0.5486961721 1.2226793199 0.8880724954 -0.0657902838 0.0201422419 0.0582977598 0.0723850943 0.0128455168 -0.0280536009]
Time: 00m16s