**** Best Individual - #gen:100 ****
ChromeSize: 55	Kernels: 12	Fitness: 0.9492096425
Chromosome: [1 0 1 0 0 0 1 0 0 0 1 1 0 0 0 0 0 1 0 1 0 0 0 0 0 0 0 0 0 0 0 0 0 0 0 1 0 0 0 0 0 0 1 0 0 0 1 0 1 0 0 0 0 0 1]
Kernels: [0 2 6 10 11 17 19 35 42 46 48 54]
W: [0.5853786469 -0.0249777038 0.0086981915 1.1960501151 0.7963395197 0.0143473373 -0.0082823981 -0.0053361231 0.0106448114 0.0072469784 0.0152732491 -0.0039443858]
Time: 00m16s