**** Best Individual - #gen:100 ****
ChromeSize: 55	Kernels: 8	Fitness: 0.9043818065
Chromosome: [0 0 1 0 0 0 0 0 0 0 0 0 0 0 1 0 0 0 0 0 0 0 1 0 0 0 0 0 0 0 1 0 1 1 0 1 0 0 0 0 0 0 0 0 0 0 0 0 0 0 0 0 0 1 0]
Kernels: [2 14 22 30 32 33 35 53]
W: [0.9887249060 0.0811091800 0.0120221605 0.0112015282 0.0066993246 0.0146843091 -0.0410246222 -0.0088893182]
Time: 01m02s