**** Best Individual - #gen:100 ****
ChromeSize: 55	Kernels: 15	Fitness: 0.8975274192
Chromosome: [1 1 1 0 0 0 0 0 0 0 1 0 0 0 1 0 0 1 0 0 0 1 0 0 1 1 0 0 0 0 0 1 0 0 1 1 0 0 0 0 0 0 0 0 1 0 1 0 0 0 0 0 0 1 0]
Kernels: [0 1 2 10 14 17 21 24 25 31 34 35 44 46 53]
W: [-0.0083537754 0.0180333984 0.9962968853 -0.0100663720 0.0885445128 -0.0050569544 0.0006457196 0.0075365996 0.0086627686 -0.0122325377 -0.0069392032 -0.0439174935 0.0039275011 -0.0051163407 0.0110922461]
Time: 01m05s