**** Best Individual - #gen:100 ****
ChromeSize: 55	Kernels: 11	Fitness: 0.9903515531
Chromosome: [0 0 1 0 0 0 0 0 0 0 0 0 0 0 1 0 0 0 0 0 1 0 0 0 0 0 1 0 0 0 0 0 0 0 0 1 1 1 0 0 0 0 0 1 1 0 1 0 0 0 0 1 0 0 0]
Kernels: [2 14 20 26 35 36 37 43 44 46 51]
W: [0.9988536928 0.0812744472 -0.0009505530 -0.0040532391 -0.0415809270 0.0019482039 -0.0014558172 0.0043922138 0.0019966177 0.0034759127 -0.0011567332]
Time: 01m04s