Generations   Fitness        Kernels <= 10   Time
10            0.9894259274   10              00m00s
20            0.9894750692   10              00m00s
30            0.9894884909   10              00m00s
40            0.9894551122   10              00m00s
50            0.9895499129    9              00m00s
60            0.9894567547   10              00m00s
70            0.9894849624   10              00m00s
80            0.9894229284   10              00m00s
90            0.9894396594   10              00m00s
100           0.9893858791   10              00m00s